15 8
15
(-1,-1,-1) (21, 24, 28) (-1,-1,-1) (22, 24, 26) (-1,-1,-1) (-1,-1,-1) (-1,-1,-1) (-1,-1,-1) 
(60, 63, 67) (62, 63, 68) (58, 63, 71) (-1,-1,-1) (-1,-1,-1) (-1,-1,-1) (58, 63, 73) (-1,-1,-1) 
(-1,-1,-1) (27, 29, 32) (26, 29, 34) (-1,-1,-1) (-1,-1,-1) (-1,-1,-1) (-1,-1,-1) (-1,-1,-1) 
(75, 83, 93) (75, 83, 91) (-1,-1,-1) (79, 83, 95) (-1,-1,-1) (-1,-1,-1) (-1,-1,-1) (-1,-1,-1) 
(-1,-1,-1) (-1,-1,-1) (-1,-1,-1) (-1,-1,-1) (-1,-1,-1) (-1,-1,-1) (-1,-1,-1) (22, 23, 24) 
(59, 66, 76) (-1,-1,-1) (-1,-1,-1) (62, 66, 78) (-1,-1,-1) (57, 66, 76) (-1,-1,-1) (-1,-1,-1) 
(-1,-1,-1) (26, 29, 32) (-1,-1,-1) (-1,-1,-1) (-1,-1,-1) (-1,-1,-1) (-1,-1,-1) (-1,-1,-1) 
(10, 11, 13) (-1,-1,-1) (-1,-1,-1) (-1,-1,-1) (-1,-1,-1) (-1,-1,-1) (-1,-1,-1) (10, 11, 13) 
(60, 62, 72) (54, 62, 71) (-1,-1,-1) (-1,-1,-1) (60, 62, 69) (-1,-1,-1) (59, 62, 65) (56, 62, 73) 
(-1,-1,-1) (86, 94, 105) (-1,-1,-1) (93, 94, 96) (-1,-1,-1) (-1,-1,-1) (-1,-1,-1) (81, 94, 112) 
(-1,-1,-1) (38, 41, 49) (38, 41, 47) (-1,-1,-1) (35, 41, 47) (-1,-1,-1) (37, 41, 49) (37, 41, 46) 
(-1,-1,-1) (-1,-1,-1) (-1,-1,-1) (-1,-1,-1) (81, 90, 101) (-1,-1,-1) (-1,-1,-1) (-1,-1,-1) 
(-1,-1,-1) (-1,-1,-1) (-1,-1,-1) (-1,-1,-1) (-1,-1,-1) (54, 63, 72) (-1,-1,-1) (58, 63, 68) 
(42, 45, 53) (42, 45, 52) (-1,-1,-1) (42, 45, 50) (-1,-1,-1) (41, 45, 52) (-1,-1,-1) (-1,-1,-1) 
(-1,-1,-1) (-1,-1,-1) (-1,-1,-1) (-1,-1,-1) (-1,-1,-1) (86, 91, 100) (-1,-1,-1) (81, 91, 107) 
20
(-1,-1,-1) (65, 73, 84) (-1,-1,-1) (-1,-1,-1) (-1,-1,-1) (-1,-1,-1) (65, 73, 87) (68, 73, 87) 
(-1,-1,-1) (27, 31, 37) (-1,-1,-1) (-1,-1,-1) (-1,-1,-1) (-1,-1,-1) (-1,-1,-1) (-1,-1,-1) 
(-1,-1,-1) (-1,-1,-1) (-1,-1,-1) (-1,-1,-1) (-1,-1,-1) (-1,-1,-1) (-1,-1,-1) (88, 97, 115) 
(10, 11, 13) (10, 11, 13) (-1,-1,-1) (-1,-1,-1) (-1,-1,-1) (-1,-1,-1) (-1,-1,-1) (-1,-1,-1) 
(-1,-1,-1) (19, 20, 23) (-1,-1,-1) (-1,-1,-1) (-1,-1,-1) (17, 20, 24) (17, 20, 24) (17, 20, 23) 
(-1,-1,-1) (-1,-1,-1) (88, 90, 92) (86, 90, 100) (-1,-1,-1) (-1,-1,-1) (-1,-1,-1) (-1,-1,-1) 
(20, 21, 23) (-1,-1,-1) (18, 21, 24) (-1,-1,-1) (-1,-1,-1) (-1,-1,-1) (18, 21, 25) (-1,-1,-1) 
(-1,-1,-1) (-1,-1,-1) (76, 78, 86) (-1,-1,-1) (-1,-1,-1) (-1,-1,-1) (69, 78, 88) (68, 78, 88) 
(-1,-1,-1) (-1,-1,-1) (-1,-1,-1) (36, 37, 41) (-1,-1,-1) (-1,-1,-1) (-1,-1,-1) (-1,-1,-1) 
(-1,-1,-1) (66, 68, 73) (-1,-1,-1) (60, 68, 77) (-1,-1,-1) (65, 68, 77) (64, 68, 75) (-1,-1,-1) 
(-1,-1,-1) (-1,-1,-1) (-1,-1,-1) (-1,-1,-1) (47, 48, 50) (-1,-1,-1) (-1,-1,-1) (-1,-1,-1) 
(53, 55, 66) (-1,-1,-1) (-1,-1,-1) (52, 55, 61) (-1,-1,-1) (54, 55, 59) (-1,-1,-1) (-1,-1,-1) 
(-1,-1,-1) (-1,-1,-1) (34, 38, 42) (-1,-1,-1) (37, 38, 43) (-1,-1,-1) (-1,-1,-1) (35, 38, 45) 
(43, 49, 56) (45, 49, 56) (-1,-1,-1) (-1,-1,-1) (42, 49, 57) (-1,-1,-1) (48, 49, 50) (-1,-1,-1) 
(-1,-1,-1) (-1,-1,-1) (-1,-1,-1) (-1,-1,-1) (64, 69, 78) (-1,-1,-1) (-1,-1,-1) (-1,-1,-1) 
(-1,-1,-1) (-1,-1,-1) (65, 73, 84) (65, 73, 83) (-1,-1,-1) (-1,-1,-1) (-1,-1,-1) (-1,-1,-1) 
(-1,-1,-1) (-1,-1,-1) (70, 80, 94) (-1,-1,-1) (77, 80, 84) (-1,-1,-1) (-1,-1,-1) (-1,-1,-1) 
(76, 83, 94) (-1,-1,-1) (-1,-1,-1) (75, 83, 94) (78, 83, 96) (-1,-1,-1) (-1,-1,-1) (-1,-1,-1) 
(-1,-1,-1) (34, 39, 46) (-1,-1,-1) (-1,-1,-1) (37, 39, 43) (37, 39, 46) (38, 39, 46) (-1,-1,-1) 
(89, 98, 113) (93, 98, 109) (-1,-1,-1) (-1,-1,-1) (84, 98, 116) (-1,-1,-1) (88, 98, 109) (-1,-1,-1) 
23
(-1,-1,-1) (-1,-1,-1) (-1,-1,-1) (-1,-1,-1) (-1,-1,-1) (-1,-1,-1) (-1,-1,-1) (61, 71, 84) 
(21, 24, 27) (21, 24, 28) (-1,-1,-1) (-1,-1,-1) (22, 24, 28) (21, 24, 27) (-1,-1,-1) (21, 24, 27) 
(-1,-1,-1) (86, 89, 106) (-1,-1,-1) (-1,-1,-1) (79, 89, 101) (77, 89, 106) (-1,-1,-1) (-1,-1,-1) 
(67, 73, 79) (72, 73, 77) (-1,-1,-1) (-1,-1,-1) (-1,-1,-1) (65, 73, 83) (-1,-1,-1) (65, 73, 86) 
(43, 44, 45) (38, 44, 52) (39, 44, 49) (-1,-1,-1) (-1,-1,-1) (39, 44, 50) (-1,-1,-1) (39, 44, 49) 
(-1,-1,-1) (-1,-1,-1) (-1,-1,-1) (59, 61, 71) (-1,-1,-1) (-1,-1,-1) (-1,-1,-1) (56, 61, 66) 
(-1,-1,-1) (50, 53, 62) (-1,-1,-1) (-1,-1,-1) (-1,-1,-1) (-1,-1,-1) (-1,-1,-1) (-1,-1,-1) 
(-1,-1,-1) (33, 35, 42) (-1,-1,-1) (31, 35, 39) (-1,-1,-1) (-1,-1,-1) (-1,-1,-1) (-1,-1,-1) 
(-1,-1,-1) (-1,-1,-1) (-1,-1,-1) (-1,-1,-1) (90, 95, 113) (-1,-1,-1) (-1,-1,-1) (88, 95, 107) 
(29, 33, 39) (-1,-1,-1) (29, 33, 37) (29, 33, 39) (-1,-1,-1) (31, 33, 37) (29, 33, 39) (-1,-1,-1) 
(-1,-1,-1) (-1,-1,-1) (-1,-1,-1) (-1,-1,-1) (54, 59, 67) (-1,-1,-1) (-1,-1,-1) (-1,-1,-1) 
(-1,-1,-1) (64, 68, 73) (-1,-1,-1) (-1,-1,-1) (-1,-1,-1) (63, 68, 77) (58, 68, 78) (-1,-1,-1) 
(-1,-1,-1) (-1,-1,-1) (-1,-1,-1) (52, 61, 70) (-1,-1,-1) (-1,-1,-1) (-1,-1,-1) (-1,-1,-1) 
(51, 56, 61) (-1,-1,-1) (-1,-1,-1) (-1,-1,-1) (-1,-1,-1) (55, 56, 64) (-1,-1,-1) (-1,-1,-1) 
(-1,-1,-1) (-1,-1,-1) (-1,-1,-1) (27, 28, 31) (-1,-1,-1) (-1,-1,-1) (-1,-1,-1) (-1,-1,-1) 
(16, 18, 21) (16, 18, 21) (-1,-1,-1) (-1,-1,-1) (-1,-1,-1) (-1,-1,-1) (-1,-1,-1) (-1,-1,-1) 
(-1,-1,-1) (32, 35, 40) (-1,-1,-1) (-1,-1,-1) (34, 35, 42) (-1,-1,-1) (33, 35, 40) (-1,-1,-1) 
(-1,-1,-1) (68, 73, 79) (69, 73, 83) (70, 73, 84) (69, 73, 81) (-1,-1,-1) (-1,-1,-1) (70, 73, 84) 
(71, 78, 92) (73, 78, 87) (-1,-1,-1) (-1,-1,-1) (74, 78, 82) (72, 78, 92) (-1,-1,-1) (-1,-1,-1) 
(-1,-1,-1) (-1,-1,-1) (-1,-1,-1) (-1,-1,-1) (-1,-1,-1) (-1,-1,-1) (65, 70, 83) (-1,-1,-1) 
(64, 65, 67) (63, 65, 72) (-1,-1,-1) (62, 65, 69) (-1,-1,-1) (-1,-1,-1) (62, 65, 73) (-1,-1,-1) 
(-1,-1,-1) (38, 44, 50) (-1,-1,-1) (43, 44, 51) (42, 44, 51) (-1,-1,-1) (41, 44, 48) (-1,-1,-1) 
(51, 56, 66) (-1,-1,-1) (53, 56, 59) (-1,-1,-1) (-1,-1,-1) (-1,-1,-1) (-1,-1,-1) (-1,-1,-1) 
18
(-1,-1,-1) (-1,-1,-1) (54, 60, 72) (-1,-1,-1) (54, 60, 69) (-1,-1,-1) (-1,-1,-1) (53, 60, 72) 
(-1,-1,-1) (-1,-1,-1) (-1,-1,-1) (62, 69, 79) (-1,-1,-1) (-1,-1,-1) (-1,-1,-1) (-1,-1,-1) 
(90, 94, 103) (-1,-1,-1) (-1,-1,-1) (-1,-1,-1) (-1,-1,-1) (83, 94, 108) (-1,-1,-1) (-1,-1,-1) 
(-1,-1,-1) (-1,-1,-1) (26, 28, 31) (26, 28, 31) (27, 28, 33) (-1,-1,-1) (-1,-1,-1) (-1,-1,-1) 
(-1,-1,-1) (-1,-1,-1) (-1,-1,-1) (-1,-1,-1) (-1,-1,-1) (-1,-1,-1) (54, 63, 73) (-1,-1,-1) 
(-1,-1,-1) (-1,-1,-1) (-1,-1,-1) (-1,-1,-1) (15, 17, 19) (-1,-1,-1) (-1,-1,-1) (-1,-1,-1) 
(58, 61, 65) (-1,-1,-1) (-1,-1,-1) (-1,-1,-1) (54, 61, 68) (-1,-1,-1) (-1,-1,-1) (-1,-1,-1) 
(-1,-1,-1) (29, 34, 40) (-1,-1,-1) (-1,-1,-1) (-1,-1,-1) (-1,-1,-1) (-1,-1,-1) (32, 34, 37) 
(-1,-1,-1) (-1,-1,-1) (-1,-1,-1) (-1,-1,-1) (-1,-1,-1) (95, 96, 106) (-1,-1,-1) (-1,-1,-1) 
(-1,-1,-1) (30, 31, 32) (28, 31, 37) (-1,-1,-1) (-1,-1,-1) (-1,-1,-1) (27, 31, 35) (-1,-1,-1) 
(71, 82, 93) (-1,-1,-1) (-1,-1,-1) (76, 82, 94) (77, 82, 96) (-1,-1,-1) (-1,-1,-1) (-1,-1,-1) 
(-1,-1,-1) (-1,-1,-1) (37, 40, 47) (-1,-1,-1) (-1,-1,-1) (34, 40, 47) (-1,-1,-1) (-1,-1,-1) 
(-1,-1,-1) (-1,-1,-1) (-1,-1,-1) (56, 63, 70) (56, 63, 70) (54, 63, 74) (58, 63, 70) (-1,-1,-1) 
(-1,-1,-1) (86, 95, 108) (-1,-1,-1) (-1,-1,-1) (93, 95, 99) (-1,-1,-1) (-1,-1,-1) (-1,-1,-1) 
(59, 68, 79) (-1,-1,-1) (-1,-1,-1) (-1,-1,-1) (-1,-1,-1) (-1,-1,-1) (-1,-1,-1) (-1,-1,-1) 
(86, 91, 100) (-1,-1,-1) (87, 91, 107) (-1,-1,-1) (-1,-1,-1) (-1,-1,-1) (-1,-1,-1) (-1,-1,-1) 
(37, 43, 50) (-1,-1,-1) (-1,-1,-1) (37, 43, 51) (-1,-1,-1) (-1,-1,-1) (-1,-1,-1) (-1,-1,-1) 
(31, 32, 34) (-1,-1,-1) (-1,-1,-1) (31, 32, 35) (30, 32, 34) (-1,-1,-1) (-1,-1,-1) (-1,-1,-1) 
21
(-1,-1,-1) (49, 54, 62) (51, 54, 61) (-1,-1,-1) (-1,-1,-1) (50, 54, 61) (-1,-1,-1) (-1,-1,-1) 
(-1,-1,-1) (88, 92, 102) (84, 92, 101) (82, 92, 109) (81, 92, 109) (-1,-1,-1) (-1,-1,-1) (-1,-1,-1) 
(38, 40, 42) (38, 40, 47) (-1,-1,-1) (38, 40, 44) (-1,-1,-1) (-1,-1,-1) (39, 40, 44) (-1,-1,-1) 
(-1,-1,-1) (-1,-1,-1) (83, 84, 93) (-1,-1,-1) (-1,-1,-1) (-1,-1,-1) (80, 84, 100) (79, 84, 95) 
(-1,-1,-1) (-1,-1,-1) (36, 38, 44) (-1,-1,-1) (-1,-1,-1) (-1,-1,-1) (34, 38, 42) (-1,-1,-1) 
(-1,-1,-1) (81, 94, 108) (-1,-1,-1) (81, 94, 110) (-1,-1,-1) (-1,-1,-1) (89, 94, 103) (-1,-1,-1) 
(56, 63, 72) (-1,-1,-1) (-1,-1,-1) (-1,-1,-1) (-1,-1,-1) (-1,-1,-1) (-1,-1,-1) (-1,-1,-1) 
(-1,-1,-1) (96, 99, 110) (-1,-1,-1) (-1,-1,-1) (-1,-1,-1) (-1,-1,-1) (-1,-1,-1) (-1,-1,-1) 
(-1,-1,-1) (-1,-1,-1) (-1,-1,-1) (-1,-1,-1) (-1,-1,-1) (44, 45, 49) (-1,-1,-1) (39, 45, 51) 
(-1,-1,-1) (-1,-1,-1) (24, 28, 32) (24, 28, 32) (-1,-1,-1) (-1,-1,-1) (-1,-1,-1) (-1,-1,-1) 
(-1,-1,-1) (52, 59, 69) (53, 59, 67) (-1,-1,-1) (-1,-1,-1) (55, 59, 68) (-1,-1,-1) (58, 59, 67) 
(-1,-1,-1) (-1,-1,-1) (-1,-1,-1) (-1,-1,-1) (86, 97, 109) (-1,-1,-1) (84, 97, 115) (93, 97, 116) 
(66, 69, 80) (-1,-1,-1) (-1,-1,-1) (-1,-1,-1) (65, 69, 81) (-1,-1,-1) (68, 69, 71) (-1,-1,-1) 
(-1,-1,-1) (-1,-1,-1) (60, 61, 73) (60, 61, 68) (59, 61, 63) (57, 61, 65) (-1,-1,-1) (52, 61, 71) 
(-1,-1,-1) (-1,-1,-1) (-1,-1,-1) (93, 98, 116) (89, 98, 112) (-1,-1,-1) (87, 98, 113) (-1,-1,-1) 
(-1,-1,-1) (-1,-1,-1) (-1,-1,-1) (-1,-1,-1) (37, 42, 47) (-1,-1,-1) (-1,-1,-1) (-1,-1,-1) 
(-1,-1,-1) (90, 100, 119) (-1,-1,-1) (-1,-1,-1) (85, 100, 118) (-1,-1,-1) (-1,-1,-1) (-1,-1,-1) 
(61, 68, 76) (-1,-1,-1) (-1,-1,-1) (-1,-1,-1) (-1,-1,-1) (67, 68, 76) (67, 68, 80) (-1,-1,-1) 
(-1,-1,-1) (-1,-1,-1) (-1,-1,-1) (-1,-1,-1) (74, 83, 92) (76, 83, 90) (71, 83, 99) (-1,-1,-1) 
(63, 69, 81) (-1,-1,-1) (-1,-1,-1) (-1,-1,-1) (67, 69, 79) (59, 69, 79) (-1,-1,-1) (60, 69, 82) 
(-1,-1,-1) (15, 17, 19) (-1,-1,-1) (-1,-1,-1) (16, 17, 18) (-1,-1,-1) (15, 17, 20) (-1,-1,-1) 
15
(-1,-1,-1) (-1,-1,-1) (-1,-1,-1) (-1,-1,-1) (23, 26, 31) (-1,-1,-1) (-1,-1,-1) (-1,-1,-1) 
(27, 29, 31) (-1,-1,-1) (25, 29, 34) (28, 29, 34) (28, 29, 30) (27, 29, 33) (-1,-1,-1) (-1,-1,-1) 
(-1,-1,-1) (-1,-1,-1) (-1,-1,-1) (-1,-1,-1) (-1,-1,-1) (-1,-1,-1) (19, 20, 22) (-1,-1,-1) 
(-1,-1,-1) (-1,-1,-1) (-1,-1,-1) (-1,-1,-1) (-1,-1,-1) (-1,-1,-1) (85, 100, 116) (-1,-1,-1) 
(80, 87, 104) (-1,-1,-1) (78, 87, 99) (-1,-1,-1) (-1,-1,-1) (-1,-1,-1) (-1,-1,-1) (81, 87, 97) 
(-1,-1,-1) (-1,-1,-1) (-1,-1,-1) (-1,-1,-1) (-1,-1,-1) (-1,-1,-1) (-1,-1,-1) (60, 67, 76) 
(14, 16, 18) (-1,-1,-1) (-1,-1,-1) (15, 16, 18) (-1,-1,-1) (14, 16, 19) (-1,-1,-1) (-1,-1,-1) 
(85, 86, 96) (75, 86, 103) (-1,-1,-1) (81, 86, 96) (-1,-1,-1) (81, 86, 100) (-1,-1,-1) (-1,-1,-1) 
(-1,-1,-1) (-1,-1,-1) (-1,-1,-1) (-1,-1,-1) (-1,-1,-1) (-1,-1,-1) (31, 36, 43) (-1,-1,-1) 
(-1,-1,-1) (-1,-1,-1) (-1,-1,-1) (-1,-1,-1) (72, 73, 87) (-1,-1,-1) (-1,-1,-1) (64, 73, 83) 
(37, 41, 46) (-1,-1,-1) (-1,-1,-1) (-1,-1,-1) (37, 41, 45) (-1,-1,-1) (-1,-1,-1) (-1,-1,-1) 
(-1,-1,-1) (86, 100, 119) (86, 100, 116) (94, 100, 118) (-1,-1,-1) (-1,-1,-1) (-1,-1,-1) (-1,-1,-1) 
(22, 23, 27) (-1,-1,-1) (-1,-1,-1) (-1,-1,-1) (-1,-1,-1) (21, 23, 27) (21, 23, 25) (-1,-1,-1) 
(-1,-1,-1) (-1,-1,-1) (-1,-1,-1) (31, 33, 35) (-1,-1,-1) (-1,-1,-1) (31, 33, 39) (31, 33, 36) 
(-1,-1,-1) (-1,-1,-1) (86, 92, 98) (-1,-1,-1) (86, 92, 108) (-1,-1,-1) (-1,-1,-1) (79, 92, 110) 
17
(65, 74, 86) (-1,-1,-1) (-1,-1,-1) (-1,-1,-1) (68, 74, 88) (70, 74, 83) (-1,-1,-1) (64, 74, 85) 
(-1,-1,-1) (-1,-1,-1) (-1,-1,-1) (-1,-1,-1) (-1,-1,-1) (-1,-1,-1) (78, 90, 107) (87, 90, 99) 
(-1,-1,-1) (43, 49, 57) (-1,-1,-1) (-1,-1,-1) (-1,-1,-1) (-1,-1,-1) (-1,-1,-1) (-1,-1,-1) 
(-1,-1,-1) (-1,-1,-1) (-1,-1,-1) (-1,-1,-1) (-1,-1,-1) (-1,-1,-1) (31, 34, 40) (-1,-1,-1) 
(-1,-1,-1) (40, 47, 54) (-1,-1,-1) (-1,-1,-1) (-1,-1,-1) (-1,-1,-1) (-1,-1,-1) (-1,-1,-1) 
(-1,-1,-1) (-1,-1,-1) (53, 62, 73) (-1,-1,-1) (-1,-1,-1) (57, 62, 74) (-1,-1,-1) (-1,-1,-1) 
(58, 59, 60) (-1,-1,-1) (57, 59, 69) (54, 59, 64) (-1,-1,-1) (-1,-1,-1) (-1,-1,-1) (58, 59, 61) 
(-1,-1,-1) (-1,-1,-1) (-1,-1,-1) (88, 98, 116) (95, 98, 103) (-1,-1,-1) (-1,-1,-1) (-1,-1,-1) 
(-1,-1,-1) (-1,-1,-1) (63, 73, 83) (-1,-1,-1) (-1,-1,-1) (-1,-1,-1) (-1,-1,-1) (66, 73, 82) 
(71, 79, 92) (-1,-1,-1) (-1,-1,-1) (74, 79, 86) (-1,-1,-1) (-1,-1,-1) (-1,-1,-1) (-1,-1,-1) 
(-1,-1,-1) (-1,-1,-1) (-1,-1,-1) (-1,-1,-1) (-1,-1,-1) (-1,-1,-1) (9, 10, 12) (9, 10, 11) 
(-1,-1,-1) (-1,-1,-1) (29, 32, 38) (-1,-1,-1) (-1,-1,-1) (-1,-1,-1) (-1,-1,-1) (-1,-1,-1) 
(-1,-1,-1) (-1,-1,-1) (-1,-1,-1) (-1,-1,-1) (-1,-1,-1) (-1,-1,-1) (-1,-1,-1) (51, 55, 66) 
(-1,-1,-1) (51, 53, 56) (-1,-1,-1) (47, 53, 62) (-1,-1,-1) (-1,-1,-1) (-1,-1,-1) (46, 53, 63) 
(18, 19, 22) (-1,-1,-1) (-1,-1,-1) (-1,-1,-1) (18, 19, 22) (18, 19, 21) (18, 19, 22) (-1,-1,-1) 
(53, 55, 57) (-1,-1,-1) (-1,-1,-1) (-1,-1,-1) (-1,-1,-1) (48, 55, 62) (54, 55, 56) (-1,-1,-1) 
(-1,-1,-1) (-1,-1,-1) (-1,-1,-1) (-1,-1,-1) (-1,-1,-1) (-1,-1,-1) (-1,-1,-1) (87, 88, 105) 
25
(-1,-1,-1) (-1,-1,-1) (-1,-1,-1) (42, 46, 50) (41, 46, 53) (41, 46, 51) (-1,-1,-1) (45, 46, 48) 
(68, 73, 83) (-1,-1,-1) (65, 73, 85) (-1,-1,-1) (-1,-1,-1) (66, 73, 86) (64, 73, 86) (-1,-1,-1) 
(-1,-1,-1) (-1,-1,-1) (29, 30, 33) (-1,-1,-1) (-1,-1,-1) (26, 30, 34) (-1,-1,-1) (27, 30, 34) 
(-1,-1,-1) (42, 48, 54) (-1,-1,-1) (-1,-1,-1) (45, 48, 54) (-1,-1,-1) (-1,-1,-1) (-1,-1,-1) 
(-1,-1,-1) (48, 50, 58) (-1,-1,-1) (47, 50, 59) (-1,-1,-1) (-1,-1,-1) (-1,-1,-1) (-1,-1,-1) 
(-1,-1,-1) (-1,-1,-1) (-1,-1,-1) (35, 37, 42) (33, 37, 43) (36, 37, 39) (35, 37, 44) (-1,-1,-1) 
(-1,-1,-1) (72, 75, 78) (-1,-1,-1) (73, 75, 83) (-1,-1,-1) (-1,-1,-1) (67, 75, 86) (-1,-1,-1) 
(-1,-1,-1) (-1,-1,-1) (32, 36, 42) (-1,-1,-1) (-1,-1,-1) (-1,-1,-1) (-1,-1,-1) (-1,-1,-1) 
(-1,-1,-1) (-1,-1,-1) (66, 71, 84) (-1,-1,-1) (-1,-1,-1) (-1,-1,-1) (-1,-1,-1) (-1,-1,-1) 
(-1,-1,-1) (-1,-1,-1) (-1,-1,-1) (61, 66, 76) (-1,-1,-1) (-1,-1,-1) (-1,-1,-1) (-1,-1,-1) 
(-1,-1,-1) (-1,-1,-1) (34, 39, 44) (-1,-1,-1) (-1,-1,-1) (-1,-1,-1) (-1,-1,-1) (36, 39, 42) 
(-1,-1,-1) (-1,-1,-1) (-1,-1,-1) (-1,-1,-1) (-1,-1,-1) (-1,-1,-1) (16, 17, 19) (-1,-1,-1) 
(-1,-1,-1) (-1,-1,-1) (26, 30, 36) (-1,-1,-1) (-1,-1,-1) (27, 30, 36) (-1,-1,-1) (-1,-1,-1) 
(-1,-1,-1) (-1,-1,-1) (-1,-1,-1) (-1,-1,-1) (37, 42, 48) (-1,-1,-1) (-1,-1,-1) (-1,-1,-1) 
(88, 94, 105) (-1,-1,-1) (-1,-1,-1) (-1,-1,-1) (-1,-1,-1) (-1,-1,-1) (-1,-1,-1) (-1,-1,-1) 
(-1,-1,-1) (56, 59, 70) (-1,-1,-1) (-1,-1,-1) (57, 59, 62) (-1,-1,-1) (-1,-1,-1) (-1,-1,-1) 
(-1,-1,-1) (-1,-1,-1) (-1,-1,-1) (-1,-1,-1) (-1,-1,-1) (-1,-1,-1) (-1,-1,-1) (34, 36, 39) 
(65, 68, 81) (66, 68, 71) (64, 68, 79) (-1,-1,-1) (62, 68, 80) (-1,-1,-1) (-1,-1,-1) (60, 68, 79) 
(-1,-1,-1) (-1,-1,-1) (19, 21, 23) (-1,-1,-1) (-1,-1,-1) (19, 21, 23) (18, 21, 24) (19, 21, 23) 
(-1,-1,-1) (23, 25, 27) (-1,-1,-1) (-1,-1,-1) (-1,-1,-1) (-1,-1,-1) (-1,-1,-1) (-1,-1,-1) 
(-1,-1,-1) (-1,-1,-1) (-1,-1,-1) (63, 65, 76) (-1,-1,-1) (-1,-1,-1) (-1,-1,-1) (-1,-1,-1) 
(50, 58, 68) (-1,-1,-1) (-1,-1,-1) (-1,-1,-1) (-1,-1,-1) (-1,-1,-1) (-1,-1,-1) (-1,-1,-1) 
(56, 65, 76) (-1,-1,-1) (-1,-1,-1) (60, 65, 72) (-1,-1,-1) (61, 65, 76) (-1,-1,-1) (-1,-1,-1) 
(-1,-1,-1) (-1,-1,-1) (-1,-1,-1) (-1,-1,-1) (-1,-1,-1) (-1,-1,-1) (-1,-1,-1) (31, 36, 41) 
(-1,-1,-1) (-1,-1,-1) (-1,-1,-1) (-1,-1,-1) (-1,-1,-1) (-1,-1,-1) (40, 45, 50) (41, 45, 50) 
23
(81, 82, 85) (-1,-1,-1) (-1,-1,-1) (-1,-1,-1) (-1,-1,-1) (-1,-1,-1) (77, 82, 91) (-1,-1,-1) 
(38, 42, 49) (-1,-1,-1) (-1,-1,-1) (-1,-1,-1) (-1,-1,-1) (-1,-1,-1) (41, 42, 48) (38, 42, 48) 
(-1,-1,-1) (-1,-1,-1) (-1,-1,-1) (-1,-1,-1) (-1,-1,-1) (-1,-1,-1) (-1,-1,-1) (74, 82, 94) 
(-1,-1,-1) (-1,-1,-1) (44, 51, 59) (-1,-1,-1) (-1,-1,-1) (-1,-1,-1) (-1,-1,-1) (-1,-1,-1) 
(-1,-1,-1) (-1,-1,-1) (64, 75, 89) (-1,-1,-1) (69, 75, 85) (-1,-1,-1) (73, 75, 80) (-1,-1,-1) 
(34, 35, 39) (-1,-1,-1) (-1,-1,-1) (-1,-1,-1) (-1,-1,-1) (-1,-1,-1) (-1,-1,-1) (34, 35, 40) 
(73, 78, 87) (73, 78, 83) (70, 78, 93) (69, 78, 89) (72, 78, 92) (-1,-1,-1) (69, 78, 92) (-1,-1,-1) 
(-1,-1,-1) (-1,-1,-1) (-1,-1,-1) (-1,-1,-1) (-1,-1,-1) (38, 43, 50) (41, 43, 51) (-1,-1,-1) 
(-1,-1,-1) (-1,-1,-1) (72, 77, 84) (-1,-1,-1) (-1,-1,-1) (-1,-1,-1) (-1,-1,-1) (-1,-1,-1) 
(-1,-1,-1) (-1,-1,-1) (-1,-1,-1) (37, 42, 48) (-1,-1,-1) (-1,-1,-1) (-1,-1,-1) (39, 42, 49) 
(-1,-1,-1) (-1,-1,-1) (-1,-1,-1) (-1,-1,-1) (-1,-1,-1) (-1,-1,-1) (17, 18, 19) (-1,-1,-1) 
(58, 63, 73) (60, 63, 66) (55, 63, 72) (-1,-1,-1) (-1,-1,-1) (60, 63, 73) (-1,-1,-1) (-1,-1,-1) 
(-1,-1,-1) (-1,-1,-1) (85, 99, 116) (-1,-1,-1) (-1,-1,-1) (-1,-1,-1) (-1,-1,-1) (88, 99, 117) 
(-1,-1,-1) (-1,-1,-1) (-1,-1,-1) (-1,-1,-1) (15, 16, 19) (-1,-1,-1) (-1,-1,-1) (-1,-1,-1) 
(-1,-1,-1) (-1,-1,-1) (-1,-1,-1) (-1,-1,-1) (-1,-1,-1) (-1,-1,-1) (-1,-1,-1) (31, 34, 39) 
(93, 99, 114) (90, 99, 118) (-1,-1,-1) (95, 99, 110) (-1,-1,-1) (-1,-1,-1) (-1,-1,-1) (93, 99, 118) 
(-1,-1,-1) (-1,-1,-1) (81, 87, 104) (74, 87, 103) (77, 87, 100) (-1,-1,-1) (-1,-1,-1) (-1,-1,-1) 
(-1,-1,-1) (-1,-1,-1) (-1,-1,-1) (-1,-1,-1) (-1,-1,-1) (42, 46, 52) (-1,-1,-1) (-1,-1,-1) 
(-1,-1,-1) (-1,-1,-1) (-1,-1,-1) (-1,-1,-1) (-1,-1,-1) (70, 81, 93) (-1,-1,-1) (70, 81, 95) 
(-1,-1,-1) (-1,-1,-1) (-1,-1,-1) (-1,-1,-1) (-1,-1,-1) (-1,-1,-1) (36, 41, 46) (-1,-1,-1) 
(-1,-1,-1) (-1,-1,-1) (50, 58, 67) (-1,-1,-1) (-1,-1,-1) (54, 58, 62) (-1,-1,-1) (56, 58, 67) 
(49, 57, 66) (-1,-1,-1) (56, 57, 61) (54, 57, 62) (53, 57, 68) (-1,-1,-1) (-1,-1,-1) (52, 57, 66) 
(-1,-1,-1) (-1,-1,-1) (-1,-1,-1) (-1,-1,-1) (-1,-1,-1) (26, 30, 34) (-1,-1,-1) (28, 30, 36) 
19
(-1,-1,-1) (-1,-1,-1) (51, 60, 71) (-1,-1,-1) (-1,-1,-1) (-1,-1,-1) (-1,-1,-1) (-1,-1,-1) 
(-1,-1,-1) (-1,-1,-1) (-1,-1,-1) (-1,-1,-1) (-1,-1,-1) (48, 52, 61) (51, 52, 53) (-1,-1,-1) 
(-1,-1,-1) (-1,-1,-1) (-1,-1,-1) (-1,-1,-1) (-1,-1,-1) (87, 92, 107) (-1,-1,-1) (-1,-1,-1) 
(-1,-1,-1) (31, 32, 34) (-1,-1,-1) (30, 32, 34) (31, 32, 34) (30, 32, 36) (-1,-1,-1) (-1,-1,-1) 
(-1,-1,-1) (-1,-1,-1) (-1,-1,-1) (-1,-1,-1) (77, 80, 96) (-1,-1,-1) (72, 80, 88) (78, 80, 90) 
(-1,-1,-1) (-1,-1,-1) (40, 42, 49) (-1,-1,-1) (-1,-1,-1) (-1,-1,-1) (-1,-1,-1) (41, 42, 50) 
(-1,-1,-1) (29, 33, 38) (29, 33, 39) (-1,-1,-1) (32, 33, 36) (-1,-1,-1) (-1,-1,-1) (-1,-1,-1) 
(36, 40, 46) (-1,-1,-1) (-1,-1,-1) (34, 40, 46) (-1,-1,-1) (-1,-1,-1) (38, 40, 47) (-1,-1,-1) 
(-1,-1,-1) (-1,-1,-1) (69, 80, 92) (70, 80, 93) (-1,-1,-1) (-1,-1,-1) (74, 80, 88) (-1,-1,-1) 
(-1,-1,-1) (-1,-1,-1) (-1,-1,-1) (69, 72, 83) (-1,-1,-1) (-1,-1,-1) (-1,-1,-1) (-1,-1,-1) 
(-1,-1,-1) (-1,-1,-1) (-1,-1,-1) (-1,-1,-1) (-1,-1,-1) (-1,-1,-1) (61, 64, 69) (-1,-1,-1) 
(71, 77, 90) (66, 77, 92) (-1,-1,-1) (-1,-1,-1) (-1,-1,-1) (-1,-1,-1) (70, 77, 92) (67, 77, 88) 
(20, 23, 26) (-1,-1,-1) (22, 23, 27) (-1,-1,-1) (22, 23, 27) (-1,-1,-1) (22, 23, 24) (-1,-1,-1) 
(-1,-1,-1) (-1,-1,-1) (-1,-1,-1) (-1,-1,-1) (-1,-1,-1) (45, 50, 57) (43, 50, 57) (-1,-1,-1) 
(12, 13, 15) (12, 13, 14) (12, 13, 15) (-1,-1,-1) (-1,-1,-1) (-1,-1,-1) (-1,-1,-1) (-1,-1,-1) 
(-1,-1,-1) (-1,-1,-1) (-1,-1,-1) (-1,-1,-1) (-1,-1,-1) (35, 38, 45) (37, 38, 40) (-1,-1,-1) 
(18, 21, 24) (-1,-1,-1) (-1,-1,-1) (-1,-1,-1) (18, 21, 25) (-1,-1,-1) (-1,-1,-1) (-1,-1,-1) 
(-1,-1,-1) (-1,-1,-1) (75, 77, 89) (-1,-1,-1) (-1,-1,-1) (-1,-1,-1) (73, 77, 91) (68, 77, 86) 
(-1,-1,-1) (-1,-1,-1) (-1,-1,-1) (-1,-1,-1) (-1,-1,-1) (92, 95, 107) (-1,-1,-1) (-1,-1,-1) 
19
(-1,-1,-1) (51, 60, 70) (-1,-1,-1) (-1,-1,-1) (53, 60, 69) (-1,-1,-1) (-1,-1,-1) (-1,-1,-1) 
(-1,-1,-1) (-1,-1,-1) (-1,-1,-1) (83, 94, 107) (-1,-1,-1) (80, 94, 111) (-1,-1,-1) (-1,-1,-1) 
(-1,-1,-1) (-1,-1,-1) (52, 53, 58) (-1,-1,-1) (-1,-1,-1) (52, 53, 54) (-1,-1,-1) (-1,-1,-1) 
(73, 82, 91) (-1,-1,-1) (-1,-1,-1) (77, 82, 96) (-1,-1,-1) (-1,-1,-1) (-1,-1,-1) (-1,-1,-1) 
(-1,-1,-1) (-1,-1,-1) (-1,-1,-1) (-1,-1,-1) (-1,-1,-1) (-1,-1,-1) (54, 60, 67) (-1,-1,-1) 
(-1,-1,-1) (-1,-1,-1) (54, 60, 71) (58, 60, 70) (-1,-1,-1) (-1,-1,-1) (-1,-1,-1) (-1,-1,-1) 
(-1,-1,-1) (-1,-1,-1) (-1,-1,-1) (-1,-1,-1) (91, 93, 100) (-1,-1,-1) (90, 93, 106) (89, 93, 106) 
(-1,-1,-1) (47, 49, 51) (-1,-1,-1) (-1,-1,-1) (-1,-1,-1) (-1,-1,-1) (48, 49, 57) (-1,-1,-1) 
(-1,-1,-1) (-1,-1,-1) (77, 82, 96) (-1,-1,-1) (-1,-1,-1) (-1,-1,-1) (-1,-1,-1) (-1,-1,-1) 
(-1,-1,-1) (-1,-1,-1) (-1,-1,-1) (-1,-1,-1) (-1,-1,-1) (67, 68, 80) (-1,-1,-1) (66, 68, 77) 
(38, 42, 47) (-1,-1,-1) (-1,-1,-1) (36, 42, 49) (-1,-1,-1) (-1,-1,-1) (-1,-1,-1) (40, 42, 44) 
(93, 96, 110) (-1,-1,-1) (-1,-1,-1) (-1,-1,-1) (-1,-1,-1) (-1,-1,-1) (-1,-1,-1) (-1,-1,-1) 
(79, 90, 105) (-1,-1,-1) (-1,-1,-1) (-1,-1,-1) (-1,-1,-1) (-1,-1,-1) (-1,-1,-1) (81, 90, 104) 
(-1,-1,-1) (-1,-1,-1) (-1,-1,-1) (-1,-1,-1) (-1,-1,-1) (34, 36, 43) (-1,-1,-1) (-1,-1,-1) 
(-1,-1,-1) (-1,-1,-1) (-1,-1,-1) (68, 70, 77) (-1,-1,-1) (-1,-1,-1) (-1,-1,-1) (-1,-1,-1) 
(-1,-1,-1) (-1,-1,-1) (-1,-1,-1) (-1,-1,-1) (-1,-1,-1) (-1,-1,-1) (11, 12, 13) (-1,-1,-1) 
(55, 56, 60) (50, 56, 66) (52, 56, 66) (-1,-1,-1) (-1,-1,-1) (-1,-1,-1) (54, 56, 62) (-1,-1,-1) 
(-1,-1,-1) (-1,-1,-1) (-1,-1,-1) (13, 14, 15) (13, 14, 15) (-1,-1,-1) (12, 14, 16) (-1,-1,-1) 
(58, 60, 62) (53, 60, 71) (-1,-1,-1) (-1,-1,-1) (-1,-1,-1) (51, 60, 69) (-1,-1,-1) (-1,-1,-1) 
21
(-1,-1,-1) (-1,-1,-1) (-1,-1,-1) (-1,-1,-1) (-1,-1,-1) (-1,-1,-1) (-1,-1,-1) (16, 18, 21) 
(-1,-1,-1) (-1,-1,-1) (-1,-1,-1) (-1,-1,-1) (75, 88, 105) (-1,-1,-1) (-1,-1,-1) (85, 88, 100) 
(-1,-1,-1) (17, 19, 22) (-1,-1,-1) (-1,-1,-1) (-1,-1,-1) (-1,-1,-1) (17, 19, 22) (-1,-1,-1) 
(-1,-1,-1) (83, 87, 100) (-1,-1,-1) (-1,-1,-1) (-1,-1,-1) (-1,-1,-1) (-1,-1,-1) (-1,-1,-1) 
(-1,-1,-1) (43, 50, 59) (-1,-1,-1) (-1,-1,-1) (-1,-1,-1) (-1,-1,-1) (-1,-1,-1) (45, 50, 57) 
(-1,-1,-1) (-1,-1,-1) (-1,-1,-1) (48, 50, 55) (-1,-1,-1) (-1,-1,-1) (-1,-1,-1) (45, 50, 58) 
(61, 63, 72) (-1,-1,-1) (-1,-1,-1) (-1,-1,-1) (61, 63, 67) (-1,-1,-1) (-1,-1,-1) (-1,-1,-1) 
(15, 16, 19) (-1,-1,-1) (-1,-1,-1) (-1,-1,-1) (-1,-1,-1) (14, 16, 18) (-1,-1,-1) (15, 16, 18) 
(-1,-1,-1) (-1,-1,-1) (62, 65, 71) (60, 65, 71) (-1,-1,-1) (-1,-1,-1) (61, 65, 70) (56, 65, 78) 
(-1,-1,-1) (-1,-1,-1) (-1,-1,-1) (-1,-1,-1) (-1,-1,-1) (-1,-1,-1) (70, 71, 72) (-1,-1,-1) 
(-1,-1,-1) (40, 44, 51) (-1,-1,-1) (-1,-1,-1) (-1,-1,-1) (-1,-1,-1) (38, 44, 51) (38, 44, 52) 
(-1,-1,-1) (-1,-1,-1) (44, 46, 54) (-1,-1,-1) (40, 46, 53) (-1,-1,-1) (-1,-1,-1) (-1,-1,-1) 
(-1,-1,-1) (-1,-1,-1) (-1,-1,-1) (30, 35, 41) (-1,-1,-1) (-1,-1,-1) (-1,-1,-1) (-1,-1,-1) 
(10, 11, 13) (-1,-1,-1) (-1,-1,-1) (-1,-1,-1) (-1,-1,-1) (-1,-1,-1) (-1,-1,-1) (10, 11, 12) 
(-1,-1,-1) (-1,-1,-1) (-1,-1,-1) (75, 83, 96) (-1,-1,-1) (78, 83, 96) (-1,-1,-1) (73, 83, 96) 
(-1,-1,-1) (-1,-1,-1) (-1,-1,-1) (-1,-1,-1) (-1,-1,-1) (11, 12, 14) (11, 12, 14) (11, 12, 14) 
(-1,-1,-1) (-1,-1,-1) (-1,-1,-1) (89, 98, 114) (-1,-1,-1) (-1,-1,-1) (-1,-1,-1) (-1,-1,-1) 
(-1,-1,-1) (-1,-1,-1) (-1,-1,-1) (22, 25, 30) (-1,-1,-1) (-1,-1,-1) (-1,-1,-1) (-1,-1,-1) 
(75, 84, 100) (-1,-1,-1) (-1,-1,-1) (83, 84, 92) (-1,-1,-1) (-1,-1,-1) (77, 84, 93) (74, 84, 99) 
(-1,-1,-1) (32, 36, 42) (-1,-1,-1) (-1,-1,-1) (-1,-1,-1) (33, 36, 42) (-1,-1,-1) (-1,-1,-1) 
(-1,-1,-1) (-1,-1,-1) (38, 41, 45) (37, 41, 47) (-1,-1,-1) (36, 41, 47) (36, 41, 49) (-1,-1,-1) 
16
(-1,-1,-1) (-1,-1,-1) (-1,-1,-1) (-1,-1,-1) (41, 44, 49) (42, 44, 50) (42, 44, 46) (38, 44, 50) 
(49, 51, 58) (-1,-1,-1) (-1,-1,-1) (45, 51, 57) (-1,-1,-1) (50, 51, 58) (49, 51, 54) (-1,-1,-1) 
(50, 58, 68) (-1,-1,-1) (51, 58, 67) (-1,-1,-1) (-1,-1,-1) (-1,-1,-1) (-1,-1,-1) (-1,-1,-1) 
(-1,-1,-1) (49, 56, 64) (-1,-1,-1) (-1,-1,-1) (-1,-1,-1) (49, 56, 65) (54, 56, 61) (-1,-1,-1) 
(-1,-1,-1) (26, 27, 29) (-1,-1,-1) (-1,-1,-1) (24, 27, 31) (24, 27, 31) (-1,-1,-1) (24, 27, 30) 
(87, 97, 115) (91, 97, 106) (-1,-1,-1) (-1,-1,-1) (-1,-1,-1) (-1,-1,-1) (92, 97, 106) (-1,-1,-1) 
(90, 93, 96) (89, 93, 109) (90, 93, 109) (-1,-1,-1) (-1,-1,-1) (-1,-1,-1) (81, 93, 105) (-1,-1,-1) 
(-1,-1,-1) (-1,-1,-1) (-1,-1,-1) (-1,-1,-1) (-1,-1,-1) (40, 41, 44) (39, 41, 47) (-1,-1,-1) 
(-1,-1,-1) (56, 59, 63) (-1,-1,-1) (-1,-1,-1) (-1,-1,-1) (-1,-1,-1) (-1,-1,-1) (-1,-1,-1) 
(-1,-1,-1) (-1,-1,-1) (-1,-1,-1) (-1,-1,-1) (-1,-1,-1) (72, 83, 98) (-1,-1,-1) (-1,-1,-1) 
(-1,-1,-1) (-1,-1,-1) (-1,-1,-1) (-1,-1,-1) (-1,-1,-1) (-1,-1,-1) (86, 99, 113) (-1,-1,-1) 
(-1,-1,-1) (82, 90, 100) (83, 90, 106) (-1,-1,-1) (77, 90, 105) (82, 90, 98) (-1,-1,-1) (-1,-1,-1) 
(-1,-1,-1) (-1,-1,-1) (-1,-1,-1) (-1,-1,-1) (80, 90, 107) (-1,-1,-1) (89, 90, 96) (88, 90, 100) 
(52, 58, 64) (-1,-1,-1) (-1,-1,-1) (-1,-1,-1) (-1,-1,-1) (-1,-1,-1) (53, 58, 68) (53, 58, 65) 
(-1,-1,-1) (-1,-1,-1) (-1,-1,-1) (-1,-1,-1) (-1,-1,-1) (-1,-1,-1) (-1,-1,-1) (14, 15, 17) 
(90, 95, 102) (93, 95, 101) (-1,-1,-1) (-1,-1,-1) (-1,-1,-1) (-1,-1,-1) (-1,-1,-1) (92, 95, 111) 
16
(-1,-1,-1) (-1,-1,-1) (-1,-1,-1) (58, 65, 78) (-1,-1,-1) (-1,-1,-1) (-1,-1,-1) (-1,-1,-1) 
(66, 73, 80) (-1,-1,-1) (-1,-1,-1) (-1,-1,-1) (-1,-1,-1) (-1,-1,-1) (67, 73, 81) (-1,-1,-1) 
(-1,-1,-1) (95, 96, 100) (86, 96, 108) (93, 96, 104) (89, 96, 106) (-1,-1,-1) (88, 96, 113) (-1,-1,-1) 
(38, 42, 50) (41, 42, 46) (-1,-1,-1) (41, 42, 43) (-1,-1,-1) (41, 42, 43) (-1,-1,-1) (36, 42, 50) 
(-1,-1,-1) (46, 53, 60) (-1,-1,-1) (-1,-1,-1) (46, 53, 62) (-1,-1,-1) (46, 53, 60) (-1,-1,-1) 
(-1,-1,-1) (-1,-1,-1) (-1,-1,-1) (-1,-1,-1) (-1,-1,-1) (-1,-1,-1) (-1,-1,-1) (53, 61, 72) 
(22, 24, 27) (22, 24, 26) (-1,-1,-1) (22, 24, 28) (23, 24, 25) (22, 24, 26) (-1,-1,-1) (-1,-1,-1) 
(82, 90, 100) (-1,-1,-1) (87, 90, 102) (-1,-1,-1) (83, 90, 100) (-1,-1,-1) (88, 90, 94) (-1,-1,-1) 
(-1,-1,-1) (-1,-1,-1) (10, 11, 12) (10, 11, 12) (-1,-1,-1) (10, 11, 13) (-1,-1,-1) (-1,-1,-1) 
(-1,-1,-1) (11, 12, 14) (-1,-1,-1) (-1,-1,-1) (11, 12, 14) (-1,-1,-1) (11, 12, 14) (11, 12, 14) 
(-1,-1,-1) (60, 68, 81) (-1,-1,-1) (61, 68, 75) (-1,-1,-1) (66, 68, 71) (-1,-1,-1) (-1,-1,-1) 
(52, 61, 70) (-1,-1,-1) (-1,-1,-1) (-1,-1,-1) (-1,-1,-1) (-1,-1,-1) (-1,-1,-1) (54, 61, 69) 
(36, 40, 48) (-1,-1,-1) (-1,-1,-1) (-1,-1,-1) (-1,-1,-1) (-1,-1,-1) (36, 40, 48) (-1,-1,-1) 
(-1,-1,-1) (66, 70, 83) (61, 70, 84) (-1,-1,-1) (-1,-1,-1) (-1,-1,-1) (67, 70, 73) (-1,-1,-1) 
(-1,-1,-1) (-1,-1,-1) (70, 76, 83) (69, 76, 83) (-1,-1,-1) (-1,-1,-1) (66, 76, 91) (70, 76, 90) 
(-1,-1,-1) (-1,-1,-1) (-1,-1,-1) (-1,-1,-1) (43, 48, 55) (-1,-1,-1) (-1,-1,-1) (-1,-1,-1) 
25
(-1,-1,-1) (-1,-1,-1) (-1,-1,-1) (-1,-1,-1) (-1,-1,-1) (-1,-1,-1) (17, 19, 21) (-1,-1,-1) 
(-1,-1,-1) (-1,-1,-1) (46, 49, 53) (48, 49, 52) (-1,-1,-1) (-1,-1,-1) (-1,-1,-1) (-1,-1,-1) 
(70, 76, 86) (-1,-1,-1) (66, 76, 90) (71, 76, 84) (72, 76, 85) (-1,-1,-1) (-1,-1,-1) (-1,-1,-1) 
(21, 24, 28) (22, 24, 26) (-1,-1,-1) (-1,-1,-1) (22, 24, 28) (-1,-1,-1) (22, 24, 26) (-1,-1,-1) 
(-1,-1,-1) (-1,-1,-1) (-1,-1,-1) (-1,-1,-1) (34, 35, 38) (-1,-1,-1) (-1,-1,-1) (-1,-1,-1) 
(9, 10, 11) (-1,-1,-1) (9, 10, 12) (-1,-1,-1) (-1,-1,-1) (-1,-1,-1) (-1,-1,-1) (-1,-1,-1) 
(43, 46, 55) (40, 46, 54) (-1,-1,-1) (-1,-1,-1) (43, 46, 51) (40, 46, 55) (44, 46, 53) (-1,-1,-1) 
(-1,-1,-1) (-1,-1,-1) (17, 18, 19) (17, 18, 19) (-1,-1,-1) (16, 18, 21) (-1,-1,-1) (-1,-1,-1) 
(-1,-1,-1) (-1,-1,-1) (-1,-1,-1) (67, 72, 83) (70, 72, 86) (67, 72, 83) (67, 72, 81) (-1,-1,-1) 
(-1,-1,-1) (-1,-1,-1) (-1,-1,-1) (-1,-1,-1) (-1,-1,-1) (-1,-1,-1) (31, 32, 38) (-1,-1,-1) 
(-1,-1,-1) (-1,-1,-1) (81, 92, 109) (-1,-1,-1) (90, 92, 110) (87, 92, 101) (80, 92, 108) (-1,-1,-1) 
(-1,-1,-1) (13, 14, 15) (-1,-1,-1) (-1,-1,-1) (13, 14, 15) (-1,-1,-1) (-1,-1,-1) (-1,-1,-1) 
(-1,-1,-1) (-1,-1,-1) (-1,-1,-1) (-1,-1,-1) (48, 53, 62) (-1,-1,-1) (-1,-1,-1) (47, 53, 62) 
(43, 49, 55) (-1,-1,-1) (-1,-1,-1) (-1,-1,-1) (-1,-1,-1) (-1,-1,-1) (-1,-1,-1) (-1,-1,-1) 
(-1,-1,-1) (81, 83, 92) (-1,-1,-1) (-1,-1,-1) (-1,-1,-1) (-1,-1,-1) (72, 83, 96) (-1,-1,-1) 
(77, 81, 90) (-1,-1,-1) (-1,-1,-1) (-1,-1,-1) (-1,-1,-1) (-1,-1,-1) (-1,-1,-1) (-1,-1,-1) 
(-1,-1,-1) (72, 76, 83) (-1,-1,-1) (-1,-1,-1) (-1,-1,-1) (-1,-1,-1) (-1,-1,-1) (-1,-1,-1) 
(82, 88, 96) (87, 88, 89) (-1,-1,-1) (-1,-1,-1) (-1,-1,-1) (84, 88, 94) (-1,-1,-1) (-1,-1,-1) 
(29, 34, 40) (-1,-1,-1) (30, 34, 38) (-1,-1,-1) (31, 34, 40) (32, 34, 37) (-1,-1,-1) (-1,-1,-1) 
(51, 54, 58) (-1,-1,-1) (-1,-1,-1) (-1,-1,-1) (-1,-1,-1) (-1,-1,-1) (-1,-1,-1) (-1,-1,-1) 
(-1,-1,-1) (-1,-1,-1) (-1,-1,-1) (-1,-1,-1) (-1,-1,-1) (21, 22, 25) (-1,-1,-1) (-1,-1,-1) 
(46, 47, 51) (-1,-1,-1) (-1,-1,-1) (41, 47, 55) (-1,-1,-1) (-1,-1,-1) (-1,-1,-1) (-1,-1,-1) 
(30, 31, 34) (-1,-1,-1) (30, 31, 33) (-1,-1,-1) (-1,-1,-1) (-1,-1,-1) (-1,-1,-1) (-1,-1,-1) 
(42, 43, 51) (-1,-1,-1) (-1,-1,-1) (40, 43, 49) (42, 43, 44) (-1,-1,-1) (-1,-1,-1) (-1,-1,-1) 
(26, 29, 32) (-1,-1,-1) (-1,-1,-1) (27, 29, 34) (-1,-1,-1) (28, 29, 30) (-1,-1,-1) (-1,-1,-1) 
