20 15
12
(-1,-1,-1) (4, 5, 6) (-1,-1,-1) (-1,-1,-1) (-1,-1,-1) (4, 5, 6) (-1,-1,-1) (-1,-1,-1) (-1,-1,-1) (-1,-1,-1) (-1,-1,-1) (-1,-1,-1) (-1,-1,-1) (-1,-1,-1) (-1,-1,-1) 
(-1,-1,-1) (-1,-1,-1) (-1,-1,-1) (-1,-1,-1) (-1,-1,-1) (10, 11, 13) (10, 11, 12) (-1,-1,-1) (-1,-1,-1) (-1,-1,-1) (-1,-1,-1) (-1,-1,-1) (-1,-1,-1) (-1,-1,-1) (-1,-1,-1) 
(-1,-1,-1) (4, 5, 6) (-1,-1,-1) (-1,-1,-1) (-1,-1,-1) (-1,-1,-1) (-1,-1,-1) (-1,-1,-1) (-1,-1,-1) (-1,-1,-1) (-1,-1,-1) (-1,-1,-1) (-1,-1,-1) (-1,-1,-1) (-1,-1,-1) 
(-1,-1,-1) (-1,-1,-1) (16, 18, 21) (9, 10, 12) (-1,-1,-1) (-1,-1,-1) (-1,-1,-1) (9, 10, 12) (6, 7, 8) (-1,-1,-1) (-1,-1,-1) (-1,-1,-1) (-1,-1,-1) (-1,-1,-1) (-1,-1,-1) 
(6, 7, 8) (-1,-1,-1) (-1,-1,-1) (-1,-1,-1) (-1,-1,-1) (-1,-1,-1) (8, 9, 10) (-1,-1,-1) (-1,-1,-1) (-1,-1,-1) (-1,-1,-1) (-1,-1,-1) (-1,-1,-1) (-1,-1,-1) (-1,-1,-1) 
(7, 8, 9) (-1,-1,-1) (-1,-1,-1) (6, 7, 8) (-1,-1,-1) (-1,-1,-1) (13, 14, 15) (-1,-1,-1) (11, 12, 13) (-1,-1,-1) (-1,-1,-1) (-1,-1,-1) (-1,-1,-1) (-1,-1,-1) (-1,-1,-1) 
(-1,-1,-1) (5, 6, 7) (-1,-1,-1) (12, 13, 15) (-1,-1,-1) (-1,-1,-1) (-1,-1,-1) (7, 8, 9) (-1,-1,-1) (-1,-1,-1) (-1,-1,-1) (-1,-1,-1) (-1,-1,-1) (-1,-1,-1) (-1,-1,-1) 
(18, 19, 20) (15, 16, 19) (7, 8, 9) (-1,-1,-1) (-1,-1,-1) (-1,-1,-1) (-1,-1,-1) (-1,-1,-1) (12, 13, 14) (18, 19, 21) (-1,-1,-1) (-1,-1,-1) (-1,-1,-1) (-1,-1,-1) (-1,-1,-1) 
(-1,-1,-1) (15, 16, 18) (11, 12, 13) (10, 11, 13) (14, 15, 16) (-1,-1,-1) (-1,-1,-1) (-1,-1,-1) (-1,-1,-1) (8, 9, 10) (-1,-1,-1) (-1,-1,-1) (-1,-1,-1) (-1,-1,-1) (-1,-1,-1) 
(-1,-1,-1) (-1,-1,-1) (-1,-1,-1) (-1,-1,-1) (-1,-1,-1) (-1,-1,-1) (-1,-1,-1) (-1,-1,-1) (9, 10, 11) (4, 5, 6) (-1,-1,-1) (-1,-1,-1) (-1,-1,-1) (-1,-1,-1) (-1,-1,-1) 
(-1,-1,-1) (7, 8, 9) (-1,-1,-1) (6, 7, 8) (-1,-1,-1) (-1,-1,-1) (4, 5, 6) (-1,-1,-1) (-1,-1,-1) (-1,-1,-1) (-1,-1,-1) (-1,-1,-1) (-1,-1,-1) (-1,-1,-1) (-1,-1,-1) 
(5, 6, 7) (-1,-1,-1) (-1,-1,-1) (-1,-1,-1) (10, 11, 13) (12, 13, 15) (-1,-1,-1) (-1,-1,-1) (-1,-1,-1) (6, 7, 8) (-1,-1,-1) (-1,-1,-1) (-1,-1,-1) (-1,-1,-1) (-1,-1,-1) 
13
(-1,-1,-1) (-1,-1,-1) (-1,-1,-1) (-1,-1,-1) (-1,-1,-1) (10, 11, 13) (10, 11, 12) (-1,-1,-1) (-1,-1,-1) (-1,-1,-1) (-1,-1,-1) (-1,-1,-1) (-1,-1,-1) (-1,-1,-1) (-1,-1,-1) 
(-1,-1,-1) (14, 16, 19) (-1,-1,-1) (-1,-1,-1) (8, 9, 10) (-1,-1,-1) (-1,-1,-1) (14, 16, 18) (-1,-1,-1) (8, 9, 10) (-1,-1,-1) (-1,-1,-1) (-1,-1,-1) (-1,-1,-1) (-1,-1,-1) 
(-1,-1,-1) (4, 5, 6) (-1,-1,-1) (-1,-1,-1) (-1,-1,-1) (4, 5, 6) (-1,-1,-1) (-1,-1,-1) (-1,-1,-1) (-1,-1,-1) (-1,-1,-1) (-1,-1,-1) (-1,-1,-1) (-1,-1,-1) (-1,-1,-1) 
(8, 9, 10) (10, 11, 12) (-1,-1,-1) (-1,-1,-1) (-1,-1,-1) (-1,-1,-1) (-1,-1,-1) (-1,-1,-1) (-1,-1,-1) (-1,-1,-1) (-1,-1,-1) (-1,-1,-1) (-1,-1,-1) (-1,-1,-1) (-1,-1,-1) 
(-1,-1,-1) (-1,-1,-1) (11, 12, 14) (-1,-1,-1) (-1,-1,-1) (-1,-1,-1) (14, 15, 16) (-1,-1,-1) (-1,-1,-1) (-1,-1,-1) (-1,-1,-1) (-1,-1,-1) (-1,-1,-1) (-1,-1,-1) (-1,-1,-1) 
(-1,-1,-1) (-1,-1,-1) (-1,-1,-1) (10, 11, 12) (9, 10, 11) (-1,-1,-1) (13, 15, 18) (-1,-1,-1) (-1,-1,-1) (12, 14, 16) (-1,-1,-1) (-1,-1,-1) (-1,-1,-1) (-1,-1,-1) (-1,-1,-1) 
(11, 12, 14) (-1,-1,-1) (7, 8, 9) (-1,-1,-1) (4, 5, 6) (-1,-1,-1) (-1,-1,-1) (-1,-1,-1) (-1,-1,-1) (-1,-1,-1) (-1,-1,-1) (-1,-1,-1) (10, 11, 13) (-1,-1,-1) (-1,-1,-1) 
(17, 19, 22) (14, 16, 18) (7, 8, 9) (-1,-1,-1) (-1,-1,-1) (-1,-1,-1) (-1,-1,-1) (-1,-1,-1) (12, 13, 15) (18, 19, 21) (-1,-1,-1) (-1,-1,-1) (-1,-1,-1) (-1,-1,-1) (-1,-1,-1) 
(-1,-1,-1) (5, 6, 7) (-1,-1,-1) (12, 13, 14) (-1,-1,-1) (-1,-1,-1) (-1,-1,-1) (7, 8, 9) (-1,-1,-1) (-1,-1,-1) (-1,-1,-1) (-1,-1,-1) (-1,-1,-1) (-1,-1,-1) (-1,-1,-1) 
(-1,-1,-1) (-1,-1,-1) (16, 18, 21) (9, 10, 12) (-1,-1,-1) (-1,-1,-1) (-1,-1,-1) (9, 10, 12) (6, 7, 8) (-1,-1,-1) (-1,-1,-1) (-1,-1,-1) (-1,-1,-1) (-1,-1,-1) (-1,-1,-1) 
(14, 16, 18) (-1,-1,-1) (5, 6, 7) (-1,-1,-1) (10, 11, 12) (-1,-1,-1) (-1,-1,-1) (-1,-1,-1) (-1,-1,-1) (15, 17, 20) (-1,-1,-1) (-1,-1,-1) (-1,-1,-1) (-1,-1,-1) (-1,-1,-1) 
(-1,-1,-1) (-1,-1,-1) (-1,-1,-1) (-1,-1,-1) (-1,-1,-1) (-1,-1,-1) (-1,-1,-1) (-1,-1,-1) (9, 10, 11) (4, 5, 6) (-1,-1,-1) (-1,-1,-1) (-1,-1,-1) (-1,-1,-1) (-1,-1,-1) 
(-1,-1,-1) (10, 11, 13) (-1,-1,-1) (-1,-1,-1) (10, 11, 12) (-1,-1,-1) (-1,-1,-1) (-1,-1,-1) (-1,-1,-1) (-1,-1,-1) (-1,-1,-1) (-1,-1,-1) (-1,-1,-1) (-1,-1,-1) (-1,-1,-1) 
11
(11, 12, 13) (-1,-1,-1) (7, 8, 9) (-1,-1,-1) (4, 5, 6) (-1,-1,-1) (-1,-1,-1) (-1,-1,-1) (-1,-1,-1) (-1,-1,-1) (-1,-1,-1) (-1,-1,-1) (10, 11, 13) (-1,-1,-1) (-1,-1,-1) 
(8, 9, 10) (10, 11, 12) (-1,-1,-1) (-1,-1,-1) (-1,-1,-1) (-1,-1,-1) (-1,-1,-1) (-1,-1,-1) (-1,-1,-1) (-1,-1,-1) (-1,-1,-1) (-1,-1,-1) (-1,-1,-1) (-1,-1,-1) (-1,-1,-1) 
(6, 7, 8) (-1,-1,-1) (-1,-1,-1) (-1,-1,-1) (-1,-1,-1) (-1,-1,-1) (8, 9, 10) (-1,-1,-1) (-1,-1,-1) (-1,-1,-1) (-1,-1,-1) (-1,-1,-1) (-1,-1,-1) (-1,-1,-1) (-1,-1,-1) 
(-1,-1,-1) (4, 5, 6) (-1,-1,-1) (-1,-1,-1) (-1,-1,-1) (4, 5, 6) (-1,-1,-1) (-1,-1,-1) (-1,-1,-1) (-1,-1,-1) (-1,-1,-1) (-1,-1,-1) (-1,-1,-1) (-1,-1,-1) (-1,-1,-1) 
(5, 6, 7) (-1,-1,-1) (-1,-1,-1) (-1,-1,-1) (10, 11, 12) (12, 13, 14) (-1,-1,-1) (-1,-1,-1) (-1,-1,-1) (6, 7, 8) (-1,-1,-1) (-1,-1,-1) (-1,-1,-1) (-1,-1,-1) (-1,-1,-1) 
(-1,-1,-1) (-1,-1,-1) (-1,-1,-1) (-1,-1,-1) (-1,-1,-1) (-1,-1,-1) (-1,-1,-1) (-1,-1,-1) (9, 10, 11) (4, 5, 6) (-1,-1,-1) (-1,-1,-1) (-1,-1,-1) (-1,-1,-1) (-1,-1,-1) 
(17, 19, 22) (14, 16, 18) (7, 8, 9) (-1,-1,-1) (-1,-1,-1) (-1,-1,-1) (-1,-1,-1) (-1,-1,-1) (12, 13, 15) (17, 19, 21) (-1,-1,-1) (-1,-1,-1) (-1,-1,-1) (-1,-1,-1) (-1,-1,-1) 
(-1,-1,-1) (-1,-1,-1) (17, 18, 20) (9, 10, 11) (-1,-1,-1) (-1,-1,-1) (-1,-1,-1) (9, 10, 12) (6, 7, 8) (-1,-1,-1) (-1,-1,-1) (-1,-1,-1) (-1,-1,-1) (-1,-1,-1) (-1,-1,-1) 
(-1,-1,-1) (15, 16, 18) (-1,-1,-1) (-1,-1,-1) (8, 9, 10) (-1,-1,-1) (-1,-1,-1) (15, 16, 19) (-1,-1,-1) (8, 9, 10) (-1,-1,-1) (-1,-1,-1) (-1,-1,-1) (-1,-1,-1) (-1,-1,-1) 
(-1,-1,-1) (-1,-1,-1) (11, 12, 14) (-1,-1,-1) (-1,-1,-1) (-1,-1,-1) (14, 15, 18) (-1,-1,-1) (-1,-1,-1) (-1,-1,-1) (-1,-1,-1) (-1,-1,-1) (-1,-1,-1) (-1,-1,-1) (-1,-1,-1) 
(-1,-1,-1) (4, 5, 6) (-1,-1,-1) (-1,-1,-1) (-1,-1,-1) (-1,-1,-1) (-1,-1,-1) (-1,-1,-1) (17, 19, 21) (-1,-1,-1) (-1,-1,-1) (-1,-1,-1) (-1,-1,-1) (-1,-1,-1) (-1,-1,-1) 
11
(-1,-1,-1) (-1,-1,-1) (-1,-1,-1) (10, 11, 13) (9, 10, 12) (-1,-1,-1) (14, 15, 17) (-1,-1,-1) (-1,-1,-1) (12, 14, 16) (-1,-1,-1) (-1,-1,-1) (-1,-1,-1) (-1,-1,-1) (-1,-1,-1) 
(18, 19, 22) (14, 16, 18) (7, 8, 9) (-1,-1,-1) (-1,-1,-1) (-1,-1,-1) (-1,-1,-1) (-1,-1,-1) (12, 13, 15) (17, 19, 21) (-1,-1,-1) (-1,-1,-1) (-1,-1,-1) (-1,-1,-1) (-1,-1,-1) 
(-1,-1,-1) (-1,-1,-1) (-1,-1,-1) (-1,-1,-1) (14, 15, 17) (-1,-1,-1) (-1,-1,-1) (-1,-1,-1) (-1,-1,-1) (-1,-1,-1) (-1,-1,-1) (-1,-1,-1) (-1,-1,-1) (-1,-1,-1) (-1,-1,-1) 
(-1,-1,-1) (4, 5, 6) (-1,-1,-1) (-1,-1,-1) (-1,-1,-1) (-1,-1,-1) (-1,-1,-1) (-1,-1,-1) (-1,-1,-1) (-1,-1,-1) (-1,-1,-1) (-1,-1,-1) (-1,-1,-1) (-1,-1,-1) (-1,-1,-1) 
(-1,-1,-1) (-1,-1,-1) (-1,-1,-1) (-1,-1,-1) (-1,-1,-1) (-1,-1,-1) (-1,-1,-1) (-1,-1,-1) (9, 10, 12) (4, 5, 6) (-1,-1,-1) (-1,-1,-1) (-1,-1,-1) (-1,-1,-1) (-1,-1,-1) 
(-1,-1,-1) (-1,-1,-1) (-1,-1,-1) (-1,-1,-1) (-1,-1,-1) (10, 11, 12) (10, 11, 12) (-1,-1,-1) (-1,-1,-1) (-1,-1,-1) (-1,-1,-1) (-1,-1,-1) (-1,-1,-1) (-1,-1,-1) (-1,-1,-1) 
(14, 16, 18) (-1,-1,-1) (5, 6, 7) (-1,-1,-1) (10, 11, 13) (-1,-1,-1) (-1,-1,-1) (-1,-1,-1) (-1,-1,-1) (16, 17, 20) (-1,-1,-1) (-1,-1,-1) (-1,-1,-1) (-1,-1,-1) (-1,-1,-1) 
(-1,-1,-1) (-1,-1,-1) (-1,-1,-1) (-1,-1,-1) (-1,-1,-1) (10, 11, 12) (-1,-1,-1) (-1,-1,-1) (-1,-1,-1) (12, 13, 14) (-1,-1,-1) (-1,-1,-1) (-1,-1,-1) (-1,-1,-1) (-1,-1,-1) 
(-1,-1,-1) (4, 5, 6) (-1,-1,-1) (-1,-1,-1) (-1,-1,-1) (-1,-1,-1) (-1,-1,-1) (-1,-1,-1) (17, 19, 22) (-1,-1,-1) (-1,-1,-1) (-1,-1,-1) (-1,-1,-1) (-1,-1,-1) (-1,-1,-1) 
(-1,-1,-1) (5, 6, 7) (-1,-1,-1) (12, 13, 14) (-1,-1,-1) (-1,-1,-1) (-1,-1,-1) (7, 8, 9) (-1,-1,-1) (-1,-1,-1) (-1,-1,-1) (-1,-1,-1) (-1,-1,-1) (-1,-1,-1) (-1,-1,-1) 
(-1,-1,-1) (-1,-1,-1) (16, 18, 20) (9, 10, 11) (-1,-1,-1) (-1,-1,-1) (-1,-1,-1) (9, 10, 12) (6, 7, 8) (-1,-1,-1) (-1,-1,-1) (-1,-1,-1) (-1,-1,-1) (-1,-1,-1) (-1,-1,-1) 
14
(-1,-1,-1) (-1,-1,-1) (-1,-1,-1) (-1,-1,-1) (-1,-1,-1) (10, 11, 12) (10, 11, 12) (-1,-1,-1) (-1,-1,-1) (-1,-1,-1) (-1,-1,-1) (-1,-1,-1) (-1,-1,-1) (-1,-1,-1) (-1,-1,-1) 
(-1,-1,-1) (-1,-1,-1) (-1,-1,-1) (-1,-1,-1) (-1,-1,-1) (-1,-1,-1) (-1,-1,-1) (-1,-1,-1) (9, 10, 12) (4, 5, 6) (-1,-1,-1) (-1,-1,-1) (-1,-1,-1) (-1,-1,-1) (-1,-1,-1) 
(-1,-1,-1) (14, 16, 18) (-1,-1,-1) (-1,-1,-1) (10, 11, 12) (-1,-1,-1) (7, 8, 9) (-1,-1,-1) (-1,-1,-1) (10, 11, 13) (-1,-1,-1) (-1,-1,-1) (-1,-1,-1) (-1,-1,-1) (-1,-1,-1) 
(-1,-1,-1) (-1,-1,-1) (-1,-1,-1) (-1,-1,-1) (-1,-1,-1) (10, 11, 13) (-1,-1,-1) (-1,-1,-1) (-1,-1,-1) (12, 13, 15) (-1,-1,-1) (-1,-1,-1) (-1,-1,-1) (-1,-1,-1) (-1,-1,-1) 
(14, 16, 18) (-1,-1,-1) (5, 6, 7) (-1,-1,-1) (10, 11, 12) (-1,-1,-1) (-1,-1,-1) (-1,-1,-1) (-1,-1,-1) (16, 17, 20) (-1,-1,-1) (-1,-1,-1) (-1,-1,-1) (-1,-1,-1) (-1,-1,-1) 
(6, 7, 8) (-1,-1,-1) (-1,-1,-1) (-1,-1,-1) (-1,-1,-1) (-1,-1,-1) (8, 9, 10) (-1,-1,-1) (-1,-1,-1) (-1,-1,-1) (-1,-1,-1) (-1,-1,-1) (-1,-1,-1) (-1,-1,-1) (-1,-1,-1) 
(11, 12, 14) (-1,-1,-1) (7, 8, 9) (-1,-1,-1) (4, 5, 6) (-1,-1,-1) (-1,-1,-1) (-1,-1,-1) (-1,-1,-1) (-1,-1,-1) (-1,-1,-1) (-1,-1,-1) (10, 11, 12) (-1,-1,-1) (-1,-1,-1) 
(-1,-1,-1) (4, 5, 6) (-1,-1,-1) (-1,-1,-1) (-1,-1,-1) (-1,-1,-1) (-1,-1,-1) (-1,-1,-1) (-1,-1,-1) (-1,-1,-1) (-1,-1,-1) (-1,-1,-1) (-1,-1,-1) (-1,-1,-1) (-1,-1,-1) 
(-1,-1,-1) (15, 16, 17) (-1,-1,-1) (-1,-1,-1) (8, 9, 10) (-1,-1,-1) (-1,-1,-1) (14, 16, 19) (-1,-1,-1) (8, 9, 10) (-1,-1,-1) (-1,-1,-1) (-1,-1,-1) (-1,-1,-1) (-1,-1,-1) 
(14, 15, 17) (18, 19, 22) (-1,-1,-1) (-1,-1,-1) (-1,-1,-1) (-1,-1,-1) (-1,-1,-1) (-1,-1,-1) (8, 9, 10) (-1,-1,-1) (-1,-1,-1) (-1,-1,-1) (-1,-1,-1) (-1,-1,-1) (-1,-1,-1) 
(5, 6, 7) (-1,-1,-1) (-1,-1,-1) (-1,-1,-1) (10, 11, 12) (12, 13, 15) (-1,-1,-1) (-1,-1,-1) (-1,-1,-1) (6, 7, 8) (-1,-1,-1) (-1,-1,-1) (-1,-1,-1) (-1,-1,-1) (-1,-1,-1) 
(8, 9, 10) (10, 11, 13) (-1,-1,-1) (-1,-1,-1) (-1,-1,-1) (-1,-1,-1) (-1,-1,-1) (-1,-1,-1) (-1,-1,-1) (-1,-1,-1) (-1,-1,-1) (-1,-1,-1) (-1,-1,-1) (-1,-1,-1) (-1,-1,-1) 
(-1,-1,-1) (-1,-1,-1) (-1,-1,-1) (10, 11, 12) (9, 10, 12) (-1,-1,-1) (13, 15, 18) (-1,-1,-1) (-1,-1,-1) (13, 14, 15) (-1,-1,-1) (-1,-1,-1) (-1,-1,-1) (-1,-1,-1) (-1,-1,-1) 
(17, 19, 21) (14, 16, 18) (7, 8, 9) (-1,-1,-1) (-1,-1,-1) (-1,-1,-1) (-1,-1,-1) (-1,-1,-1) (12, 13, 15) (18, 19, 22) (-1,-1,-1) (-1,-1,-1) (-1,-1,-1) (-1,-1,-1) (-1,-1,-1) 
11
(14, 15, 18) (17, 19, 22) (-1,-1,-1) (-1,-1,-1) (-1,-1,-1) (-1,-1,-1) (-1,-1,-1) (-1,-1,-1) (8, 9, 10) (-1,-1,-1) (-1,-1,-1) (-1,-1,-1) (-1,-1,-1) (-1,-1,-1) (-1,-1,-1) 
(6, 7, 8) (-1,-1,-1) (-1,-1,-1) (-1,-1,-1) (-1,-1,-1) (-1,-1,-1) (8, 9, 10) (-1,-1,-1) (-1,-1,-1) (-1,-1,-1) (-1,-1,-1) (-1,-1,-1) (-1,-1,-1) (-1,-1,-1) (-1,-1,-1) 
(-1,-1,-1) (-1,-1,-1) (17, 18, 21) (9, 10, 11) (-1,-1,-1) (-1,-1,-1) (-1,-1,-1) (9, 10, 12) (6, 7, 8) (-1,-1,-1) (-1,-1,-1) (-1,-1,-1) (-1,-1,-1) (-1,-1,-1) (-1,-1,-1) 
(-1,-1,-1) (4, 5, 6) (-1,-1,-1) (-1,-1,-1) (-1,-1,-1) (-1,-1,-1) (-1,-1,-1) (-1,-1,-1) (18, 19, 22) (-1,-1,-1) (-1,-1,-1) (-1,-1,-1) (-1,-1,-1) (-1,-1,-1) (-1,-1,-1) 
(-1,-1,-1) (15, 16, 18) (-1,-1,-1) (-1,-1,-1) (10, 11, 12) (-1,-1,-1) (7, 8, 9) (-1,-1,-1) (-1,-1,-1) (10, 11, 13) (-1,-1,-1) (-1,-1,-1) (-1,-1,-1) (-1,-1,-1) (-1,-1,-1) 
(5, 6, 7) (-1,-1,-1) (-1,-1,-1) (-1,-1,-1) (10, 11, 12) (12, 13, 14) (-1,-1,-1) (-1,-1,-1) (-1,-1,-1) (6, 7, 8) (-1,-1,-1) (-1,-1,-1) (-1,-1,-1) (-1,-1,-1) (-1,-1,-1) 
(-1,-1,-1) (-1,-1,-1) (-1,-1,-1) (-1,-1,-1) (-1,-1,-1) (10, 11, 13) (10, 11, 13) (-1,-1,-1) (-1,-1,-1) (-1,-1,-1) (-1,-1,-1) (-1,-1,-1) (-1,-1,-1) (-1,-1,-1) (-1,-1,-1) 
(-1,-1,-1) (4, 5, 6) (-1,-1,-1) (-1,-1,-1) (-1,-1,-1) (-1,-1,-1) (-1,-1,-1) (-1,-1,-1) (-1,-1,-1) (-1,-1,-1) (-1,-1,-1) (-1,-1,-1) (-1,-1,-1) (-1,-1,-1) (-1,-1,-1) 
(-1,-1,-1) (7, 8, 9) (-1,-1,-1) (6, 7, 8) (-1,-1,-1) (-1,-1,-1) (4, 5, 6) (-1,-1,-1) (-1,-1,-1) (-1,-1,-1) (-1,-1,-1) (-1,-1,-1) (-1,-1,-1) (-1,-1,-1) (-1,-1,-1) 
(11, 12, 14) (-1,-1,-1) (7, 8, 9) (-1,-1,-1) (4, 5, 6) (-1,-1,-1) (-1,-1,-1) (-1,-1,-1) (-1,-1,-1) (-1,-1,-1) (-1,-1,-1) (-1,-1,-1) (10, 11, 12) (-1,-1,-1) (-1,-1,-1) 
(-1,-1,-1) (-1,-1,-1) (-1,-1,-1) (-1,-1,-1) (14, 15, 17) (-1,-1,-1) (-1,-1,-1) (-1,-1,-1) (-1,-1,-1) (-1,-1,-1) (-1,-1,-1) (-1,-1,-1) (-1,-1,-1) (-1,-1,-1) (-1,-1,-1) 
14
(-1,-1,-1) (4, 5, 6) (-1,-1,-1) (-1,-1,-1) (-1,-1,-1) (-1,-1,-1) (-1,-1,-1) (-1,-1,-1) (-1,-1,-1) (-1,-1,-1) (-1,-1,-1) (-1,-1,-1) (-1,-1,-1) (-1,-1,-1) (-1,-1,-1) 
(-1,-1,-1) (-1,-1,-1) (-1,-1,-1) (-1,-1,-1) (-1,-1,-1) (10, 11, 13) (10, 11, 12) (-1,-1,-1) (-1,-1,-1) (-1,-1,-1) (-1,-1,-1) (-1,-1,-1) (-1,-1,-1) (-1,-1,-1) (-1,-1,-1) 
(8, 9, 10) (10, 11, 12) (-1,-1,-1) (-1,-1,-1) (-1,-1,-1) (-1,-1,-1) (-1,-1,-1) (-1,-1,-1) (-1,-1,-1) (-1,-1,-1) (-1,-1,-1) (-1,-1,-1) (-1,-1,-1) (-1,-1,-1) (-1,-1,-1) 
(-1,-1,-1) (-1,-1,-1) (-1,-1,-1) (-1,-1,-1) (-1,-1,-1) (-1,-1,-1) (-1,-1,-1) (-1,-1,-1) (9, 10, 12) (4, 5, 6) (-1,-1,-1) (-1,-1,-1) (-1,-1,-1) (-1,-1,-1) (-1,-1,-1) 
(-1,-1,-1) (-1,-1,-1) (17, 18, 21) (9, 10, 12) (-1,-1,-1) (-1,-1,-1) (-1,-1,-1) (9, 10, 12) (6, 7, 8) (-1,-1,-1) (-1,-1,-1) (-1,-1,-1) (-1,-1,-1) (-1,-1,-1) (-1,-1,-1) 
(14, 15, 17) (18, 19, 22) (-1,-1,-1) (-1,-1,-1) (-1,-1,-1) (-1,-1,-1) (-1,-1,-1) (-1,-1,-1) (8, 9, 10) (-1,-1,-1) (-1,-1,-1) (-1,-1,-1) (-1,-1,-1) (-1,-1,-1) (-1,-1,-1) 
(-1,-1,-1) (7, 8, 9) (-1,-1,-1) (6, 7, 8) (-1,-1,-1) (-1,-1,-1) (4, 5, 6) (-1,-1,-1) (-1,-1,-1) (-1,-1,-1) (-1,-1,-1) (-1,-1,-1) (-1,-1,-1) (-1,-1,-1) (-1,-1,-1) 
(-1,-1,-1) (14, 16, 18) (-1,-1,-1) (-1,-1,-1) (8, 9, 10) (-1,-1,-1) (-1,-1,-1) (15, 16, 19) (-1,-1,-1) (8, 9, 10) (-1,-1,-1) (-1,-1,-1) (-1,-1,-1) (-1,-1,-1) (-1,-1,-1) 
(5, 6, 7) (-1,-1,-1) (-1,-1,-1) (-1,-1,-1) (10, 11, 12) (12, 13, 14) (-1,-1,-1) (-1,-1,-1) (-1,-1,-1) (6, 7, 8) (-1,-1,-1) (-1,-1,-1) (-1,-1,-1) (-1,-1,-1) (-1,-1,-1) 
(-1,-1,-1) (-1,-1,-1) (-1,-1,-1) (-1,-1,-1) (13, 15, 18) (-1,-1,-1) (-1,-1,-1) (-1,-1,-1) (-1,-1,-1) (-1,-1,-1) (-1,-1,-1) (-1,-1,-1) (-1,-1,-1) (-1,-1,-1) (-1,-1,-1) 
(-1,-1,-1) (-1,-1,-1) (-1,-1,-1) (7, 8, 9) (-1,-1,-1) (16, 18, 21) (12, 13, 15) (-1,-1,-1) (-1,-1,-1) (17, 19, 22) (-1,-1,-1) (-1,-1,-1) (-1,-1,-1) (-1,-1,-1) (-1,-1,-1) 
(11, 12, 13) (-1,-1,-1) (7, 8, 9) (-1,-1,-1) (4, 5, 6) (-1,-1,-1) (-1,-1,-1) (-1,-1,-1) (-1,-1,-1) (-1,-1,-1) (-1,-1,-1) (-1,-1,-1) (10, 11, 13) (-1,-1,-1) (-1,-1,-1) 
(14, 16, 19) (-1,-1,-1) (5, 6, 7) (-1,-1,-1) (10, 11, 13) (-1,-1,-1) (-1,-1,-1) (-1,-1,-1) (-1,-1,-1) (15, 17, 19) (-1,-1,-1) (-1,-1,-1) (-1,-1,-1) (-1,-1,-1) (-1,-1,-1) 
(6, 7, 8) (-1,-1,-1) (-1,-1,-1) (-1,-1,-1) (-1,-1,-1) (-1,-1,-1) (8, 9, 10) (-1,-1,-1) (-1,-1,-1) (-1,-1,-1) (-1,-1,-1) (-1,-1,-1) (-1,-1,-1) (-1,-1,-1) (-1,-1,-1) 
13
(-1,-1,-1) (-1,-1,-1) (17, 18, 20) (9, 10, 12) (-1,-1,-1) (-1,-1,-1) (-1,-1,-1) (9, 10, 11) (6, 7, 8) (-1,-1,-1) (-1,-1,-1) (-1,-1,-1) (-1,-1,-1) (-1,-1,-1) (-1,-1,-1) 
(-1,-1,-1) (-1,-1,-1) (-1,-1,-1) (-1,-1,-1) (-1,-1,-1) (10, 11, 12) (-1,-1,-1) (-1,-1,-1) (-1,-1,-1) (12, 13, 15) (-1,-1,-1) (-1,-1,-1) (-1,-1,-1) (-1,-1,-1) (-1,-1,-1) 
(-1,-1,-1) (15, 16, 18) (-1,-1,-1) (-1,-1,-1) (10, 11, 13) (-1,-1,-1) (7, 8, 9) (-1,-1,-1) (-1,-1,-1) (10, 11, 13) (-1,-1,-1) (-1,-1,-1) (-1,-1,-1) (-1,-1,-1) (-1,-1,-1) 
(-1,-1,-1) (5, 6, 7) (-1,-1,-1) (12, 13, 15) (-1,-1,-1) (-1,-1,-1) (-1,-1,-1) (7, 8, 9) (-1,-1,-1) (-1,-1,-1) (-1,-1,-1) (-1,-1,-1) (-1,-1,-1) (-1,-1,-1) (-1,-1,-1) 
(-1,-1,-1) (14, 16, 19) (11, 12, 14) (10, 11, 12) (13, 15, 17) (-1,-1,-1) (-1,-1,-1) (-1,-1,-1) (-1,-1,-1) (8, 9, 10) (-1,-1,-1) (-1,-1,-1) (-1,-1,-1) (-1,-1,-1) (-1,-1,-1) 
(13, 15, 18) (18, 19, 21) (-1,-1,-1) (-1,-1,-1) (-1,-1,-1) (-1,-1,-1) (-1,-1,-1) (-1,-1,-1) (8, 9, 10) (-1,-1,-1) (-1,-1,-1) (-1,-1,-1) (-1,-1,-1) (-1,-1,-1) (-1,-1,-1) 
(11, 12, 14) (-1,-1,-1) (7, 8, 9) (-1,-1,-1) (4, 5, 6) (-1,-1,-1) (-1,-1,-1) (-1,-1,-1) (-1,-1,-1) (-1,-1,-1) (-1,-1,-1) (-1,-1,-1) (10, 11, 13) (-1,-1,-1) (-1,-1,-1) 
(-1,-1,-1) (7, 8, 9) (-1,-1,-1) (6, 7, 8) (-1,-1,-1) (-1,-1,-1) (4, 5, 6) (-1,-1,-1) (-1,-1,-1) (-1,-1,-1) (-1,-1,-1) (-1,-1,-1) (-1,-1,-1) (-1,-1,-1) (-1,-1,-1) 
(-1,-1,-1) (-1,-1,-1) (-1,-1,-1) (7, 8, 9) (-1,-1,-1) (17, 18, 21) (12, 13, 15) (-1,-1,-1) (-1,-1,-1) (18, 19, 22) (-1,-1,-1) (-1,-1,-1) (-1,-1,-1) (-1,-1,-1) (-1,-1,-1) 
(5, 6, 7) (-1,-1,-1) (-1,-1,-1) (-1,-1,-1) (10, 11, 12) (12, 13, 15) (-1,-1,-1) (-1,-1,-1) (-1,-1,-1) (6, 7, 8) (-1,-1,-1) (-1,-1,-1) (-1,-1,-1) (-1,-1,-1) (-1,-1,-1) 
(-1,-1,-1) (4, 5, 6) (-1,-1,-1) (-1,-1,-1) (-1,-1,-1) (4, 5, 6) (-1,-1,-1) (-1,-1,-1) (-1,-1,-1) (-1,-1,-1) (-1,-1,-1) (-1,-1,-1) (-1,-1,-1) (-1,-1,-1) (-1,-1,-1) 
(14, 16, 18) (-1,-1,-1) (5, 6, 7) (-1,-1,-1) (10, 11, 13) (-1,-1,-1) (-1,-1,-1) (-1,-1,-1) (-1,-1,-1) (15, 17, 19) (-1,-1,-1) (-1,-1,-1) (-1,-1,-1) (-1,-1,-1) (-1,-1,-1) 
(-1,-1,-1) (15, 16, 17) (-1,-1,-1) (-1,-1,-1) (8, 9, 10) (-1,-1,-1) (-1,-1,-1) (15, 16, 19) (-1,-1,-1) (8, 9, 10) (-1,-1,-1) (-1,-1,-1) (-1,-1,-1) (-1,-1,-1) (-1,-1,-1) 
11
(-1,-1,-1) (-1,-1,-1) (-1,-1,-1) (-1,-1,-1) (-1,-1,-1) (10, 11, 13) (10, 11, 12) (-1,-1,-1) (-1,-1,-1) (-1,-1,-1) (-1,-1,-1) (-1,-1,-1) (-1,-1,-1) (-1,-1,-1) (-1,-1,-1) 
(-1,-1,-1) (7, 8, 9) (-1,-1,-1) (6, 7, 8) (-1,-1,-1) (-1,-1,-1) (4, 5, 6) (-1,-1,-1) (-1,-1,-1) (-1,-1,-1) (-1,-1,-1) (-1,-1,-1) (-1,-1,-1) (-1,-1,-1) (-1,-1,-1) 
(-1,-1,-1) (-1,-1,-1) (16, 18, 20) (9, 10, 11) (-1,-1,-1) (-1,-1,-1) (-1,-1,-1) (9, 10, 12) (6, 7, 8) (-1,-1,-1) (-1,-1,-1) (-1,-1,-1) (-1,-1,-1) (-1,-1,-1) (-1,-1,-1) 
(-1,-1,-1) (-1,-1,-1) (-1,-1,-1) (-1,-1,-1) (-1,-1,-1) (-1,-1,-1) (-1,-1,-1) (-1,-1,-1) (9, 10, 11) (4, 5, 6) (-1,-1,-1) (-1,-1,-1) (-1,-1,-1) (-1,-1,-1) (-1,-1,-1) 
(-1,-1,-1) (14, 16, 18) (-1,-1,-1) (-1,-1,-1) (8, 9, 10) (-1,-1,-1) (-1,-1,-1) (14, 16, 18) (-1,-1,-1) (8, 9, 10) (-1,-1,-1) (-1,-1,-1) (-1,-1,-1) (-1,-1,-1) (-1,-1,-1) 
(-1,-1,-1) (5, 6, 7) (-1,-1,-1) (12, 13, 14) (-1,-1,-1) (-1,-1,-1) (-1,-1,-1) (7, 8, 9) (-1,-1,-1) (-1,-1,-1) (-1,-1,-1) (-1,-1,-1) (-1,-1,-1) (-1,-1,-1) (-1,-1,-1) 
(-1,-1,-1) (-1,-1,-1) (-1,-1,-1) (7, 8, 9) (-1,-1,-1) (16, 18, 20) (12, 13, 14) (-1,-1,-1) (-1,-1,-1) (18, 19, 20) (-1,-1,-1) (-1,-1,-1) (-1,-1,-1) (-1,-1,-1) (-1,-1,-1) 
(-1,-1,-1) (15, 16, 17) (11, 12, 14) (10, 11, 13) (14, 15, 17) (-1,-1,-1) (-1,-1,-1) (-1,-1,-1) (-1,-1,-1) (8, 9, 10) (-1,-1,-1) (-1,-1,-1) (-1,-1,-1) (-1,-1,-1) (-1,-1,-1) 
(7, 8, 9) (-1,-1,-1) (-1,-1,-1) (6, 7, 8) (-1,-1,-1) (-1,-1,-1) (12, 14, 16) (-1,-1,-1) (11, 12, 14) (-1,-1,-1) (-1,-1,-1) (-1,-1,-1) (-1,-1,-1) (-1,-1,-1) (-1,-1,-1) 
(-1,-1,-1) (4, 5, 6) (-1,-1,-1) (-1,-1,-1) (-1,-1,-1) (4, 5, 6) (-1,-1,-1) (-1,-1,-1) (-1,-1,-1) (-1,-1,-1) (-1,-1,-1) (-1,-1,-1) (-1,-1,-1) (-1,-1,-1) (-1,-1,-1) 
(8, 9, 10) (10, 11, 13) (-1,-1,-1) (-1,-1,-1) (-1,-1,-1) (-1,-1,-1) (-1,-1,-1) (-1,-1,-1) (-1,-1,-1) (-1,-1,-1) (-1,-1,-1) (-1,-1,-1) (-1,-1,-1) (-1,-1,-1) (-1,-1,-1) 
12
(-1,-1,-1) (-1,-1,-1) (-1,-1,-1) (-1,-1,-1) (-1,-1,-1) (-1,-1,-1) (-1,-1,-1) (-1,-1,-1) (9, 10, 12) (4, 5, 6) (-1,-1,-1) (-1,-1,-1) (-1,-1,-1) (-1,-1,-1) (-1,-1,-1) 
(-1,-1,-1) (-1,-1,-1) (-1,-1,-1) (-1,-1,-1) (13, 15, 17) (-1,-1,-1) (-1,-1,-1) (-1,-1,-1) (-1,-1,-1) (-1,-1,-1) (-1,-1,-1) (-1,-1,-1) (-1,-1,-1) (-1,-1,-1) (-1,-1,-1) 
(-1,-1,-1) (4, 5, 6) (-1,-1,-1) (-1,-1,-1) (-1,-1,-1) (-1,-1,-1) (-1,-1,-1) (-1,-1,-1) (18, 19, 22) (-1,-1,-1) (-1,-1,-1) (-1,-1,-1) (-1,-1,-1) (-1,-1,-1) (-1,-1,-1) 
(14, 15, 18) (18, 19, 20) (-1,-1,-1) (-1,-1,-1) (-1,-1,-1) (-1,-1,-1) (-1,-1,-1) (-1,-1,-1) (8, 9, 10) (-1,-1,-1) (-1,-1,-1) (-1,-1,-1) (-1,-1,-1) (-1,-1,-1) (-1,-1,-1) 
(-1,-1,-1) (15, 16, 17) (11, 12, 13) (10, 11, 12) (13, 15, 17) (-1,-1,-1) (-1,-1,-1) (-1,-1,-1) (-1,-1,-1) (8, 9, 10) (-1,-1,-1) (-1,-1,-1) (-1,-1,-1) (-1,-1,-1) (-1,-1,-1) 
(5, 6, 7) (-1,-1,-1) (-1,-1,-1) (-1,-1,-1) (10, 11, 12) (12, 13, 15) (-1,-1,-1) (-1,-1,-1) (-1,-1,-1) (6, 7, 8) (-1,-1,-1) (-1,-1,-1) (-1,-1,-1) (-1,-1,-1) (-1,-1,-1) 
(-1,-1,-1) (14, 16, 18) (-1,-1,-1) (-1,-1,-1) (8, 9, 10) (-1,-1,-1) (-1,-1,-1) (14, 16, 19) (-1,-1,-1) (8, 9, 10) (-1,-1,-1) (-1,-1,-1) (-1,-1,-1) (-1,-1,-1) (-1,-1,-1) 
(14, 16, 18) (-1,-1,-1) (5, 6, 7) (-1,-1,-1) (10, 11, 12) (-1,-1,-1) (-1,-1,-1) (-1,-1,-1) (-1,-1,-1) (15, 17, 20) (-1,-1,-1) (-1,-1,-1) (-1,-1,-1) (-1,-1,-1) (-1,-1,-1) 
(-1,-1,-1) (4, 5, 6) (-1,-1,-1) (-1,-1,-1) (-1,-1,-1) (4, 5, 6) (-1,-1,-1) (-1,-1,-1) (-1,-1,-1) (-1,-1,-1) (-1,-1,-1) (-1,-1,-1) (-1,-1,-1) (-1,-1,-1) (-1,-1,-1) 
(-1,-1,-1) (-1,-1,-1) (11, 12, 14) (-1,-1,-1) (-1,-1,-1) (-1,-1,-1) (13, 15, 17) (-1,-1,-1) (-1,-1,-1) (-1,-1,-1) (-1,-1,-1) (-1,-1,-1) (-1,-1,-1) (-1,-1,-1) (-1,-1,-1) 
(-1,-1,-1) (-1,-1,-1) (-1,-1,-1) (10, 11, 13) (9, 10, 11) (-1,-1,-1) (13, 15, 18) (-1,-1,-1) (-1,-1,-1) (13, 14, 16) (-1,-1,-1) (-1,-1,-1) (-1,-1,-1) (-1,-1,-1) (-1,-1,-1) 
(-1,-1,-1) (-1,-1,-1) (17, 18, 21) (9, 10, 11) (-1,-1,-1) (-1,-1,-1) (-1,-1,-1) (9, 10, 11) (6, 7, 8) (-1,-1,-1) (-1,-1,-1) (-1,-1,-1) (-1,-1,-1) (-1,-1,-1) (-1,-1,-1) 
10
(-1,-1,-1) (14, 16, 18) (11, 12, 13) (10, 11, 12) (13, 15, 18) (-1,-1,-1) (-1,-1,-1) (-1,-1,-1) (-1,-1,-1) (8, 9, 10) (-1,-1,-1) (-1,-1,-1) (-1,-1,-1) (-1,-1,-1) (-1,-1,-1) 
(-1,-1,-1) (14, 16, 19) (-1,-1,-1) (-1,-1,-1) (10, 11, 13) (-1,-1,-1) (7, 8, 9) (-1,-1,-1) (-1,-1,-1) (10, 11, 13) (-1,-1,-1) (-1,-1,-1) (-1,-1,-1) (-1,-1,-1) (-1,-1,-1) 
(-1,-1,-1) (-1,-1,-1) (-1,-1,-1) (7, 8, 9) (-1,-1,-1) (16, 18, 21) (12, 13, 15) (-1,-1,-1) (-1,-1,-1) (17, 19, 21) (-1,-1,-1) (-1,-1,-1) (-1,-1,-1) (-1,-1,-1) (-1,-1,-1) 
(-1,-1,-1) (-1,-1,-1) (-1,-1,-1) (-1,-1,-1) (-1,-1,-1) (-1,-1,-1) (-1,-1,-1) (-1,-1,-1) (9, 10, 12) (4, 5, 6) (-1,-1,-1) (-1,-1,-1) (-1,-1,-1) (-1,-1,-1) (-1,-1,-1) 
(-1,-1,-1) (-1,-1,-1) (-1,-1,-1) (-1,-1,-1) (13, 15, 17) (-1,-1,-1) (-1,-1,-1) (-1,-1,-1) (-1,-1,-1) (-1,-1,-1) (-1,-1,-1) (-1,-1,-1) (-1,-1,-1) (-1,-1,-1) (-1,-1,-1) 
(8, 9, 10) (10, 11, 12) (-1,-1,-1) (-1,-1,-1) (-1,-1,-1) (-1,-1,-1) (-1,-1,-1) (-1,-1,-1) (-1,-1,-1) (-1,-1,-1) (-1,-1,-1) (-1,-1,-1) (-1,-1,-1) (-1,-1,-1) (-1,-1,-1) 
(-1,-1,-1) (5, 6, 7) (-1,-1,-1) (12, 13, 14) (-1,-1,-1) (-1,-1,-1) (-1,-1,-1) (7, 8, 9) (-1,-1,-1) (-1,-1,-1) (-1,-1,-1) (-1,-1,-1) (-1,-1,-1) (-1,-1,-1) (-1,-1,-1) 
(-1,-1,-1) (4, 5, 6) (-1,-1,-1) (-1,-1,-1) (-1,-1,-1) (-1,-1,-1) (-1,-1,-1) (-1,-1,-1) (18, 19, 20) (-1,-1,-1) (-1,-1,-1) (-1,-1,-1) (-1,-1,-1) (-1,-1,-1) (-1,-1,-1) 
(-1,-1,-1) (-1,-1,-1) (17, 18, 20) (9, 10, 11) (-1,-1,-1) (-1,-1,-1) (-1,-1,-1) (9, 10, 12) (6, 7, 8) (-1,-1,-1) (-1,-1,-1) (-1,-1,-1) (-1,-1,-1) (-1,-1,-1) (-1,-1,-1) 
(15, 16, 17) (-1,-1,-1) (5, 6, 7) (-1,-1,-1) (10, 11, 13) (-1,-1,-1) (-1,-1,-1) (-1,-1,-1) (-1,-1,-1) (15, 17, 20) (-1,-1,-1) (-1,-1,-1) (-1,-1,-1) (-1,-1,-1) (-1,-1,-1) 
11
(-1,-1,-1) (-1,-1,-1) (-1,-1,-1) (-1,-1,-1) (-1,-1,-1) (10, 11, 12) (-1,-1,-1) (-1,-1,-1) (-1,-1,-1) (12, 13, 14) (-1,-1,-1) (-1,-1,-1) (-1,-1,-1) (-1,-1,-1) (-1,-1,-1) 
(-1,-1,-1) (-1,-1,-1) (-1,-1,-1) (-1,-1,-1) (14, 15, 18) (-1,-1,-1) (-1,-1,-1) (-1,-1,-1) (-1,-1,-1) (-1,-1,-1) (-1,-1,-1) (-1,-1,-1) (-1,-1,-1) (-1,-1,-1) (-1,-1,-1) 
(-1,-1,-1) (-1,-1,-1) (-1,-1,-1) (-1,-1,-1) (-1,-1,-1) (-1,-1,-1) (-1,-1,-1) (-1,-1,-1) (9, 10, 12) (4, 5, 6) (-1,-1,-1) (-1,-1,-1) (-1,-1,-1) (-1,-1,-1) (-1,-1,-1) 
(7, 8, 9) (-1,-1,-1) (-1,-1,-1) (6, 7, 8) (-1,-1,-1) (-1,-1,-1) (12, 14, 16) (-1,-1,-1) (11, 12, 14) (-1,-1,-1) (-1,-1,-1) (-1,-1,-1) (-1,-1,-1) (-1,-1,-1) (-1,-1,-1) 
(11, 12, 13) (-1,-1,-1) (7, 8, 9) (-1,-1,-1) (4, 5, 6) (-1,-1,-1) (-1,-1,-1) (-1,-1,-1) (-1,-1,-1) (-1,-1,-1) (-1,-1,-1) (-1,-1,-1) (10, 11, 12) (-1,-1,-1) (-1,-1,-1) 
(-1,-1,-1) (5, 6, 7) (-1,-1,-1) (12, 13, 15) (-1,-1,-1) (-1,-1,-1) (-1,-1,-1) (7, 8, 9) (-1,-1,-1) (-1,-1,-1) (-1,-1,-1) (-1,-1,-1) (-1,-1,-1) (-1,-1,-1) (-1,-1,-1) 
(-1,-1,-1) (7, 8, 9) (-1,-1,-1) (6, 7, 8) (-1,-1,-1) (-1,-1,-1) (4, 5, 6) (-1,-1,-1) (-1,-1,-1) (-1,-1,-1) (-1,-1,-1) (-1,-1,-1) (-1,-1,-1) (-1,-1,-1) (-1,-1,-1) 
(-1,-1,-1) (4, 5, 6) (-1,-1,-1) (-1,-1,-1) (-1,-1,-1) (-1,-1,-1) (-1,-1,-1) (-1,-1,-1) (-1,-1,-1) (-1,-1,-1) (-1,-1,-1) (-1,-1,-1) (-1,-1,-1) (-1,-1,-1) (-1,-1,-1) 
(5, 6, 7) (-1,-1,-1) (-1,-1,-1) (-1,-1,-1) (10, 11, 13) (12, 13, 14) (-1,-1,-1) (-1,-1,-1) (-1,-1,-1) (6, 7, 8) (-1,-1,-1) (-1,-1,-1) (-1,-1,-1) (-1,-1,-1) (-1,-1,-1) 
(-1,-1,-1) (14, 16, 18) (-1,-1,-1) (-1,-1,-1) (8, 9, 10) (-1,-1,-1) (-1,-1,-1) (14, 16, 19) (-1,-1,-1) (8, 9, 10) (-1,-1,-1) (-1,-1,-1) (-1,-1,-1) (-1,-1,-1) (-1,-1,-1) 
(6, 7, 8) (-1,-1,-1) (-1,-1,-1) (-1,-1,-1) (-1,-1,-1) (-1,-1,-1) (8, 9, 10) (-1,-1,-1) (-1,-1,-1) (-1,-1,-1) (-1,-1,-1) (-1,-1,-1) (-1,-1,-1) (-1,-1,-1) (-1,-1,-1) 
11
(-1,-1,-1) (7, 8, 9) (-1,-1,-1) (6, 7, 8) (-1,-1,-1) (-1,-1,-1) (4, 5, 6) (-1,-1,-1) (-1,-1,-1) (-1,-1,-1) (-1,-1,-1) (-1,-1,-1) (-1,-1,-1) (-1,-1,-1) (-1,-1,-1) 
(-1,-1,-1) (4, 5, 6) (-1,-1,-1) (-1,-1,-1) (-1,-1,-1) (-1,-1,-1) (-1,-1,-1) (-1,-1,-1) (18, 19, 22) (-1,-1,-1) (-1,-1,-1) (-1,-1,-1) (-1,-1,-1) (-1,-1,-1) (-1,-1,-1) 
(7, 8, 9) (-1,-1,-1) (-1,-1,-1) (6, 7, 8) (-1,-1,-1) (-1,-1,-1) (12, 14, 16) (-1,-1,-1) (11, 12, 14) (-1,-1,-1) (-1,-1,-1) (-1,-1,-1) (-1,-1,-1) (-1,-1,-1) (-1,-1,-1) 
(-1,-1,-1) (14, 16, 19) (-1,-1,-1) (-1,-1,-1) (10, 11, 12) (-1,-1,-1) (7, 8, 9) (-1,-1,-1) (-1,-1,-1) (10, 11, 13) (-1,-1,-1) (-1,-1,-1) (-1,-1,-1) (-1,-1,-1) (-1,-1,-1) 
(14, 15, 17) (17, 19, 22) (-1,-1,-1) (-1,-1,-1) (-1,-1,-1) (-1,-1,-1) (-1,-1,-1) (-1,-1,-1) (8, 9, 10) (-1,-1,-1) (-1,-1,-1) (-1,-1,-1) (-1,-1,-1) (-1,-1,-1) (-1,-1,-1) 
(14, 16, 18) (-1,-1,-1) (5, 6, 7) (-1,-1,-1) (10, 11, 13) (-1,-1,-1) (-1,-1,-1) (-1,-1,-1) (-1,-1,-1) (15, 17, 20) (-1,-1,-1) (-1,-1,-1) (-1,-1,-1) (-1,-1,-1) (-1,-1,-1) 
(-1,-1,-1) (4, 5, 6) (-1,-1,-1) (-1,-1,-1) (-1,-1,-1) (4, 5, 6) (-1,-1,-1) (-1,-1,-1) (-1,-1,-1) (-1,-1,-1) (-1,-1,-1) (-1,-1,-1) (-1,-1,-1) (-1,-1,-1) (-1,-1,-1) 
(-1,-1,-1) (-1,-1,-1) (-1,-1,-1) (-1,-1,-1) (-1,-1,-1) (10, 11, 12) (10, 11, 13) (-1,-1,-1) (-1,-1,-1) (-1,-1,-1) (-1,-1,-1) (-1,-1,-1) (-1,-1,-1) (-1,-1,-1) (-1,-1,-1) 
(18, 19, 20) (15, 16, 17) (7, 8, 9) (-1,-1,-1) (-1,-1,-1) (-1,-1,-1) (-1,-1,-1) (-1,-1,-1) (12, 13, 15) (18, 19, 21) (-1,-1,-1) (-1,-1,-1) (-1,-1,-1) (-1,-1,-1) (-1,-1,-1) 
(-1,-1,-1) (-1,-1,-1) (16, 18, 21) (9, 10, 12) (-1,-1,-1) (-1,-1,-1) (-1,-1,-1) (9, 10, 12) (6, 7, 8) (-1,-1,-1) (-1,-1,-1) (-1,-1,-1) (-1,-1,-1) (-1,-1,-1) (-1,-1,-1) 
(-1,-1,-1) (5, 6, 7) (-1,-1,-1) (12, 13, 15) (-1,-1,-1) (-1,-1,-1) (-1,-1,-1) (7, 8, 9) (-1,-1,-1) (-1,-1,-1) (-1,-1,-1) (-1,-1,-1) (-1,-1,-1) (-1,-1,-1) (-1,-1,-1) 
10
(-1,-1,-1) (10, 11, 12) (-1,-1,-1) (-1,-1,-1) (10, 11, 12) (-1,-1,-1) (-1,-1,-1) (-1,-1,-1) (-1,-1,-1) (-1,-1,-1) (-1,-1,-1) (-1,-1,-1) (-1,-1,-1) (-1,-1,-1) (-1,-1,-1) 
(-1,-1,-1) (-1,-1,-1) (16, 18, 20) (9, 10, 11) (-1,-1,-1) (-1,-1,-1) (-1,-1,-1) (9, 10, 11) (6, 7, 8) (-1,-1,-1) (-1,-1,-1) (-1,-1,-1) (-1,-1,-1) (-1,-1,-1) (-1,-1,-1) 
(6, 7, 8) (-1,-1,-1) (-1,-1,-1) (-1,-1,-1) (-1,-1,-1) (-1,-1,-1) (8, 9, 10) (-1,-1,-1) (-1,-1,-1) (-1,-1,-1) (-1,-1,-1) (-1,-1,-1) (-1,-1,-1) (-1,-1,-1) (-1,-1,-1) 
(-1,-1,-1) (4, 5, 6) (-1,-1,-1) (-1,-1,-1) (-1,-1,-1) (4, 5, 6) (-1,-1,-1) (-1,-1,-1) (-1,-1,-1) (-1,-1,-1) (-1,-1,-1) (-1,-1,-1) (-1,-1,-1) (-1,-1,-1) (-1,-1,-1) 
(11, 12, 14) (-1,-1,-1) (7, 8, 9) (-1,-1,-1) (4, 5, 6) (-1,-1,-1) (-1,-1,-1) (-1,-1,-1) (-1,-1,-1) (-1,-1,-1) (-1,-1,-1) (-1,-1,-1) (10, 11, 13) (-1,-1,-1) (-1,-1,-1) 
(-1,-1,-1) (-1,-1,-1) (-1,-1,-1) (-1,-1,-1) (13, 15, 18) (-1,-1,-1) (-1,-1,-1) (-1,-1,-1) (-1,-1,-1) (-1,-1,-1) (-1,-1,-1) (-1,-1,-1) (-1,-1,-1) (-1,-1,-1) (-1,-1,-1) 
(-1,-1,-1) (-1,-1,-1) (-1,-1,-1) (-1,-1,-1) (-1,-1,-1) (-1,-1,-1) (-1,-1,-1) (-1,-1,-1) (9, 10, 12) (4, 5, 6) (-1,-1,-1) (-1,-1,-1) (-1,-1,-1) (-1,-1,-1) (-1,-1,-1) 
(15, 16, 17) (-1,-1,-1) (5, 6, 7) (-1,-1,-1) (10, 11, 12) (-1,-1,-1) (-1,-1,-1) (-1,-1,-1) (-1,-1,-1) (15, 17, 19) (-1,-1,-1) (-1,-1,-1) (-1,-1,-1) (-1,-1,-1) (-1,-1,-1) 
(-1,-1,-1) (5, 6, 7) (-1,-1,-1) (12, 13, 14) (-1,-1,-1) (-1,-1,-1) (-1,-1,-1) (7, 8, 9) (-1,-1,-1) (-1,-1,-1) (-1,-1,-1) (-1,-1,-1) (-1,-1,-1) (-1,-1,-1) (-1,-1,-1) 
(-1,-1,-1) (-1,-1,-1) (11, 12, 13) (-1,-1,-1) (-1,-1,-1) (-1,-1,-1) (13, 15, 17) (-1,-1,-1) (-1,-1,-1) (-1,-1,-1) (-1,-1,-1) (-1,-1,-1) (-1,-1,-1) (-1,-1,-1) (-1,-1,-1) 
12
(-1,-1,-1) (-1,-1,-1) (16, 18, 20) (9, 10, 12) (-1,-1,-1) (-1,-1,-1) (-1,-1,-1) (9, 10, 11) (6, 7, 8) (-1,-1,-1) (-1,-1,-1) (-1,-1,-1) (-1,-1,-1) (-1,-1,-1) (-1,-1,-1) 
(-1,-1,-1) (-1,-1,-1) (-1,-1,-1) (-1,-1,-1) (13, 15, 18) (-1,-1,-1) (-1,-1,-1) (-1,-1,-1) (-1,-1,-1) (-1,-1,-1) (-1,-1,-1) (-1,-1,-1) (-1,-1,-1) (-1,-1,-1) (-1,-1,-1) 
(14, 15, 17) (18, 19, 20) (-1,-1,-1) (-1,-1,-1) (-1,-1,-1) (-1,-1,-1) (-1,-1,-1) (-1,-1,-1) (8, 9, 10) (-1,-1,-1) (-1,-1,-1) (-1,-1,-1) (-1,-1,-1) (-1,-1,-1) (-1,-1,-1) 
(-1,-1,-1) (-1,-1,-1) (-1,-1,-1) (7, 8, 9) (-1,-1,-1) (17, 18, 20) (12, 13, 15) (-1,-1,-1) (-1,-1,-1) (18, 19, 22) (-1,-1,-1) (-1,-1,-1) (-1,-1,-1) (-1,-1,-1) (-1,-1,-1) 
(-1,-1,-1) (14, 16, 19) (-1,-1,-1) (-1,-1,-1) (8, 9, 10) (-1,-1,-1) (-1,-1,-1) (15, 16, 18) (-1,-1,-1) (8, 9, 10) (-1,-1,-1) (-1,-1,-1) (-1,-1,-1) (-1,-1,-1) (-1,-1,-1) 
(7, 8, 9) (-1,-1,-1) (-1,-1,-1) (6, 7, 8) (-1,-1,-1) (-1,-1,-1) (12, 14, 16) (-1,-1,-1) (11, 12, 14) (-1,-1,-1) (-1,-1,-1) (-1,-1,-1) (-1,-1,-1) (-1,-1,-1) (-1,-1,-1) 
(-1,-1,-1) (7, 8, 9) (-1,-1,-1) (6, 7, 8) (-1,-1,-1) (-1,-1,-1) (4, 5, 6) (-1,-1,-1) (-1,-1,-1) (-1,-1,-1) (-1,-1,-1) (-1,-1,-1) (-1,-1,-1) (-1,-1,-1) (-1,-1,-1) 
(-1,-1,-1) (-1,-1,-1) (-1,-1,-1) (-1,-1,-1) (-1,-1,-1) (10, 11, 13) (-1,-1,-1) (-1,-1,-1) (-1,-1,-1) (12, 13, 14) (-1,-1,-1) (-1,-1,-1) (-1,-1,-1) (-1,-1,-1) (-1,-1,-1) 
(-1,-1,-1) (-1,-1,-1) (-1,-1,-1) (-1,-1,-1) (-1,-1,-1) (-1,-1,-1) (-1,-1,-1) (-1,-1,-1) (9, 10, 12) (4, 5, 6) (-1,-1,-1) (-1,-1,-1) (-1,-1,-1) (-1,-1,-1) (-1,-1,-1) 
(-1,-1,-1) (-1,-1,-1) (11, 12, 13) (-1,-1,-1) (-1,-1,-1) (-1,-1,-1) (14, 15, 16) (-1,-1,-1) (-1,-1,-1) (-1,-1,-1) (-1,-1,-1) (-1,-1,-1) (-1,-1,-1) (-1,-1,-1) (-1,-1,-1) 
(-1,-1,-1) (4, 5, 6) (-1,-1,-1) (-1,-1,-1) (-1,-1,-1) (4, 5, 6) (-1,-1,-1) (-1,-1,-1) (-1,-1,-1) (-1,-1,-1) (-1,-1,-1) (-1,-1,-1) (-1,-1,-1) (-1,-1,-1) (-1,-1,-1) 
(11, 12, 14) (-1,-1,-1) (7, 8, 9) (-1,-1,-1) (4, 5, 6) (-1,-1,-1) (-1,-1,-1) (-1,-1,-1) (-1,-1,-1) (-1,-1,-1) (-1,-1,-1) (-1,-1,-1) (10, 11, 13) (-1,-1,-1) (-1,-1,-1) 
14
(-1,-1,-1) (-1,-1,-1) (-1,-1,-1) (-1,-1,-1) (-1,-1,-1) (10, 11, 12) (10, 11, 12) (-1,-1,-1) (-1,-1,-1) (-1,-1,-1) (-1,-1,-1) (-1,-1,-1) (-1,-1,-1) (-1,-1,-1) (-1,-1,-1) 
(-1,-1,-1) (-1,-1,-1) (-1,-1,-1) (-1,-1,-1) (14, 15, 18) (-1,-1,-1) (-1,-1,-1) (-1,-1,-1) (-1,-1,-1) (-1,-1,-1) (-1,-1,-1) (-1,-1,-1) (-1,-1,-1) (-1,-1,-1) (-1,-1,-1) 
(-1,-1,-1) (4, 5, 6) (-1,-1,-1) (-1,-1,-1) (-1,-1,-1) (-1,-1,-1) (-1,-1,-1) (-1,-1,-1) (17, 19, 22) (-1,-1,-1) (-1,-1,-1) (-1,-1,-1) (-1,-1,-1) (-1,-1,-1) (-1,-1,-1) 
(7, 8, 9) (-1,-1,-1) (-1,-1,-1) (6, 7, 8) (-1,-1,-1) (-1,-1,-1) (12, 14, 16) (-1,-1,-1) (11, 12, 14) (-1,-1,-1) (-1,-1,-1) (-1,-1,-1) (-1,-1,-1) (-1,-1,-1) (-1,-1,-1) 
(-1,-1,-1) (4, 5, 6) (-1,-1,-1) (-1,-1,-1) (-1,-1,-1) (-1,-1,-1) (-1,-1,-1) (-1,-1,-1) (-1,-1,-1) (-1,-1,-1) (-1,-1,-1) (-1,-1,-1) (-1,-1,-1) (-1,-1,-1) (-1,-1,-1) 
(11, 12, 13) (-1,-1,-1) (7, 8, 9) (-1,-1,-1) (4, 5, 6) (-1,-1,-1) (-1,-1,-1) (-1,-1,-1) (-1,-1,-1) (-1,-1,-1) (-1,-1,-1) (-1,-1,-1) (10, 11, 12) (-1,-1,-1) (-1,-1,-1) 
(-1,-1,-1) (5, 6, 7) (-1,-1,-1) (12, 13, 14) (-1,-1,-1) (-1,-1,-1) (-1,-1,-1) (7, 8, 9) (-1,-1,-1) (-1,-1,-1) (-1,-1,-1) (-1,-1,-1) (-1,-1,-1) (-1,-1,-1) (-1,-1,-1) 
(14, 15, 17) (18, 19, 22) (-1,-1,-1) (-1,-1,-1) (-1,-1,-1) (-1,-1,-1) (-1,-1,-1) (-1,-1,-1) (8, 9, 10) (-1,-1,-1) (-1,-1,-1) (-1,-1,-1) (-1,-1,-1) (-1,-1,-1) (-1,-1,-1) 
(-1,-1,-1) (-1,-1,-1) (-1,-1,-1) (10, 11, 12) (9, 10, 11) (-1,-1,-1) (13, 15, 18) (-1,-1,-1) (-1,-1,-1) (13, 14, 16) (-1,-1,-1) (-1,-1,-1) (-1,-1,-1) (-1,-1,-1) (-1,-1,-1) 
(-1,-1,-1) (4, 5, 6) (-1,-1,-1) (-1,-1,-1) (-1,-1,-1) (4, 5, 6) (-1,-1,-1) (-1,-1,-1) (-1,-1,-1) (-1,-1,-1) (-1,-1,-1) (-1,-1,-1) (-1,-1,-1) (-1,-1,-1) (-1,-1,-1) 
(-1,-1,-1) (-1,-1,-1) (-1,-1,-1) (-1,-1,-1) (-1,-1,-1) (-1,-1,-1) (-1,-1,-1) (-1,-1,-1) (9, 10, 11) (4, 5, 6) (-1,-1,-1) (-1,-1,-1) (-1,-1,-1) (-1,-1,-1) (-1,-1,-1) 
(-1,-1,-1) (10, 11, 12) (-1,-1,-1) (-1,-1,-1) (10, 11, 12) (-1,-1,-1) (-1,-1,-1) (-1,-1,-1) (-1,-1,-1) (-1,-1,-1) (-1,-1,-1) (-1,-1,-1) (-1,-1,-1) (-1,-1,-1) (-1,-1,-1) 
(17, 19, 21) (14, 16, 18) (7, 8, 9) (-1,-1,-1) (-1,-1,-1) (-1,-1,-1) (-1,-1,-1) (-1,-1,-1) (12, 13, 15) (17, 19, 22) (-1,-1,-1) (-1,-1,-1) (-1,-1,-1) (-1,-1,-1) (-1,-1,-1) 
(-1,-1,-1) (-1,-1,-1) (-1,-1,-1) (-1,-1,-1) (-1,-1,-1) (10, 11, 12) (-1,-1,-1) (-1,-1,-1) (-1,-1,-1) (12, 13, 14) (-1,-1,-1) (-1,-1,-1) (-1,-1,-1) (-1,-1,-1) (-1,-1,-1) 
13
(-1,-1,-1) (-1,-1,-1) (-1,-1,-1) (7, 8, 9) (-1,-1,-1) (17, 18, 21) (12, 13, 14) (-1,-1,-1) (-1,-1,-1) (17, 19, 22) (-1,-1,-1) (-1,-1,-1) (-1,-1,-1) (-1,-1,-1) (-1,-1,-1) 
(-1,-1,-1) (15, 16, 19) (11, 12, 14) (10, 11, 12) (13, 15, 18) (-1,-1,-1) (-1,-1,-1) (-1,-1,-1) (-1,-1,-1) (8, 9, 10) (-1,-1,-1) (-1,-1,-1) (-1,-1,-1) (-1,-1,-1) (-1,-1,-1) 
(-1,-1,-1) (5, 6, 7) (-1,-1,-1) (12, 13, 15) (-1,-1,-1) (-1,-1,-1) (-1,-1,-1) (7, 8, 9) (-1,-1,-1) (-1,-1,-1) (-1,-1,-1) (-1,-1,-1) (-1,-1,-1) (-1,-1,-1) (-1,-1,-1) 
(-1,-1,-1) (-1,-1,-1) (-1,-1,-1) (-1,-1,-1) (-1,-1,-1) (10, 11, 13) (10, 11, 13) (-1,-1,-1) (-1,-1,-1) (-1,-1,-1) (-1,-1,-1) (-1,-1,-1) (-1,-1,-1) (-1,-1,-1) (-1,-1,-1) 
(-1,-1,-1) (-1,-1,-1) (-1,-1,-1) (-1,-1,-1) (-1,-1,-1) (10, 11, 13) (-1,-1,-1) (-1,-1,-1) (-1,-1,-1) (12, 13, 14) (-1,-1,-1) (-1,-1,-1) (-1,-1,-1) (-1,-1,-1) (-1,-1,-1) 
(-1,-1,-1) (15, 16, 17) (-1,-1,-1) (-1,-1,-1) (8, 9, 10) (-1,-1,-1) (-1,-1,-1) (15, 16, 17) (-1,-1,-1) (8, 9, 10) (-1,-1,-1) (-1,-1,-1) (-1,-1,-1) (-1,-1,-1) (-1,-1,-1) 
(-1,-1,-1) (-1,-1,-1) (17, 18, 21) (9, 10, 11) (-1,-1,-1) (-1,-1,-1) (-1,-1,-1) (9, 10, 11) (6, 7, 8) (-1,-1,-1) (-1,-1,-1) (-1,-1,-1) (-1,-1,-1) (-1,-1,-1) (-1,-1,-1) 
(11, 12, 14) (-1,-1,-1) (7, 8, 9) (-1,-1,-1) (4, 5, 6) (-1,-1,-1) (-1,-1,-1) (-1,-1,-1) (-1,-1,-1) (-1,-1,-1) (-1,-1,-1) (-1,-1,-1) (10, 11, 13) (-1,-1,-1) (-1,-1,-1) 
(-1,-1,-1) (4, 5, 6) (-1,-1,-1) (-1,-1,-1) (-1,-1,-1) (4, 5, 6) (-1,-1,-1) (-1,-1,-1) (-1,-1,-1) (-1,-1,-1) (-1,-1,-1) (-1,-1,-1) (-1,-1,-1) (-1,-1,-1) (-1,-1,-1) 
(6, 7, 8) (-1,-1,-1) (-1,-1,-1) (-1,-1,-1) (-1,-1,-1) (-1,-1,-1) (8, 9, 10) (-1,-1,-1) (-1,-1,-1) (-1,-1,-1) (-1,-1,-1) (-1,-1,-1) (-1,-1,-1) (-1,-1,-1) (-1,-1,-1) 
(14, 16, 19) (-1,-1,-1) (5, 6, 7) (-1,-1,-1) (10, 11, 13) (-1,-1,-1) (-1,-1,-1) (-1,-1,-1) (-1,-1,-1) (16, 17, 20) (-1,-1,-1) (-1,-1,-1) (-1,-1,-1) (-1,-1,-1) (-1,-1,-1) 
(-1,-1,-1) (4, 5, 6) (-1,-1,-1) (-1,-1,-1) (-1,-1,-1) (-1,-1,-1) (-1,-1,-1) (-1,-1,-1) (17, 19, 21) (-1,-1,-1) (-1,-1,-1) (-1,-1,-1) (-1,-1,-1) (-1,-1,-1) (-1,-1,-1) 
(17, 19, 21) (15, 16, 18) (7, 8, 9) (-1,-1,-1) (-1,-1,-1) (-1,-1,-1) (-1,-1,-1) (-1,-1,-1) (12, 13, 15) (17, 19, 22) (-1,-1,-1) (-1,-1,-1) (-1,-1,-1) (-1,-1,-1) (-1,-1,-1) 
11
(-1,-1,-1) (-1,-1,-1) (-1,-1,-1) (7, 8, 9) (-1,-1,-1) (16, 18, 21) (12, 13, 15) (-1,-1,-1) (-1,-1,-1) (18, 19, 20) (-1,-1,-1) (-1,-1,-1) (-1,-1,-1) (-1,-1,-1) (-1,-1,-1) 
(5, 6, 7) (-1,-1,-1) (-1,-1,-1) (-1,-1,-1) (10, 11, 13) (12, 13, 14) (-1,-1,-1) (-1,-1,-1) (-1,-1,-1) (6, 7, 8) (-1,-1,-1) (-1,-1,-1) (-1,-1,-1) (-1,-1,-1) (-1,-1,-1) 
(-1,-1,-1) (14, 16, 18) (-1,-1,-1) (-1,-1,-1) (8, 9, 10) (-1,-1,-1) (-1,-1,-1) (15, 16, 19) (-1,-1,-1) (8, 9, 10) (-1,-1,-1) (-1,-1,-1) (-1,-1,-1) (-1,-1,-1) (-1,-1,-1) 
(-1,-1,-1) (-1,-1,-1) (-1,-1,-1) (-1,-1,-1) (-1,-1,-1) (10, 11, 13) (-1,-1,-1) (-1,-1,-1) (-1,-1,-1) (12, 13, 15) (-1,-1,-1) (-1,-1,-1) (-1,-1,-1) (-1,-1,-1) (-1,-1,-1) 
(-1,-1,-1) (4, 5, 6) (-1,-1,-1) (-1,-1,-1) (-1,-1,-1) (-1,-1,-1) (-1,-1,-1) (-1,-1,-1) (17, 19, 22) (-1,-1,-1) (-1,-1,-1) (-1,-1,-1) (-1,-1,-1) (-1,-1,-1) (-1,-1,-1) 
(-1,-1,-1) (10, 11, 12) (-1,-1,-1) (-1,-1,-1) (10, 11, 12) (-1,-1,-1) (-1,-1,-1) (-1,-1,-1) (-1,-1,-1) (-1,-1,-1) (-1,-1,-1) (-1,-1,-1) (-1,-1,-1) (-1,-1,-1) (-1,-1,-1) 
(-1,-1,-1) (15, 16, 18) (11, 12, 14) (10, 11, 12) (13, 15, 17) (-1,-1,-1) (-1,-1,-1) (-1,-1,-1) (-1,-1,-1) (8, 9, 10) (-1,-1,-1) (-1,-1,-1) (-1,-1,-1) (-1,-1,-1) (-1,-1,-1) 
(-1,-1,-1) (4, 5, 6) (-1,-1,-1) (-1,-1,-1) (-1,-1,-1) (4, 5, 6) (-1,-1,-1) (-1,-1,-1) (-1,-1,-1) (-1,-1,-1) (-1,-1,-1) (-1,-1,-1) (-1,-1,-1) (-1,-1,-1) (-1,-1,-1) 
(14, 15, 16) (18, 19, 21) (-1,-1,-1) (-1,-1,-1) (-1,-1,-1) (-1,-1,-1) (-1,-1,-1) (-1,-1,-1) (8, 9, 10) (-1,-1,-1) (-1,-1,-1) (-1,-1,-1) (-1,-1,-1) (-1,-1,-1) (-1,-1,-1) 
(-1,-1,-1) (4, 5, 6) (-1,-1,-1) (-1,-1,-1) (-1,-1,-1) (-1,-1,-1) (-1,-1,-1) (-1,-1,-1) (-1,-1,-1) (-1,-1,-1) (-1,-1,-1) (-1,-1,-1) (-1,-1,-1) (-1,-1,-1) (-1,-1,-1) 
(-1,-1,-1) (-1,-1,-1) (-1,-1,-1) (10, 11, 13) (9, 10, 11) (-1,-1,-1) (13, 15, 18) (-1,-1,-1) (-1,-1,-1) (12, 14, 16) (-1,-1,-1) (-1,-1,-1) (-1,-1,-1) (-1,-1,-1) (-1,-1,-1) 
13
(-1,-1,-1) (4, 5, 6) (-1,-1,-1) (-1,-1,-1) (-1,-1,-1) (-1,-1,-1) (-1,-1,-1) (-1,-1,-1) (18, 19, 21) (-1,-1,-1) (-1,-1,-1) (-1,-1,-1) (-1,-1,-1) (-1,-1,-1) (-1,-1,-1) 
(-1,-1,-1) (4, 5, 6) (-1,-1,-1) (-1,-1,-1) (-1,-1,-1) (4, 5, 6) (-1,-1,-1) (-1,-1,-1) (-1,-1,-1) (-1,-1,-1) (-1,-1,-1) (-1,-1,-1) (-1,-1,-1) (-1,-1,-1) (-1,-1,-1) 
(-1,-1,-1) (5, 6, 7) (-1,-1,-1) (12, 13, 14) (-1,-1,-1) (-1,-1,-1) (-1,-1,-1) (7, 8, 9) (-1,-1,-1) (-1,-1,-1) (-1,-1,-1) (-1,-1,-1) (-1,-1,-1) (-1,-1,-1) (-1,-1,-1) 
(6, 7, 8) (-1,-1,-1) (-1,-1,-1) (-1,-1,-1) (-1,-1,-1) (-1,-1,-1) (8, 9, 10) (-1,-1,-1) (-1,-1,-1) (-1,-1,-1) (-1,-1,-1) (-1,-1,-1) (-1,-1,-1) (-1,-1,-1) (-1,-1,-1) 
(-1,-1,-1) (-1,-1,-1) (11, 12, 13) (-1,-1,-1) (-1,-1,-1) (-1,-1,-1) (13, 15, 17) (-1,-1,-1) (-1,-1,-1) (-1,-1,-1) (-1,-1,-1) (-1,-1,-1) (-1,-1,-1) (-1,-1,-1) (-1,-1,-1) 
(-1,-1,-1) (-1,-1,-1) (-1,-1,-1) (-1,-1,-1) (14, 15, 17) (-1,-1,-1) (-1,-1,-1) (-1,-1,-1) (-1,-1,-1) (-1,-1,-1) (-1,-1,-1) (-1,-1,-1) (-1,-1,-1) (-1,-1,-1) (-1,-1,-1) 
(14, 16, 18) (-1,-1,-1) (5, 6, 7) (-1,-1,-1) (10, 11, 13) (-1,-1,-1) (-1,-1,-1) (-1,-1,-1) (-1,-1,-1) (16, 17, 20) (-1,-1,-1) (-1,-1,-1) (-1,-1,-1) (-1,-1,-1) (-1,-1,-1) 
(14, 15, 18) (18, 19, 20) (-1,-1,-1) (-1,-1,-1) (-1,-1,-1) (-1,-1,-1) (-1,-1,-1) (-1,-1,-1) (8, 9, 10) (-1,-1,-1) (-1,-1,-1) (-1,-1,-1) (-1,-1,-1) (-1,-1,-1) (-1,-1,-1) 
(-1,-1,-1) (-1,-1,-1) (-1,-1,-1) (-1,-1,-1) (-1,-1,-1) (10, 11, 12) (-1,-1,-1) (-1,-1,-1) (-1,-1,-1) (12, 13, 14) (-1,-1,-1) (-1,-1,-1) (-1,-1,-1) (-1,-1,-1) (-1,-1,-1) 
(8, 9, 10) (10, 11, 13) (-1,-1,-1) (-1,-1,-1) (-1,-1,-1) (-1,-1,-1) (-1,-1,-1) (-1,-1,-1) (-1,-1,-1) (-1,-1,-1) (-1,-1,-1) (-1,-1,-1) (-1,-1,-1) (-1,-1,-1) (-1,-1,-1) 
(-1,-1,-1) (7, 8, 9) (-1,-1,-1) (6, 7, 8) (-1,-1,-1) (-1,-1,-1) (4, 5, 6) (-1,-1,-1) (-1,-1,-1) (-1,-1,-1) (-1,-1,-1) (-1,-1,-1) (-1,-1,-1) (-1,-1,-1) (-1,-1,-1) 
(11, 12, 14) (-1,-1,-1) (7, 8, 9) (-1,-1,-1) (4, 5, 6) (-1,-1,-1) (-1,-1,-1) (-1,-1,-1) (-1,-1,-1) (-1,-1,-1) (-1,-1,-1) (-1,-1,-1) (10, 11, 13) (-1,-1,-1) (-1,-1,-1) 
(-1,-1,-1) (15, 16, 17) (-1,-1,-1) (-1,-1,-1) (10, 11, 12) (-1,-1,-1) (7, 8, 9) (-1,-1,-1) (-1,-1,-1) (10, 11, 13) (-1,-1,-1) (-1,-1,-1) (-1,-1,-1) (-1,-1,-1) (-1,-1,-1) 
13
(14, 16, 19) (-1,-1,-1) (5, 6, 7) (-1,-1,-1) (10, 11, 13) (-1,-1,-1) (-1,-1,-1) (-1,-1,-1) (-1,-1,-1) (16, 17, 18) (-1,-1,-1) (-1,-1,-1) (-1,-1,-1) (-1,-1,-1) (-1,-1,-1) 
(13, 15, 17) (18, 19, 20) (-1,-1,-1) (-1,-1,-1) (-1,-1,-1) (-1,-1,-1) (-1,-1,-1) (-1,-1,-1) (8, 9, 10) (-1,-1,-1) (-1,-1,-1) (-1,-1,-1) (-1,-1,-1) (-1,-1,-1) (-1,-1,-1) 
(11, 12, 13) (-1,-1,-1) (7, 8, 9) (-1,-1,-1) (4, 5, 6) (-1,-1,-1) (-1,-1,-1) (-1,-1,-1) (-1,-1,-1) (-1,-1,-1) (-1,-1,-1) (-1,-1,-1) (10, 11, 13) (-1,-1,-1) (-1,-1,-1) 
(-1,-1,-1) (4, 5, 6) (-1,-1,-1) (-1,-1,-1) (-1,-1,-1) (-1,-1,-1) (-1,-1,-1) (-1,-1,-1) (18, 19, 21) (-1,-1,-1) (-1,-1,-1) (-1,-1,-1) (-1,-1,-1) (-1,-1,-1) (-1,-1,-1) 
(-1,-1,-1) (14, 16, 18) (-1,-1,-1) (-1,-1,-1) (8, 9, 10) (-1,-1,-1) (-1,-1,-1) (14, 16, 18) (-1,-1,-1) (8, 9, 10) (-1,-1,-1) (-1,-1,-1) (-1,-1,-1) (-1,-1,-1) (-1,-1,-1) 
(-1,-1,-1) (-1,-1,-1) (-1,-1,-1) (-1,-1,-1) (13, 15, 17) (-1,-1,-1) (-1,-1,-1) (-1,-1,-1) (-1,-1,-1) (-1,-1,-1) (-1,-1,-1) (-1,-1,-1) (-1,-1,-1) (-1,-1,-1) (-1,-1,-1) 
(-1,-1,-1) (15, 16, 17) (-1,-1,-1) (-1,-1,-1) (10, 11, 13) (-1,-1,-1) (7, 8, 9) (-1,-1,-1) (-1,-1,-1) (10, 11, 13) (-1,-1,-1) (-1,-1,-1) (-1,-1,-1) (-1,-1,-1) (-1,-1,-1) 
(-1,-1,-1) (-1,-1,-1) (16, 18, 21) (9, 10, 11) (-1,-1,-1) (-1,-1,-1) (-1,-1,-1) (9, 10, 11) (6, 7, 8) (-1,-1,-1) (-1,-1,-1) (-1,-1,-1) (-1,-1,-1) (-1,-1,-1) (-1,-1,-1) 
(-1,-1,-1) (-1,-1,-1) (-1,-1,-1) (-1,-1,-1) (-1,-1,-1) (10, 11, 12) (10, 11, 12) (-1,-1,-1) (-1,-1,-1) (-1,-1,-1) (-1,-1,-1) (-1,-1,-1) (-1,-1,-1) (-1,-1,-1) (-1,-1,-1) 
(7, 8, 9) (-1,-1,-1) (-1,-1,-1) (6, 7, 8) (-1,-1,-1) (-1,-1,-1) (13, 14, 16) (-1,-1,-1) (11, 12, 14) (-1,-1,-1) (-1,-1,-1) (-1,-1,-1) (-1,-1,-1) (-1,-1,-1) (-1,-1,-1) 
(-1,-1,-1) (-1,-1,-1) (-1,-1,-1) (7, 8, 9) (-1,-1,-1) (17, 18, 20) (12, 13, 14) (-1,-1,-1) (-1,-1,-1) (17, 19, 22) (-1,-1,-1) (-1,-1,-1) (-1,-1,-1) (-1,-1,-1) (-1,-1,-1) 
(-1,-1,-1) (-1,-1,-1) (11, 12, 14) (-1,-1,-1) (-1,-1,-1) (-1,-1,-1) (13, 15, 18) (-1,-1,-1) (-1,-1,-1) (-1,-1,-1) (-1,-1,-1) (-1,-1,-1) (-1,-1,-1) (-1,-1,-1) (-1,-1,-1) 
(6, 7, 8) (-1,-1,-1) (-1,-1,-1) (-1,-1,-1) (-1,-1,-1) (-1,-1,-1) (8, 9, 10) (-1,-1,-1) (-1,-1,-1) (-1,-1,-1) (-1,-1,-1) (-1,-1,-1) (-1,-1,-1) (-1,-1,-1) (-1,-1,-1) 
