SOLUTION
Total Weighted Tardiness (19.325,178.375,689.975)
1-0 8-0 15-0 6-1 12-1 5-3 6-3 9-3 4-4 12-5 13-4 
7-0 2-1 1-3 3-2 3-3 10-4 14-0 12-3 12-4 14-4 
2-0 12-0 2-3 2-4 5-4 15-2 9-4 14-2 
10-0 10-1 5-1 10-3 7-2 7-3 11-5 
3-0 1-2 11-1 1-4 8-2 3-4 4-2 13-0 15-4 
9-0 8-1 6-2 8-3 8-4 4-5 13-2 
5-0 10-2 7-1 2-5 4-3 13-1 
6-0 2-2 4-1 5-2 9-2 6-4 14-1 14-3 13-3 
1-1 3-1 9-1 11-3 11-4 7-4 
11-0 4-0 11-2 15-1 12-2 15-3 13-5 

