<?xml version="1.0" encoding="UTF-8" standalone="no"?>
<!DOCTYPE svg PUBLIC "-//W3C//DTD SVG 1.1//EN"
 "http://www.w3.org/Graphics/SVG/1.1/DTD/svg11.dtd">
<!-- Generated by graphviz version 2.40.1 (20161225.0304)
 -->
<!-- Title: JSPRegularMeasuresMinimizationSolution::GetHead Pages: 1 -->
<!--zoomable 333 -->
<svg id="main" version="1.1" xmlns="http://www.w3.org/2000/svg" xmlns:xlink="http://www.w3.org/1999/xlink" xml:space="preserve" onload="init(evt)">
<style type="text/css"><![CDATA[
.edge:hover path { stroke: red; }
.edge:hover polygon { stroke: red; fill: red; }
]]></style>
<script type="text/javascript"><![CDATA[
var edges = document.getElementsByTagName('g');
if (edges && edges.length) {
  for (var i=0;i<edges.length;i++) {
    if (edges[i].id.substr(0,4)=='edge') {
      edges[i].setAttribute('class','edge');
    }
  }
}
]]></script>
        <defs>
                <circle id="rim" cx="0" cy="0" r="7"/>
                <circle id="rim2" cx="0" cy="0" r="3.5"/>
                <g id="zoomPlus">
                        <use xlink:href="#rim" fill="#404040">
                                <set attributeName="fill" to="#808080" begin="zoomplus.mouseover" end="zoomplus.mouseout"/>
                        </use>
                        <path d="M-4,0h8M0,-4v8" fill="none" stroke="white" stroke-width="1.5" pointer-events="none"/>
                </g>
                <g id="zoomMin">
                        <use xlink:href="#rim" fill="#404040">
                                <set attributeName="fill" to="#808080" begin="zoomminus.mouseover" end="zoomminus.mouseout"/>
                        </use>
                        <path d="M-4,0h8" fill="none" stroke="white" stroke-width="1.5" pointer-events="none"/>
                </g>
                <g id="dirArrow">
                        <path fill="none" stroke="white" stroke-width="1.5" d="M0,-3.0v7 M-2.5,-0.5L0,-3.0L2.5,-0.5"/>
                </g>
               <g id="resetDef">
                       <use xlink:href="#rim2" fill="#404040">
                               <set attributeName="fill" to="#808080" begin="reset.mouseover" end="reset.mouseout"/>
                       </use>
               </g>
        </defs>

<script type="text/javascript">
var viewWidth = 1014;
var viewHeight = 333;
var sectionId = 'dynsection-9';
</script>
<script xlink:href="svgpan.js"/>
<svg id="graph" class="graph">
<g id="viewport">
<title>JSPRegularMeasuresMinimizationSolution::GetHead</title>
<!-- Node114 -->
<g id="node1" class="node">
<title>Node114</title>
<g id="a_node1"><a xlink:title="Returns the head of the specified task.">
<polygon fill="#bfbfbf" stroke="#000000" points="0,-146.5 0,-176.5 167,-176.5 167,-146.5 0,-146.5"/>
<text text-anchor="start" x="8" y="-164.5" font-family="Helvetica,sans-Serif" font-size="10.00" fill="#000000">JSPRegularMeasuresMinimization</text>
<text text-anchor="middle" x="83.5" y="-153.5" font-family="Helvetica,sans-Serif" font-size="10.00" fill="#000000">Solution::GetHead</text>
</a>
</g>
</g>
<!-- Node115 -->
<g id="node2" class="node">
<title>Node115</title>
<g id="a_node2"><a xlink:href="classJSPRegularMeasuresMinimizationSolution.html#ae4b0b16a9433b4a30a29b05476217dcd" target="_top" xlink:title="Updates the lazy values.">
<polygon fill="none" stroke="#000000" points="203,-146.5 203,-176.5 370,-176.5 370,-146.5 203,-146.5"/>
<text text-anchor="start" x="211" y="-164.5" font-family="Helvetica,sans-Serif" font-size="10.00" fill="#000000">JSPRegularMeasuresMinimization</text>
<text text-anchor="middle" x="286.5" y="-153.5" font-family="Helvetica,sans-Serif" font-size="10.00" fill="#000000">Solution::Update</text>
</a>
</g>
</g>
<!-- Node114&#45;&gt;Node115 -->
<g id="edge1" class="edge">
<title>Node114&#45;&gt;Node115</title>
<path fill="none" stroke="#191970" d="M167.2399,-161.5C175.7178,-161.5 184.3663,-161.5 192.9388,-161.5"/>
<polygon fill="#191970" stroke="#191970" points="192.9526,-165.0001 202.9526,-161.5 192.9525,-158.0001 192.9526,-165.0001"/>
</g>
<!-- Node116 -->
<g id="node3" class="node">
<title>Node116</title>
<g id="a_node3"><a xlink:href="classJSPRegularMeasuresMinimizationSolution.html#a77f966c0ff4fc1550f56dee7f8ab7286" target="_top" xlink:title="Updates the processing order.">
<polygon fill="none" stroke="#000000" points="419.5,-269.5 419.5,-299.5 586.5,-299.5 586.5,-269.5 419.5,-269.5"/>
<text text-anchor="start" x="427.5" y="-287.5" font-family="Helvetica,sans-Serif" font-size="10.00" fill="#000000">JSPRegularMeasuresMinimization</text>
<text text-anchor="middle" x="503" y="-276.5" font-family="Helvetica,sans-Serif" font-size="10.00" fill="#000000">Solution::UpdateTopologicalOrder</text>
</a>
</g>
</g>
<!-- Node115&#45;&gt;Node116 -->
<g id="edge2" class="edge">
<title>Node115&#45;&gt;Node116</title>
<path fill="none" stroke="#191970" d="M300.3949,-176.7204C321.2133,-198.5877 362.7028,-238.6588 406,-260.5 409.8335,-262.4338 413.8324,-264.218 417.9289,-265.8635"/>
<polygon fill="#191970" stroke="#191970" points="417.0396,-269.2664 427.6327,-269.4563 419.4701,-262.7018 417.0396,-269.2664"/>
</g>
<!-- Node124 -->
<g id="node11" class="node">
<title>Node124</title>
<g id="a_node11"><a xlink:href="classJSPRegularMeasuresMinimizationSolution.html#abf2cbb26e6e8f17b1b53c1e9c01bdf0c" target="_top" xlink:title="Updates the head of all the tasks that have been affected by modifications since the last call.">
<polygon fill="none" stroke="#000000" points="419.5,-220.5 419.5,-250.5 586.5,-250.5 586.5,-220.5 419.5,-220.5"/>
<text text-anchor="start" x="427.5" y="-238.5" font-family="Helvetica,sans-Serif" font-size="10.00" fill="#000000">JSPRegularMeasuresMinimization</text>
<text text-anchor="middle" x="503" y="-227.5" font-family="Helvetica,sans-Serif" font-size="10.00" fill="#000000">Solution::UpdateHeads</text>
</a>
</g>
</g>
<!-- Node115&#45;&gt;Node124 -->
<g id="edge10" class="edge">
<title>Node115&#45;&gt;Node124</title>
<path fill="none" stroke="#191970" d="M318.7005,-176.5627C342.4646,-187.2856 375.7872,-201.5074 406,-211.5 412.5291,-213.6594 419.3619,-215.7255 426.2479,-217.6755"/>
<polygon fill="#191970" stroke="#191970" points="425.7759,-221.1753 436.3456,-220.4465 427.6284,-214.4248 425.7759,-221.1753"/>
</g>
<!-- Node125 -->
<g id="node12" class="node">
<title>Node125</title>
<g id="a_node12"><a xlink:href="namespacestd.html#aabf08e25820a0127a265bb20575664b9" target="_top" xlink:title=" ">
<polygon fill="none" stroke="#000000" points="692,-81 692,-100 747,-100 747,-81 692,-81"/>
<text text-anchor="middle" x="719.5" y="-88" font-family="Helvetica,sans-Serif" font-size="10.00" fill="#000000">std::max</text>
</a>
</g>
</g>
<!-- Node115&#45;&gt;Node125 -->
<g id="edge27" class="edge">
<title>Node115&#45;&gt;Node125</title>
<path fill="none" stroke="#191970" d="M298.8672,-146.3243C318.6524,-123.3917 359.9148,-80.8498 406,-64.5 501.3656,-30.6667 622.9065,-59.4268 682.7792,-77.8983"/>
<polygon fill="#191970" stroke="#191970" points="681.9441,-81.3051 692.5341,-80.9867 684.0569,-74.6316 681.9441,-81.3051"/>
</g>
<!-- Node130 -->
<g id="node17" class="node">
<title>Node130</title>
<g id="a_node17"><a xlink:href="classJSPRegularMeasuresMinimizationSolution.html#a5828c62c0001c9ee6bda0a5329bb128b" target="_top" xlink:title="Updates the tails of all the tasks that have been affected by modifications since the last call.">
<polygon fill="none" stroke="#000000" points="419.5,-171.5 419.5,-201.5 586.5,-201.5 586.5,-171.5 419.5,-171.5"/>
<text text-anchor="start" x="427.5" y="-189.5" font-family="Helvetica,sans-Serif" font-size="10.00" fill="#000000">JSPRegularMeasuresMinimization</text>
<text text-anchor="middle" x="503" y="-178.5" font-family="Helvetica,sans-Serif" font-size="10.00" fill="#000000">Solution::UpdateTails</text>
</a>
</g>
</g>
<!-- Node115&#45;&gt;Node130 -->
<g id="edge17" class="edge">
<title>Node115&#45;&gt;Node130</title>
<path fill="none" stroke="#191970" d="M370.2046,-171.1657C382.8798,-172.6293 396.029,-174.1477 408.9063,-175.6347"/>
<polygon fill="#191970" stroke="#191970" points="408.8256,-179.1485 419.1611,-176.8188 409.6286,-172.1947 408.8256,-179.1485"/>
</g>
<!-- Node131 -->
<g id="node18" class="node">
<title>Node131</title>
<g id="a_node18"><a xlink:href="classJSPRegularMeasuresMinimizationSolution.html#accdae639eff823a62df12301d901b60a" target="_top" xlink:title="Updates the makespan.">
<polygon fill="none" stroke="#000000" points="419.5,-122.5 419.5,-152.5 586.5,-152.5 586.5,-122.5 419.5,-122.5"/>
<text text-anchor="start" x="427.5" y="-140.5" font-family="Helvetica,sans-Serif" font-size="10.00" fill="#000000">JSPRegularMeasuresMinimization</text>
<text text-anchor="middle" x="503" y="-129.5" font-family="Helvetica,sans-Serif" font-size="10.00" fill="#000000">Solution::UpdateMakespan</text>
</a>
</g>
</g>
<!-- Node115&#45;&gt;Node131 -->
<g id="edge21" class="edge">
<title>Node115&#45;&gt;Node131</title>
<path fill="none" stroke="#191970" d="M370.2046,-152.221C382.8798,-150.8159 396.029,-149.3582 408.9063,-147.9307"/>
<polygon fill="#191970" stroke="#191970" points="409.6077,-151.3745 419.1611,-146.7939 408.8363,-144.4171 409.6077,-151.3745"/>
</g>
<!-- Node132 -->
<g id="node19" class="node">
<title>Node132</title>
<g id="a_node19"><a xlink:href="classJSPRegularMeasuresMinimizationSolution.html#aacc67d30509b9d88017c78042c806dc8" target="_top" xlink:title="Updates the total weighted tardiness.">
<polygon fill="none" stroke="#000000" points="406,-73.5 406,-103.5 600,-103.5 600,-73.5 406,-73.5"/>
<text text-anchor="start" x="414" y="-91.5" font-family="Helvetica,sans-Serif" font-size="10.00" fill="#000000">JSPRegularMeasuresMinimization</text>
<text text-anchor="middle" x="503" y="-80.5" font-family="Helvetica,sans-Serif" font-size="10.00" fill="#000000">Solution::UpdateTotalWeightedTardiness</text>
</a>
</g>
</g>
<!-- Node115&#45;&gt;Node132 -->
<g id="edge24" class="edge">
<title>Node115&#45;&gt;Node132</title>
<path fill="none" stroke="#191970" d="M320.577,-146.4387C344.2496,-136.317 376.6847,-123.1204 406,-113.5 413.6944,-110.9749 421.7991,-108.5413 429.9103,-106.2494"/>
<polygon fill="#191970" stroke="#191970" points="431.0705,-109.5601 439.7801,-103.5274 429.2094,-102.812 431.0705,-109.5601"/>
</g>
<!-- Node117 -->
<g id="node4" class="node">
<title>Node117</title>
<g id="a_node4"><a xlink:href="classJSPRegularMeasuresMinimizationSolution.html#a51f6a34786a8ae5f700c47d690f744b5" target="_top" xlink:title="Returns a pair with the tasks that are scheduled before the specified task. The first component is th...">
<polygon fill="none" stroke="#000000" points="636,-245.5 636,-275.5 803,-275.5 803,-245.5 636,-245.5"/>
<text text-anchor="start" x="644" y="-263.5" font-family="Helvetica,sans-Serif" font-size="10.00" fill="#000000">JSPRegularMeasuresMinimization</text>
<text text-anchor="middle" x="719.5" y="-252.5" font-family="Helvetica,sans-Serif" font-size="10.00" fill="#000000">Solution::GetPredecessors</text>
</a>
</g>
</g>
<!-- Node116&#45;&gt;Node117 -->
<g id="edge3" class="edge">
<title>Node116&#45;&gt;Node117</title>
<path fill="none" stroke="#191970" d="M586.7046,-275.221C599.3798,-273.8159 612.529,-272.3582 625.4063,-270.9307"/>
<polygon fill="#191970" stroke="#191970" points="626.1077,-274.3745 635.6611,-269.7939 625.3363,-267.4171 626.1077,-274.3745"/>
</g>
<!-- Node120 -->
<g id="node7" class="node">
<title>Node120</title>
<g id="a_node7"><a xlink:href="classJSPRegularMeasuresMinimizationSolution.html#aec812c82dab9616ab5192fc58bd247cc" target="_top" xlink:title="Returns a pair with the tasks that are scheduled after the specified task. The first component is the...">
<polygon fill="none" stroke="#000000" points="636,-183.5 636,-213.5 803,-213.5 803,-183.5 636,-183.5"/>
<text text-anchor="start" x="644" y="-201.5" font-family="Helvetica,sans-Serif" font-size="10.00" fill="#000000">JSPRegularMeasuresMinimization</text>
<text text-anchor="middle" x="719.5" y="-190.5" font-family="Helvetica,sans-Serif" font-size="10.00" fill="#000000">Solution::GetSuccessors</text>
</a>
</g>
</g>
<!-- Node116&#45;&gt;Node120 -->
<g id="edge6" class="edge">
<title>Node116&#45;&gt;Node120</title>
<path fill="none" stroke="#191970" d="M575.7007,-269.4483C584.0381,-266.8642 592.3013,-263.8945 600,-260.5 617.5952,-252.7419 619.1944,-245.8462 636,-236.5 647.9794,-229.8379 661.3413,-223.3604 673.8022,-217.6964"/>
<polygon fill="#191970" stroke="#191970" points="675.4155,-220.8091 683.1178,-213.5341 672.5599,-214.4181 675.4155,-220.8091"/>
</g>
<!-- Node123 -->
<g id="node10" class="node">
<title>Node123</title>
<g id="a_node10"><a xlink:href="classJSPRegularMeasuresMinimizationSolution.html#a35c863463c1b01f650901bb770c4592a" target="_top" xlink:title="Returns the problem that the solution solves.">
<polygon fill="none" stroke="#000000" points="636,-294.5 636,-324.5 803,-324.5 803,-294.5 636,-294.5"/>
<text text-anchor="start" x="644" y="-312.5" font-family="Helvetica,sans-Serif" font-size="10.00" fill="#000000">JSPRegularMeasuresMinimization</text>
<text text-anchor="middle" x="719.5" y="-301.5" font-family="Helvetica,sans-Serif" font-size="10.00" fill="#000000">Solution::GetProblem</text>
</a>
</g>
</g>
<!-- Node116&#45;&gt;Node123 -->
<g id="edge9" class="edge">
<title>Node116&#45;&gt;Node123</title>
<path fill="none" stroke="#191970" d="M586.7046,-294.1657C599.3798,-295.6293 612.529,-297.1477 625.4063,-298.6347"/>
<polygon fill="#191970" stroke="#191970" points="625.3256,-302.1485 635.6611,-299.8188 626.1286,-295.1947 625.3256,-302.1485"/>
</g>
<!-- Node118 -->
<g id="node5" class="node">
<title>Node118</title>
<g id="a_node5"><a xlink:href="classJSPRegularMeasuresMinimizationSolution.html#a1fd5430443df7d418f0212ce7a4f8209" target="_top" xlink:title="Returns the task that is scheduled before in the same job as the specified task.">
<polygon fill="none" stroke="#000000" points="839,-245.5 839,-275.5 1006,-275.5 1006,-245.5 839,-245.5"/>
<text text-anchor="start" x="847" y="-263.5" font-family="Helvetica,sans-Serif" font-size="10.00" fill="#000000">JSPRegularMeasuresMinimization</text>
<text text-anchor="middle" x="922.5" y="-252.5" font-family="Helvetica,sans-Serif" font-size="10.00" fill="#000000">Solution::GetJobPredecessor</text>
</a>
</g>
</g>
<!-- Node117&#45;&gt;Node118 -->
<g id="edge4" class="edge">
<title>Node117&#45;&gt;Node118</title>
<path fill="none" stroke="#191970" d="M803.2399,-260.5C811.7178,-260.5 820.3663,-260.5 828.9388,-260.5"/>
<polygon fill="#191970" stroke="#191970" points="828.9526,-264.0001 838.9526,-260.5 828.9525,-257.0001 828.9526,-264.0001"/>
</g>
<!-- Node119 -->
<g id="node6" class="node">
<title>Node119</title>
<g id="a_node6"><a xlink:href="classJSPRegularMeasuresMinimizationSolution.html#ab14c655132dd8b26f1b0b79ea3276e46" target="_top" xlink:title="Returns the task that is scheduled before in the same machine as the specified task.">
<polygon fill="none" stroke="#000000" points="839,-294.5 839,-324.5 1006,-324.5 1006,-294.5 839,-294.5"/>
<text text-anchor="start" x="847" y="-312.5" font-family="Helvetica,sans-Serif" font-size="10.00" fill="#000000">JSPRegularMeasuresMinimization</text>
<text text-anchor="middle" x="922.5" y="-301.5" font-family="Helvetica,sans-Serif" font-size="10.00" fill="#000000">Solution::GetMachinePredecessor</text>
</a>
</g>
</g>
<!-- Node117&#45;&gt;Node119 -->
<g id="edge5" class="edge">
<title>Node117&#45;&gt;Node119</title>
<path fill="none" stroke="#191970" d="M781.7863,-275.5346C803.5125,-280.7789 828.0714,-286.7069 850.5201,-292.1255"/>
<polygon fill="#191970" stroke="#191970" points="849.7894,-295.5496 860.3315,-294.4938 851.432,-288.745 849.7894,-295.5496"/>
</g>
<!-- Node121 -->
<g id="node8" class="node">
<title>Node121</title>
<g id="a_node8"><a xlink:href="classJSPRegularMeasuresMinimizationSolution.html#ae612f3de108af3cef5ee97d145ce8d5b" target="_top" xlink:title="Returns the task that is scheduled after in the same job as the specified task.">
<polygon fill="none" stroke="#000000" points="839,-147.5 839,-177.5 1006,-177.5 1006,-147.5 839,-147.5"/>
<text text-anchor="start" x="847" y="-165.5" font-family="Helvetica,sans-Serif" font-size="10.00" fill="#000000">JSPRegularMeasuresMinimization</text>
<text text-anchor="middle" x="922.5" y="-154.5" font-family="Helvetica,sans-Serif" font-size="10.00" fill="#000000">Solution::GetJobSuccessor</text>
</a>
</g>
</g>
<!-- Node120&#45;&gt;Node121 -->
<g id="edge7" class="edge">
<title>Node120&#45;&gt;Node121</title>
<path fill="none" stroke="#191970" d="M803.2399,-183.6496C811.7178,-182.1461 820.3663,-180.6124 828.9388,-179.0921"/>
<polygon fill="#191970" stroke="#191970" points="829.7174,-182.5088 838.9526,-177.3163 828.495,-175.6163 829.7174,-182.5088"/>
</g>
<!-- Node122 -->
<g id="node9" class="node">
<title>Node122</title>
<g id="a_node9"><a xlink:href="classJSPRegularMeasuresMinimizationSolution.html#a3eb8777ca4b47476c5d1a42ea6be899f" target="_top" xlink:title="Returns the task that is scheduled after in the same machine as the specified task.">
<polygon fill="none" stroke="#000000" points="839,-196.5 839,-226.5 1006,-226.5 1006,-196.5 839,-196.5"/>
<text text-anchor="start" x="847" y="-214.5" font-family="Helvetica,sans-Serif" font-size="10.00" fill="#000000">JSPRegularMeasuresMinimization</text>
<text text-anchor="middle" x="922.5" y="-203.5" font-family="Helvetica,sans-Serif" font-size="10.00" fill="#000000">Solution::GetMachineSuccessor</text>
</a>
</g>
</g>
<!-- Node120&#45;&gt;Node122 -->
<g id="edge8" class="edge">
<title>Node120&#45;&gt;Node122</title>
<path fill="none" stroke="#191970" d="M803.2399,-203.8627C811.7178,-204.4056 820.3663,-204.9594 828.9388,-205.5084"/>
<polygon fill="#191970" stroke="#191970" points="828.7493,-209.0033 838.9526,-206.1497 829.1967,-202.0176 828.7493,-209.0033"/>
</g>
<!-- Node124&#45;&gt;Node117 -->
<g id="edge11" class="edge">
<title>Node124&#45;&gt;Node117</title>
<path fill="none" stroke="#191970" d="M586.7046,-245.1657C599.3798,-246.6293 612.529,-248.1477 625.4063,-249.6347"/>
<polygon fill="#191970" stroke="#191970" points="625.3256,-253.1485 635.6611,-250.8188 626.1286,-246.1947 625.3256,-253.1485"/>
</g>
<!-- Node124&#45;&gt;Node125 -->
<g id="edge12" class="edge">
<title>Node124&#45;&gt;Node125</title>
<path fill="none" stroke="#191970" d="M586.7091,-220.6901C591.4717,-218.0866 595.9575,-215.0468 600,-211.5 633.005,-182.5419 604.3573,-149.9408 636,-119.5 648.4287,-107.5434 666.0369,-100.4958 681.882,-96.3514"/>
<polygon fill="#191970" stroke="#191970" points="683.0103,-99.6831 691.9676,-94.0247 681.4368,-92.8622 683.0103,-99.6831"/>
</g>
<!-- Node129 -->
<g id="node16" class="node">
<title>Node129</title>
<g id="a_node16"><a xlink:href="classJSPRegularMeasuresMinimizationSolution.html#ac2ec396a07861020139de340dc27df27" target="_top" xlink:title="Returns the duration of a task in the current assigned machine.">
<polygon fill="none" stroke="#000000" points="636,-128.5 636,-158.5 803,-158.5 803,-128.5 636,-128.5"/>
<text text-anchor="start" x="644" y="-146.5" font-family="Helvetica,sans-Serif" font-size="10.00" fill="#000000">JSPRegularMeasuresMinimization</text>
<text text-anchor="middle" x="719.5" y="-135.5" font-family="Helvetica,sans-Serif" font-size="10.00" fill="#000000">Solution::GetDuration</text>
</a>
</g>
</g>
<!-- Node124&#45;&gt;Node129 -->
<g id="edge16" class="edge">
<title>Node124&#45;&gt;Node129</title>
<path fill="none" stroke="#191970" d="M580.7802,-220.4493C587.4745,-217.9128 593.9808,-214.9529 600,-211.5 619.9017,-200.0833 616.7743,-187.0217 636,-174.5 642.9849,-169.9507 650.7305,-165.9428 658.6068,-162.45"/>
<polygon fill="#191970" stroke="#191970" points="659.9929,-165.6642 667.8752,-158.5847 657.2985,-159.2035 659.9929,-165.6642"/>
</g>
<!-- Node126 -->
<g id="node13" class="node">
<title>Node126</title>
<g id="a_node13"><a xlink:href="classTriangularFuzzyNumber.html#afe61a993d8d969f858845dbb6b5eb7a0" target="_top" xlink:title="Returns the smallest possible value.">
<polygon fill="none" stroke="#000000" points="862.5,-49.5 862.5,-79.5 982.5,-79.5 982.5,-49.5 862.5,-49.5"/>
<text text-anchor="start" x="870.5" y="-67.5" font-family="Helvetica,sans-Serif" font-size="10.00" fill="#000000">TriangularFuzzyNumber</text>
<text text-anchor="middle" x="922.5" y="-56.5" font-family="Helvetica,sans-Serif" font-size="10.00" fill="#000000">::GetSmallest</text>
</a>
</g>
</g>
<!-- Node125&#45;&gt;Node126 -->
<g id="edge13" class="edge">
<title>Node125&#45;&gt;Node126</title>
<path fill="none" stroke="#191970" d="M747.3006,-86.9393C774.1989,-83.4942 816.0792,-78.1303 852.1484,-73.5105"/>
<polygon fill="#191970" stroke="#191970" points="852.6761,-76.9716 862.1504,-72.2295 851.7868,-70.0284 852.6761,-76.9716"/>
</g>
<!-- Node127 -->
<g id="node14" class="node">
<title>Node127</title>
<g id="a_node14"><a xlink:href="classTriangularFuzzyNumber.html#ac79e432898eb12448e54d085295a09f9" target="_top" xlink:title="Returns the most probable value.">
<polygon fill="none" stroke="#000000" points="862.5,-.5 862.5,-30.5 982.5,-30.5 982.5,-.5 862.5,-.5"/>
<text text-anchor="start" x="870.5" y="-18.5" font-family="Helvetica,sans-Serif" font-size="10.00" fill="#000000">TriangularFuzzyNumber</text>
<text text-anchor="middle" x="922.5" y="-7.5" font-family="Helvetica,sans-Serif" font-size="10.00" fill="#000000">::GetMostProbable</text>
</a>
</g>
</g>
<!-- Node125&#45;&gt;Node127 -->
<g id="edge14" class="edge">
<title>Node125&#45;&gt;Node127</title>
<path fill="none" stroke="#191970" d="M740.3909,-80.9688C764.0387,-70.3662 803.8497,-53.0762 839,-40.5 845.5095,-38.171 852.355,-35.8771 859.2093,-33.6798"/>
<polygon fill="#191970" stroke="#191970" points="860.7274,-36.8717 869.2199,-30.537 858.6306,-30.1931 860.7274,-36.8717"/>
</g>
<!-- Node128 -->
<g id="node15" class="node">
<title>Node128</title>
<g id="a_node15"><a xlink:href="classTriangularFuzzyNumber.html#a0133fef04fbb1a8e571d117c01c6af71" target="_top" xlink:title="Returns the largest possible value.">
<polygon fill="none" stroke="#000000" points="862.5,-98.5 862.5,-128.5 982.5,-128.5 982.5,-98.5 862.5,-98.5"/>
<text text-anchor="start" x="870.5" y="-116.5" font-family="Helvetica,sans-Serif" font-size="10.00" fill="#000000">TriangularFuzzyNumber</text>
<text text-anchor="middle" x="922.5" y="-105.5" font-family="Helvetica,sans-Serif" font-size="10.00" fill="#000000">::GetLargest</text>
</a>
</g>
</g>
<!-- Node125&#45;&gt;Node128 -->
<g id="edge15" class="edge">
<title>Node125&#45;&gt;Node128</title>
<path fill="none" stroke="#191970" d="M747.3006,-93.6498C774.1989,-96.6974 816.0792,-101.4425 852.1484,-105.5291"/>
<polygon fill="#191970" stroke="#191970" points="851.8199,-109.0142 862.1504,-106.6624 852.6081,-102.0587 851.8199,-109.0142"/>
</g>
<!-- Node130&#45;&gt;Node120 -->
<g id="edge19" class="edge">
<title>Node130&#45;&gt;Node120</title>
<path fill="none" stroke="#191970" d="M586.7046,-191.1395C599.3798,-191.8421 612.529,-192.5709 625.4063,-193.2846"/>
<polygon fill="#191970" stroke="#191970" points="625.4827,-196.7942 635.6611,-193.853 625.8702,-189.8049 625.4827,-196.7942"/>
</g>
<!-- Node130&#45;&gt;Node125 -->
<g id="edge18" class="edge">
<title>Node130&#45;&gt;Node125</title>
<path fill="none" stroke="#191970" d="M582.5534,-171.3228C588.6584,-168.8178 594.5554,-165.8996 600,-162.5 621.1418,-149.2992 615.4857,-133.6561 636,-119.5 649.7802,-109.9909 666.9806,-103.3197 682.1832,-98.7947"/>
<polygon fill="#191970" stroke="#191970" points="683.1262,-102.1653 691.829,-96.1227 681.2575,-95.4193 683.1262,-102.1653"/>
</g>
<!-- Node130&#45;&gt;Node129 -->
<g id="edge20" class="edge">
<title>Node130&#45;&gt;Node129</title>
<path fill="none" stroke="#191970" d="M578.7212,-171.4607C596.5204,-167.9255 615.613,-164.1334 633.8149,-160.5183"/>
<polygon fill="#191970" stroke="#191970" points="634.695,-163.9119 643.8216,-158.5308 633.3313,-157.046 634.695,-163.9119"/>
</g>
<!-- Node131&#45;&gt;Node125 -->
<g id="edge22" class="edge">
<title>Node131&#45;&gt;Node125</title>
<path fill="none" stroke="#191970" d="M572.0972,-122.4997C608.4064,-114.6173 651.5075,-105.2605 681.6924,-98.7076"/>
<polygon fill="#191970" stroke="#191970" points="682.7684,-102.0557 691.7982,-96.5138 681.2833,-95.215 682.7684,-102.0557"/>
</g>
<!-- Node131&#45;&gt;Node129 -->
<g id="edge23" class="edge">
<title>Node131&#45;&gt;Node129</title>
<path fill="none" stroke="#191970" d="M586.7046,-139.8198C599.3798,-140.171 612.529,-140.5354 625.4063,-140.8923"/>
<polygon fill="#191970" stroke="#191970" points="625.568,-144.3981 635.6611,-141.1765 625.7619,-137.4007 625.568,-144.3981"/>
</g>
<!-- Node132&#45;&gt;Node125 -->
<g id="edge26" class="edge">
<title>Node132&#45;&gt;Node125</title>
<path fill="none" stroke="#191970" d="M600.1674,-89.3976C629.0862,-89.6648 659.0711,-89.9418 681.7499,-90.1513"/>
<polygon fill="#191970" stroke="#191970" points="681.91,-93.6528 691.9419,-90.2454 681.9747,-86.6531 681.91,-93.6528"/>
</g>
<!-- Node132&#45;&gt;Node129 -->
<g id="edge25" class="edge">
<title>Node132&#45;&gt;Node129</title>
<path fill="none" stroke="#191970" d="M562.1596,-103.529C589.4861,-110.4711 622.1078,-118.7583 650.5439,-125.9823"/>
<polygon fill="#191970" stroke="#191970" points="649.858,-129.4191 660.412,-128.4892 651.5816,-122.6347 649.858,-129.4191"/>
</g>
</g>
</svg>
        <g id="navigator" transform="translate(0 0)" fill="#404254">
                <rect fill="#f2f5e9" fill-opacity="0.5" stroke="#606060" stroke-width=".5" x="0" y="0" width="60" height="60"/>
                <use id="zoomplus" xlink:href="#zoomPlus" x="17" y="9" onmousedown="handleZoom(evt,'in')"/>
                <use id="zoomminus" xlink:href="#zoomMin" x="42" y="9" onmousedown="handleZoom(evt,'out')"/>
                <use id="reset" xlink:href="#resetDef" x="30" y="36" onmousedown="handleReset()"/>
                <g id="arrowUp" xlink:href="#dirArrow" transform="translate(30 24)" onmousedown="handlePan(0,-1)">
                  <use xlink:href="#rim" fill="#404040">
                        <set attributeName="fill" to="#808080" begin="arrowUp.mouseover" end="arrowUp.mouseout"/>
                  </use>
                  <path fill="none" stroke="white" stroke-width="1.5" d="M0,-3.0v7 M-2.5,-0.5L0,-3.0L2.5,-0.5"/>
                </g>
                <g id="arrowRight" xlink:href="#dirArrow" transform="rotate(90) translate(36 -43)" onmousedown="handlePan(1,0)">
                  <use xlink:href="#rim" fill="#404040">
                        <set attributeName="fill" to="#808080" begin="arrowRight.mouseover" end="arrowRight.mouseout"/>
                  </use>
                  <path fill="none" stroke="white" stroke-width="1.5" d="M0,-3.0v7 M-2.5,-0.5L0,-3.0L2.5,-0.5"/>
                </g>
                <g id="arrowDown" xlink:href="#dirArrow" transform="rotate(180) translate(-30 -48)" onmousedown="handlePan(0,1)">
                  <use xlink:href="#rim" fill="#404040">
                        <set attributeName="fill" to="#808080" begin="arrowDown.mouseover" end="arrowDown.mouseout"/>
                  </use>
                  <path fill="none" stroke="white" stroke-width="1.5" d="M0,-3.0v7 M-2.5,-0.5L0,-3.0L2.5,-0.5"/>
                </g>
                <g id="arrowLeft" xlink:href="#dirArrow" transform="rotate(270) translate(-36 17)" onmousedown="handlePan(-1,0)">
                  <use xlink:href="#rim" fill="#404040">
                        <set attributeName="fill" to="#808080" begin="arrowLeft.mouseover" end="arrowLeft.mouseout"/>
                  </use>
                  <path fill="none" stroke="white" stroke-width="1.5" d="M0,-3.0v7 M-2.5,-0.5L0,-3.0L2.5,-0.5"/>
                </g>
        </g>
        <svg viewBox="0 0 15 15" width="100%" height="30px" preserveAspectRatio="xMaxYMin meet">
         <g id="arrow_out" transform="scale(0.3 0.3)">
          <a xlink:href="classJSPRegularMeasuresMinimizationSolution_a7f70a54f20b56879265ea340a989a7ce_cgraph_org.svg" target="_base">
           <rect id="button" ry="5" rx="5" y="6" x="6" height="38" width="38"
                fill="#f2f5e9" fill-opacity="0.5" stroke="#606060" stroke-width="1.0"/>
           <path id="arrow"
             d="M 11.500037,31.436501 C 11.940474,20.09759 22.043105,11.32322 32.158766,21.979434 L 37.068811,17.246167 C 37.068811,17.246167 37.088388,32 37.088388,32 L 22.160133,31.978069 C 22.160133,31.978069 26.997745,27.140456 26.997745,27.140456 C 18.528582,18.264221 13.291696,25.230495 11.500037,31.436501 z"
             style="fill:#404040;"/>
          </a>
         </g>
        </svg>
</svg>
