<?xml version="1.0" encoding="UTF-8" standalone="no"?>
<!DOCTYPE svg PUBLIC "-//W3C//DTD SVG 1.1//EN"
 "http://www.w3.org/Graphics/SVG/1.1/DTD/svg11.dtd">
<!-- Generated by graphviz version 2.40.1 (20161225.0304)
 -->
<!-- Title: CET::GetNeighbors Pages: 1 -->
<svg width="420pt" height="66pt"
 viewBox="0.00 0.00 420.00 66.00" xmlns="http://www.w3.org/2000/svg" xmlns:xlink="http://www.w3.org/1999/xlink">
<g id="graph0" class="graph" transform="scale(1 1) rotate(0) translate(4 62)">
<title>CET::GetNeighbors</title>
<!-- Node3 -->
<g id="node1" class="node">
<title>Node3</title>
<g id="a_node1"><a xlink:title="Inserts in a container the CET neighbors of a solution.">
<polygon fill="#bfbfbf" stroke="#000000" points="0,-19.5 0,-38.5 102,-38.5 102,-19.5 0,-19.5"/>
<text text-anchor="middle" x="51" y="-26.5" font-family="Helvetica,sans-Serif" font-size="10.00" fill="#000000">CET::GetNeighbors</text>
</a>
</g>
</g>
<!-- Node4 -->
<g id="node2" class="node">
<title>Node4</title>
<g id="a_node2"><a xlink:href="classCET.html#ae206cbec4f34632a21aa083f327024c7" target="_top" xlink:title="Calculates the CET neighbors of a solution from the given critical blocks.">
<polygon fill="none" stroke="#000000" points="138,-19.5 138,-38.5 266,-38.5 266,-19.5 138,-19.5"/>
<text text-anchor="middle" x="202" y="-26.5" font-family="Helvetica,sans-Serif" font-size="10.00" fill="#000000">CET::CalculateNeighbors</text>
</a>
</g>
</g>
<!-- Node3&#45;&gt;Node4 -->
<g id="edge1" class="edge">
<title>Node3&#45;&gt;Node4</title>
<path fill="none" stroke="#191970" d="M102.1217,-29C110.3621,-29 119.0366,-29 127.6902,-29"/>
<polygon fill="#191970" stroke="#191970" points="127.8119,-32.5001 137.8119,-29 127.8119,-25.5001 127.8119,-32.5001"/>
</g>
<!-- Node5 -->
<g id="node3" class="node">
<title>Node5</title>
<g id="a_node3"><a xlink:href="classCET.html#a139bc66b68c91bf00abcc20fefc47cff" target="_top" xlink:title="Estimates the quality that results of inverting two tasks.">
<polygon fill="none" stroke="#000000" points="312.5,-38.5 312.5,-57.5 401.5,-57.5 401.5,-38.5 312.5,-38.5"/>
<text text-anchor="middle" x="357" y="-45.5" font-family="Helvetica,sans-Serif" font-size="10.00" fill="#000000">CET::GetQuality</text>
</a>
</g>
</g>
<!-- Node4&#45;&gt;Node5 -->
<g id="edge2" class="edge">
<title>Node4&#45;&gt;Node5</title>
<path fill="none" stroke="#191970" d="M266.3874,-36.8926C278.353,-38.3594 290.7482,-39.8788 302.3868,-41.3055"/>
<polygon fill="#191970" stroke="#191970" points="302.0386,-44.7889 312.3901,-42.5317 302.8903,-37.8409 302.0386,-44.7889"/>
</g>
<!-- Node6 -->
<g id="node4" class="node">
<title>Node6</title>
<g id="a_node4"><a xlink:href="classCET.html#a5b54e36edaac8a5c96f6131746c1a37a" target="_top" xlink:title="Checks if the solution uses estimates.">
<polygon fill="none" stroke="#000000" points="302,-.5 302,-19.5 412,-19.5 412,-.5 302,-.5"/>
<text text-anchor="middle" x="357" y="-7.5" font-family="Helvetica,sans-Serif" font-size="10.00" fill="#000000">CET::UsesEstimates</text>
</a>
</g>
</g>
<!-- Node4&#45;&gt;Node6 -->
<g id="edge3" class="edge">
<title>Node4&#45;&gt;Node6</title>
<path fill="none" stroke="#191970" d="M266.3874,-21.1074C274.7843,-20.0781 283.3926,-19.0228 291.8027,-17.9919"/>
<polygon fill="#191970" stroke="#191970" points="292.4353,-21.4407 301.9351,-16.7499 291.5836,-14.4927 292.4353,-21.4407"/>
</g>
</g>
</svg>
