<?xml version="1.0" encoding="UTF-8" standalone="no"?>
<!DOCTYPE svg PUBLIC "-//W3C//DTD SVG 1.1//EN"
 "http://www.w3.org/Graphics/SVG/1.1/DTD/svg11.dtd">
<!-- Generated by graphviz version 2.40.1 (20161225.0304)
 -->
<!-- Title: JSPRegularMeasuresMinimizationSolution&lt; Problem, Measure, Tails &gt; Pages: 1 -->
<svg width="1953pt" height="842pt"
 viewBox="0.00 0.00 1952.50 842.00" xmlns="http://www.w3.org/2000/svg" xmlns:xlink="http://www.w3.org/1999/xlink">
<g id="graph0" class="graph" transform="scale(1 1) rotate(0) translate(4 838)">
<title>JSPRegularMeasuresMinimizationSolution&lt; Problem, Measure, Tails &gt;</title>
<!-- Node1 -->
<g id="node1" class="node">
<title>Node1</title>
<g id="a_node1"><a xlink:title="Solution to a JSP minimizing a regular measure.">
<polygon fill="#bfbfbf" stroke="#000000" points="847.5,-.5 847.5,-607.5 1023.5,-607.5 1023.5,-.5 847.5,-.5"/>
<text text-anchor="start" x="855.5" y="-595.5" font-family="Helvetica,sans-Serif" font-size="10.00" fill="#000000">JSPRegularMeasuresMinimization</text>
<text text-anchor="start" x="855.5" y="-584.5" font-family="Helvetica,sans-Serif" font-size="10.00" fill="#000000">Solution&lt; Problem, Measure,</text>
<text text-anchor="middle" x="935.5" y="-573.5" font-family="Helvetica,sans-Serif" font-size="10.00" fill="#000000"> Tails &gt;</text>
<polyline fill="none" stroke="#000000" points="847.5,-566.5 1023.5,-566.5 "/>
<text text-anchor="middle" x="935.5" y="-554.5" font-family="Helvetica,sans-Serif" font-size="10.00" fill="#000000"> </text>
<polyline fill="none" stroke="#000000" points="847.5,-547.5 1023.5,-547.5 "/>
<text text-anchor="start" x="855.5" y="-535.5" font-family="Helvetica,sans-Serif" font-size="10.00" fill="#000000">+ JSPRegularMeasuresMinimization</text>
<text text-anchor="start" x="855.5" y="-524.5" font-family="Helvetica,sans-Serif" font-size="10.00" fill="#000000">Solution()</text>
<text text-anchor="start" x="855.5" y="-513.5" font-family="Helvetica,sans-Serif" font-size="10.00" fill="#000000">+ JSPRegularMeasuresMinimization</text>
<text text-anchor="start" x="855.5" y="-502.5" font-family="Helvetica,sans-Serif" font-size="10.00" fill="#000000">Solution()</text>
<text text-anchor="start" x="855.5" y="-491.5" font-family="Helvetica,sans-Serif" font-size="10.00" fill="#000000">+ GetMakespan()</text>
<text text-anchor="start" x="855.5" y="-480.5" font-family="Helvetica,sans-Serif" font-size="10.00" fill="#000000">+ GetTotalWeightedTardiness()</text>
<text text-anchor="start" x="855.5" y="-469.5" font-family="Helvetica,sans-Serif" font-size="10.00" fill="#000000">+ GetQuality()</text>
<text text-anchor="start" x="855.5" y="-458.5" font-family="Helvetica,sans-Serif" font-size="10.00" fill="#000000">+ GetCriticalBlocks()</text>
<text text-anchor="start" x="855.5" y="-447.5" font-family="Helvetica,sans-Serif" font-size="10.00" fill="#000000">+ ExchangeTasks()</text>
<text text-anchor="start" x="855.5" y="-436.5" font-family="Helvetica,sans-Serif" font-size="10.00" fill="#000000">+ AssignMachine()</text>
<text text-anchor="start" x="855.5" y="-425.5" font-family="Helvetica,sans-Serif" font-size="10.00" fill="#000000">+ AssignMachine()</text>
<text text-anchor="start" x="855.5" y="-414.5" font-family="Helvetica,sans-Serif" font-size="10.00" fill="#000000">+ ApplyMove()</text>
<text text-anchor="start" x="855.5" y="-403.5" font-family="Helvetica,sans-Serif" font-size="10.00" fill="#000000">+ EstimateQuality()</text>
<text text-anchor="start" x="855.5" y="-392.5" font-family="Helvetica,sans-Serif" font-size="10.00" fill="#000000">+ EstimateQuality()</text>
<text text-anchor="start" x="855.5" y="-381.5" font-family="Helvetica,sans-Serif" font-size="10.00" fill="#000000">+ EstimateQuality()</text>
<text text-anchor="start" x="855.5" y="-370.5" font-family="Helvetica,sans-Serif" font-size="10.00" fill="#000000">+ GetMoveQuality()</text>
<text text-anchor="start" x="855.5" y="-359.5" font-family="Helvetica,sans-Serif" font-size="10.00" fill="#000000">+ GetTasks()</text>
<text text-anchor="start" x="855.5" y="-348.5" font-family="Helvetica,sans-Serif" font-size="10.00" fill="#000000">+ GetTasksTopologicalOrder()</text>
<text text-anchor="start" x="855.5" y="-337.5" font-family="Helvetica,sans-Serif" font-size="10.00" fill="#000000">+ GetPredecessors()</text>
<text text-anchor="start" x="855.5" y="-326.5" font-family="Helvetica,sans-Serif" font-size="10.00" fill="#000000">+ GetSuccessors()</text>
<text text-anchor="start" x="855.5" y="-315.5" font-family="Helvetica,sans-Serif" font-size="10.00" fill="#000000">+ GetJobPredecessor()</text>
<text text-anchor="start" x="855.5" y="-304.5" font-family="Helvetica,sans-Serif" font-size="10.00" fill="#000000">+ GetJobSuccessor()</text>
<text text-anchor="start" x="855.5" y="-293.5" font-family="Helvetica,sans-Serif" font-size="10.00" fill="#000000">+ GetMachinePredecessor()</text>
<text text-anchor="start" x="855.5" y="-282.5" font-family="Helvetica,sans-Serif" font-size="10.00" fill="#000000">+ GetMachineSuccessor()</text>
<text text-anchor="start" x="855.5" y="-271.5" font-family="Helvetica,sans-Serif" font-size="10.00" fill="#000000">+ GetInitialTasks()</text>
<text text-anchor="start" x="855.5" y="-260.5" font-family="Helvetica,sans-Serif" font-size="10.00" fill="#000000">+ GetFinalTasks()</text>
<text text-anchor="start" x="855.5" y="-249.5" font-family="Helvetica,sans-Serif" font-size="10.00" fill="#000000">+ GetHead()</text>
<text text-anchor="start" x="855.5" y="-238.5" font-family="Helvetica,sans-Serif" font-size="10.00" fill="#000000">+ GetTail()</text>
<text text-anchor="start" x="855.5" y="-227.5" font-family="Helvetica,sans-Serif" font-size="10.00" fill="#000000">+ GetTail()</text>
<text text-anchor="start" x="855.5" y="-216.5" font-family="Helvetica,sans-Serif" font-size="10.00" fill="#000000">+ GetAssignedMachine()</text>
<text text-anchor="start" x="855.5" y="-205.5" font-family="Helvetica,sans-Serif" font-size="10.00" fill="#000000">+ GetDuration()</text>
<text text-anchor="start" x="855.5" y="-194.5" font-family="Helvetica,sans-Serif" font-size="10.00" fill="#000000">+ GetProblem()</text>
<text text-anchor="start" x="855.5" y="-183.5" font-family="Helvetica,sans-Serif" font-size="10.00" fill="#000000">+ SolutionSequence()</text>
<text text-anchor="start" x="855.5" y="-172.5" font-family="Helvetica,sans-Serif" font-size="10.00" fill="#000000">+ ToString()</text>
<text text-anchor="start" x="855.5" y="-161.5" font-family="Helvetica,sans-Serif" font-size="10.00" fill="#000000">+ operator==()</text>
<text text-anchor="start" x="855.5" y="-150.5" font-family="Helvetica,sans-Serif" font-size="10.00" fill="#000000">+ operator!=()</text>
<text text-anchor="start" x="855.5" y="-139.5" font-family="Helvetica,sans-Serif" font-size="10.00" fill="#000000">+ operator&lt;()</text>
<text text-anchor="start" x="855.5" y="-128.5" font-family="Helvetica,sans-Serif" font-size="10.00" fill="#000000">+ operator&gt;()</text>
<text text-anchor="start" x="855.5" y="-117.5" font-family="Helvetica,sans-Serif" font-size="10.00" fill="#000000">+ operator&lt;=()</text>
<text text-anchor="start" x="855.5" y="-106.5" font-family="Helvetica,sans-Serif" font-size="10.00" fill="#000000">+ operator&gt;=()</text>
<text text-anchor="start" x="855.5" y="-95.5" font-family="Helvetica,sans-Serif" font-size="10.00" fill="#000000">+ GetMeasure()</text>
<text text-anchor="start" x="855.5" y="-84.5" font-family="Helvetica,sans-Serif" font-size="10.00" fill="#000000">+ HasTails()</text>
<text text-anchor="start" x="855.5" y="-73.5" font-family="Helvetica,sans-Serif" font-size="10.00" fill="#000000">&#45; UpdateTopologicalOrder()</text>
<text text-anchor="start" x="855.5" y="-62.5" font-family="Helvetica,sans-Serif" font-size="10.00" fill="#000000">&#45; UpdateHeads()</text>
<text text-anchor="start" x="855.5" y="-51.5" font-family="Helvetica,sans-Serif" font-size="10.00" fill="#000000">&#45; UpdateTails()</text>
<text text-anchor="start" x="855.5" y="-40.5" font-family="Helvetica,sans-Serif" font-size="10.00" fill="#000000">&#45; UpdateMakespan()</text>
<text text-anchor="start" x="855.5" y="-29.5" font-family="Helvetica,sans-Serif" font-size="10.00" fill="#000000">&#45; UpdateTotalWeightedTardiness()</text>
<text text-anchor="start" x="855.5" y="-18.5" font-family="Helvetica,sans-Serif" font-size="10.00" fill="#000000">&#45; Update()</text>
<text text-anchor="start" x="855.5" y="-7.5" font-family="Helvetica,sans-Serif" font-size="10.00" fill="#000000">&#45; EqualTime()</text>
</a>
</g>
</g>
<!-- Node2 -->
<g id="node2" class="node">
<title>Node2</title>
<g id="a_node2"><a xlink:title=" ">
<polygon fill="none" stroke="#bfbfbf" points="0,-721.5 0,-789.5 103,-789.5 103,-721.5 0,-721.5"/>
<text text-anchor="start" x="8" y="-777.5" font-family="Helvetica,sans-Serif" font-size="10.00" fill="#000000">reference_wrapper&lt;</text>
<text text-anchor="middle" x="51.5" y="-766.5" font-family="Helvetica,sans-Serif" font-size="10.00" fill="#000000"> const JobType &gt;</text>
<polyline fill="none" stroke="#bfbfbf" points="0,-759.5 103,-759.5 "/>
<text text-anchor="middle" x="51.5" y="-747.5" font-family="Helvetica,sans-Serif" font-size="10.00" fill="#000000"> </text>
<polyline fill="none" stroke="#bfbfbf" points="0,-740.5 103,-740.5 "/>
<text text-anchor="middle" x="51.5" y="-728.5" font-family="Helvetica,sans-Serif" font-size="10.00" fill="#000000"> </text>
</a>
</g>
</g>
<!-- Node2&#45;&gt;Node1 -->
<g id="edge1" class="edge">
<title>Node2&#45;&gt;Node1</title>
<path fill="none" stroke="#404040" d="M72.0011,-721.4624C82.3817,-706.3628 96.0579,-689.2751 111.5,-677 340.1825,-495.2182 671.6463,-380.6595 835.7435,-331.6194"/>
<polygon fill="none" stroke="#404040" points="835.761,-331.6143 840.3757,-326.0732 847.2656,-328.2017 842.6508,-333.7429 835.761,-331.6143"/>
<text text-anchor="middle" x="190" y="-640" font-family="Helvetica,sans-Serif" font-size="10.00" fill="#000000"> &#45;dummy</text>
</g>
<!-- Node3 -->
<g id="node3" class="node">
<title>Node3</title>
<g id="a_node3"><a xlink:title=" ">
<polygon fill="none" stroke="#bfbfbf" points="121,-705 121,-806 276,-806 276,-705 121,-705"/>
<text text-anchor="start" x="129" y="-794" font-family="Helvetica,sans-Serif" font-size="10.00" fill="#000000">unordered_map&lt; std</text>
<text text-anchor="start" x="129" y="-783" font-family="Helvetica,sans-Serif" font-size="10.00" fill="#000000">::reference_wrapper</text>
<text text-anchor="start" x="129" y="-772" font-family="Helvetica,sans-Serif" font-size="10.00" fill="#000000">&lt; const TaskType &gt;, TimeType,</text>
<text text-anchor="start" x="129" y="-761" font-family="Helvetica,sans-Serif" font-size="10.00" fill="#000000"> std::hash&lt; TaskType &gt;, std</text>
<text text-anchor="middle" x="198.5" y="-750" font-family="Helvetica,sans-Serif" font-size="10.00" fill="#000000">::equal_to&lt; TaskType &gt; &gt;</text>
<polyline fill="none" stroke="#bfbfbf" points="121,-743 276,-743 "/>
<text text-anchor="middle" x="198.5" y="-731" font-family="Helvetica,sans-Serif" font-size="10.00" fill="#000000"> </text>
<polyline fill="none" stroke="#bfbfbf" points="121,-724 276,-724 "/>
<text text-anchor="middle" x="198.5" y="-712" font-family="Helvetica,sans-Serif" font-size="10.00" fill="#000000"> </text>
</a>
</g>
</g>
<!-- Node3&#45;&gt;Node1 -->
<g id="edge2" class="edge">
<title>Node3&#45;&gt;Node1</title>
<path fill="none" stroke="#404040" d="M250.6192,-704.6022C261.4556,-694.9849 273.0664,-685.3376 284.5,-677 468.6361,-542.7239 705.1476,-417.7663 836.4412,-352.1064"/>
<polygon fill="none" stroke="#404040" points="836.5225,-352.0659 840.1067,-345.8086 847.2612,-346.7105 843.677,-352.9678 836.5225,-352.0659"/>
<text text-anchor="middle" x="368" y="-640" font-family="Helvetica,sans-Serif" font-size="10.00" fill="#000000"> &#45;heads</text>
</g>
<!-- Node4 -->
<g id="node4" class="node">
<title>Node4</title>
<g id="a_node4"><a xlink:title=" ">
<polygon fill="none" stroke="#bfbfbf" points="294,-694 294,-817 437,-817 437,-694 294,-694"/>
<text text-anchor="start" x="302" y="-805" font-family="Helvetica,sans-Serif" font-size="10.00" fill="#000000">unordered_map&lt; std</text>
<text text-anchor="start" x="302" y="-794" font-family="Helvetica,sans-Serif" font-size="10.00" fill="#000000">::reference_wrapper</text>
<text text-anchor="start" x="302" y="-783" font-family="Helvetica,sans-Serif" font-size="10.00" fill="#000000">&lt; const JobType &gt;, std</text>
<text text-anchor="start" x="302" y="-772" font-family="Helvetica,sans-Serif" font-size="10.00" fill="#000000">::vector&lt; std::reference</text>
<text text-anchor="start" x="302" y="-761" font-family="Helvetica,sans-Serif" font-size="10.00" fill="#000000">_wrapper&lt; const TaskType</text>
<text text-anchor="start" x="302" y="-750" font-family="Helvetica,sans-Serif" font-size="10.00" fill="#000000"> &gt; &gt;, std::hash&lt; JobType &gt;</text>
<text text-anchor="middle" x="365.5" y="-739" font-family="Helvetica,sans-Serif" font-size="10.00" fill="#000000">, std::equal_to&lt; JobType &gt; &gt;</text>
<polyline fill="none" stroke="#bfbfbf" points="294,-732 437,-732 "/>
<text text-anchor="middle" x="365.5" y="-720" font-family="Helvetica,sans-Serif" font-size="10.00" fill="#000000"> </text>
<polyline fill="none" stroke="#bfbfbf" points="294,-713 437,-713 "/>
<text text-anchor="middle" x="365.5" y="-701" font-family="Helvetica,sans-Serif" font-size="10.00" fill="#000000"> </text>
</a>
</g>
</g>
<!-- Node4&#45;&gt;Node1 -->
<g id="edge3" class="edge">
<title>Node4&#45;&gt;Node1</title>
<path fill="none" stroke="#404040" d="M414.1571,-693.7433C433.141,-671.317 455.7822,-646.4771 478.5,-626 592.7493,-523.0196 740.6778,-424.1424 836.8053,-363.7521"/>
<polygon fill="none" stroke="#404040" points="836.9314,-363.6732 839.8946,-357.099 847.1028,-357.3056 844.1396,-363.8798 836.9314,-363.6732"/>
<text text-anchor="middle" x="501.5" y="-640" font-family="Helvetica,sans-Serif" font-size="10.00" fill="#000000"> &#45;job_order</text>
</g>
<!-- Node5 -->
<g id="node5" class="node">
<title>Node5</title>
<g id="a_node5"><a xlink:title=" ">
<polygon fill="none" stroke="#bfbfbf" points="455,-727 455,-784 500,-784 500,-727 455,-727"/>
<text text-anchor="middle" x="477.5" y="-772" font-family="Helvetica,sans-Serif" font-size="10.00" fill="#000000">double</text>
<polyline fill="none" stroke="#bfbfbf" points="455,-765 500,-765 "/>
<text text-anchor="middle" x="477.5" y="-753" font-family="Helvetica,sans-Serif" font-size="10.00" fill="#000000"> </text>
<polyline fill="none" stroke="#bfbfbf" points="455,-746 500,-746 "/>
<text text-anchor="middle" x="477.5" y="-734" font-family="Helvetica,sans-Serif" font-size="10.00" fill="#000000"> </text>
</a>
</g>
</g>
<!-- Node5&#45;&gt;Node1 -->
<g id="edge4" class="edge">
<title>Node5&#45;&gt;Node1</title>
<path fill="none" stroke="#404040" d="M485.673,-726.6378C490.9409,-711.0465 498.8205,-691.9795 509.5,-677 600.1641,-549.8302 742.3726,-436.8416 837.2266,-369.4131"/>
<polygon fill="none" stroke="#404040" points="837.3141,-369.3514 839.9063,-362.6223 847.1148,-362.427 844.5226,-369.1561 837.3141,-369.3514"/>
<text text-anchor="middle" x="565" y="-640" font-family="Helvetica,sans-Serif" font-size="10.00" fill="#000000"> &#45;quality</text>
</g>
<!-- Node6 -->
<g id="node6" class="node">
<title>Node6</title>
<g id="a_node6"><a xlink:title=" ">
<polygon fill="none" stroke="#bfbfbf" points="518.5,-705 518.5,-806 646.5,-806 646.5,-705 518.5,-705"/>
<text text-anchor="start" x="526.5" y="-794" font-family="Helvetica,sans-Serif" font-size="10.00" fill="#000000">unordered_set&lt; std</text>
<text text-anchor="start" x="526.5" y="-783" font-family="Helvetica,sans-Serif" font-size="10.00" fill="#000000">::reference_wrapper</text>
<text text-anchor="start" x="526.5" y="-772" font-family="Helvetica,sans-Serif" font-size="10.00" fill="#000000">&lt; const TaskType &gt;, std</text>
<text text-anchor="start" x="526.5" y="-761" font-family="Helvetica,sans-Serif" font-size="10.00" fill="#000000">::hash&lt; TaskType &gt;, std</text>
<text text-anchor="middle" x="582.5" y="-750" font-family="Helvetica,sans-Serif" font-size="10.00" fill="#000000">::equal_to&lt; TaskType &gt; &gt;</text>
<polyline fill="none" stroke="#bfbfbf" points="518.5,-743 646.5,-743 "/>
<text text-anchor="middle" x="582.5" y="-731" font-family="Helvetica,sans-Serif" font-size="10.00" fill="#000000"> </text>
<polyline fill="none" stroke="#bfbfbf" points="518.5,-724 646.5,-724 "/>
<text text-anchor="middle" x="582.5" y="-712" font-family="Helvetica,sans-Serif" font-size="10.00" fill="#000000"> </text>
</a>
</g>
</g>
<!-- Node6&#45;&gt;Node1 -->
<g id="edge5" class="edge">
<title>Node6&#45;&gt;Node1</title>
<path fill="none" stroke="#404040" d="M622.3074,-704.5849C674.7255,-637.5402 768.5891,-517.4852 839.9337,-426.2328"/>
<polygon fill="none" stroke="#404040" points="840.0296,-426.1102 840.574,-418.9196 847.4208,-416.6566 846.8764,-423.8471 840.0296,-426.1102"/>
<text text-anchor="middle" x="699" y="-640" font-family="Helvetica,sans-Serif" font-size="10.00" fill="#000000"> &#45;changes</text>
</g>
<!-- Node7 -->
<g id="node7" class="node">
<title>Node7</title>
<g id="a_node7"><a xlink:title=" ">
<polygon fill="none" stroke="#bfbfbf" points="664.5,-694 664.5,-817 828.5,-817 828.5,-694 664.5,-694"/>
<text text-anchor="start" x="672.5" y="-805" font-family="Helvetica,sans-Serif" font-size="10.00" fill="#000000">unordered_map&lt; std</text>
<text text-anchor="start" x="672.5" y="-794" font-family="Helvetica,sans-Serif" font-size="10.00" fill="#000000">::reference_wrapper</text>
<text text-anchor="start" x="672.5" y="-783" font-family="Helvetica,sans-Serif" font-size="10.00" fill="#000000">&lt; const MachineType &gt;</text>
<text text-anchor="start" x="672.5" y="-772" font-family="Helvetica,sans-Serif" font-size="10.00" fill="#000000">, std::vector&lt; std::reference</text>
<text text-anchor="start" x="672.5" y="-761" font-family="Helvetica,sans-Serif" font-size="10.00" fill="#000000">_wrapper&lt; const TaskType &gt;</text>
<text text-anchor="start" x="672.5" y="-750" font-family="Helvetica,sans-Serif" font-size="10.00" fill="#000000"> &gt;, std::hash&lt; MachineType &gt;</text>
<text text-anchor="middle" x="746.5" y="-739" font-family="Helvetica,sans-Serif" font-size="10.00" fill="#000000">, std::equal_to&lt; MachineType &gt; &gt;</text>
<polyline fill="none" stroke="#bfbfbf" points="664.5,-732 828.5,-732 "/>
<text text-anchor="middle" x="746.5" y="-720" font-family="Helvetica,sans-Serif" font-size="10.00" fill="#000000"> </text>
<polyline fill="none" stroke="#bfbfbf" points="664.5,-713 828.5,-713 "/>
<text text-anchor="middle" x="746.5" y="-701" font-family="Helvetica,sans-Serif" font-size="10.00" fill="#000000"> </text>
</a>
</g>
</g>
<!-- Node7&#45;&gt;Node1 -->
<g id="edge6" class="edge">
<title>Node7&#45;&gt;Node1</title>
<path fill="none" stroke="#404040" d="M772.3834,-693.6675C790.8617,-649.5248 816.9343,-587.2403 842.8242,-525.3921"/>
<polygon fill="none" stroke="#404040" points="842.8503,-525.3297 841.4774,-518.2505 847.484,-514.2604 848.8569,-521.3397 842.8503,-525.3297"/>
<text text-anchor="middle" x="832.5" y="-640" font-family="Helvetica,sans-Serif" font-size="10.00" fill="#000000"> &#45;machine_order</text>
</g>
<!-- Node8 -->
<g id="node8" class="node">
<title>Node8</title>
<g id="a_node8"><a xlink:title=" ">
<polygon fill="none" stroke="#bfbfbf" points="847,-721.5 847,-789.5 960,-789.5 960,-721.5 847,-721.5"/>
<text text-anchor="start" x="855" y="-777.5" font-family="Helvetica,sans-Serif" font-size="10.00" fill="#000000">reference_wrapper&lt;</text>
<text text-anchor="middle" x="903.5" y="-766.5" font-family="Helvetica,sans-Serif" font-size="10.00" fill="#000000"> const ProblemType &gt;</text>
<polyline fill="none" stroke="#bfbfbf" points="847,-759.5 960,-759.5 "/>
<text text-anchor="middle" x="903.5" y="-747.5" font-family="Helvetica,sans-Serif" font-size="10.00" fill="#000000"> </text>
<polyline fill="none" stroke="#bfbfbf" points="847,-740.5 960,-740.5 "/>
<text text-anchor="middle" x="903.5" y="-728.5" font-family="Helvetica,sans-Serif" font-size="10.00" fill="#000000"> </text>
</a>
</g>
</g>
<!-- Node8&#45;&gt;Node1 -->
<g id="edge7" class="edge">
<title>Node8&#45;&gt;Node1</title>
<path fill="none" stroke="#404040" d="M902.9432,-721.3933C902.7154,-695.2655 902.8221,-658.3325 904.5,-626 904.6076,-623.9275 904.7185,-621.8477 904.8326,-619.7612"/>
<polygon fill="none" stroke="#404040" points="904.8346,-619.7242 901.1843,-613.5053 905.5209,-607.7438 909.1712,-613.9628 904.8346,-619.7242"/>
<text text-anchor="middle" x="925" y="-640" font-family="Helvetica,sans-Serif" font-size="10.00" fill="#000000"> &#45;problem</text>
</g>
<!-- Node9 -->
<g id="node9" class="node">
<title>Node9</title>
<g id="a_node9"><a xlink:title=" ">
<polygon fill="none" stroke="#bfbfbf" points="978,-727 978,-784 1013,-784 1013,-727 978,-727"/>
<text text-anchor="middle" x="995.5" y="-772" font-family="Helvetica,sans-Serif" font-size="10.00" fill="#000000">bool</text>
<polyline fill="none" stroke="#bfbfbf" points="978,-765 1013,-765 "/>
<text text-anchor="middle" x="995.5" y="-753" font-family="Helvetica,sans-Serif" font-size="10.00" fill="#000000"> </text>
<polyline fill="none" stroke="#bfbfbf" points="978,-746 1013,-746 "/>
<text text-anchor="middle" x="995.5" y="-734" font-family="Helvetica,sans-Serif" font-size="10.00" fill="#000000"> </text>
</a>
</g>
</g>
<!-- Node9&#45;&gt;Node1 -->
<g id="edge8" class="edge">
<title>Node9&#45;&gt;Node1</title>
<path fill="none" stroke="#404040" d="M985.967,-726.6824C980.0433,-707.6675 972.7683,-682.0947 968.5,-659 966.1315,-646.1847 963.9294,-633.076 961.8823,-619.809"/>
<polygon fill="none" stroke="#404040" points="961.8286,-619.4512 956.9815,-614.1121 960.0456,-607.5844 964.8927,-612.9234 961.8286,-619.4512"/>
<text text-anchor="start" x="968.5" y="-645.5" font-family="Helvetica,sans-Serif" font-size="10.00" fill="#000000"> &#45;topological_order</text>
<text text-anchor="middle" x="1008.5" y="-634.5" font-family="Helvetica,sans-Serif" font-size="10.00" fill="#000000">_changed</text>
</g>
<!-- Node10 -->
<g id="node10" class="node">
<title>Node10</title>
<g id="a_node10"><a xlink:title=" ">
<polygon fill="none" stroke="#bfbfbf" points="1031,-727 1031,-784 1090,-784 1090,-727 1031,-727"/>
<text text-anchor="middle" x="1060.5" y="-772" font-family="Helvetica,sans-Serif" font-size="10.00" fill="#000000">TimeType</text>
<polyline fill="none" stroke="#bfbfbf" points="1031,-765 1090,-765 "/>
<text text-anchor="middle" x="1060.5" y="-753" font-family="Helvetica,sans-Serif" font-size="10.00" fill="#000000"> </text>
<polyline fill="none" stroke="#bfbfbf" points="1031,-746 1090,-746 "/>
<text text-anchor="middle" x="1060.5" y="-734" font-family="Helvetica,sans-Serif" font-size="10.00" fill="#000000"> </text>
</a>
</g>
</g>
<!-- Node10&#45;&gt;Node1 -->
<g id="edge9" class="edge">
<title>Node10&#45;&gt;Node1</title>
<path fill="none" stroke="#404040" d="M1059.8562,-726.8999C1058.7894,-700.4533 1055.965,-660.192 1048.5,-626 1042.6949,-599.4106 1035.3345,-571.9954 1027.164,-544.9069"/>
<polygon fill="none" stroke="#404040" points="1027.1297,-544.7947 1021.5478,-540.2294 1023.615,-533.321 1029.1969,-537.8863 1027.1297,-544.7947"/>
<text text-anchor="middle" x="1087" y="-651" font-family="Helvetica,sans-Serif" font-size="10.00" fill="#000000"> &#45;makespan</text>
<text text-anchor="start" x="1053.5" y="-640" font-family="Helvetica,sans-Serif" font-size="10.00" fill="#000000">&#45;total_weighted</text>
<text text-anchor="middle" x="1087" y="-629" font-family="Helvetica,sans-Serif" font-size="10.00" fill="#000000">_tardiness</text>
</g>
<!-- Node11 -->
<g id="node11" class="node">
<title>Node11</title>
<g id="a_node11"><a xlink:title=" ">
<polygon fill="none" stroke="#bfbfbf" points="1108,-694 1108,-817 1247,-817 1247,-694 1108,-694"/>
<text text-anchor="start" x="1116" y="-805" font-family="Helvetica,sans-Serif" font-size="10.00" fill="#000000">unordered_map&lt; std</text>
<text text-anchor="start" x="1116" y="-794" font-family="Helvetica,sans-Serif" font-size="10.00" fill="#000000">::reference_wrapper</text>
<text text-anchor="start" x="1116" y="-783" font-family="Helvetica,sans-Serif" font-size="10.00" fill="#000000">&lt; const TaskType &gt;, std</text>
<text text-anchor="start" x="1116" y="-772" font-family="Helvetica,sans-Serif" font-size="10.00" fill="#000000">::reference_wrapper&lt; const</text>
<text text-anchor="start" x="1116" y="-761" font-family="Helvetica,sans-Serif" font-size="10.00" fill="#000000"> MachineType &gt;, std::hash</text>
<text text-anchor="start" x="1116" y="-750" font-family="Helvetica,sans-Serif" font-size="10.00" fill="#000000">&lt; TaskType &gt;, std::equal_to</text>
<text text-anchor="middle" x="1177.5" y="-739" font-family="Helvetica,sans-Serif" font-size="10.00" fill="#000000">&lt; TaskType &gt; &gt;</text>
<polyline fill="none" stroke="#bfbfbf" points="1108,-732 1247,-732 "/>
<text text-anchor="middle" x="1177.5" y="-720" font-family="Helvetica,sans-Serif" font-size="10.00" fill="#000000"> </text>
<polyline fill="none" stroke="#bfbfbf" points="1108,-713 1247,-713 "/>
<text text-anchor="middle" x="1177.5" y="-701" font-family="Helvetica,sans-Serif" font-size="10.00" fill="#000000"> </text>
</a>
</g>
</g>
<!-- Node11&#45;&gt;Node1 -->
<g id="edge10" class="edge">
<title>Node11&#45;&gt;Node1</title>
<path fill="none" stroke="#404040" d="M1154.3175,-693.7694C1145.6165,-672.0491 1135.2226,-647.6627 1124.5,-626 1096.1941,-568.8137 1061.7117,-507.9962 1029.988,-454.7955"/>
<polygon fill="none" stroke="#404040" points="1029.8453,-454.557 1023.3318,-451.4628 1023.6827,-444.2602 1030.1963,-447.3544 1029.8453,-454.557"/>
<text text-anchor="middle" x="1182.5" y="-640" font-family="Helvetica,sans-Serif" font-size="10.00" fill="#000000"> &#45;assigned_machine</text>
</g>
<!-- Node12 -->
<g id="node12" class="node">
<title>Node12</title>
<g id="a_node12"><a xlink:title=" ">
<polygon fill="none" stroke="#bfbfbf" points="1265,-677.5 1265,-833.5 1434,-833.5 1434,-677.5 1265,-677.5"/>
<text text-anchor="start" x="1273" y="-821.5" font-family="Helvetica,sans-Serif" font-size="10.00" fill="#000000">unordered_map&lt; std</text>
<text text-anchor="start" x="1273" y="-810.5" font-family="Helvetica,sans-Serif" font-size="10.00" fill="#000000">::reference_wrapper</text>
<text text-anchor="start" x="1273" y="-799.5" font-family="Helvetica,sans-Serif" font-size="10.00" fill="#000000">&lt; const TaskType &gt;, robin</text>
<text text-anchor="start" x="1273" y="-788.5" font-family="Helvetica,sans-Serif" font-size="10.00" fill="#000000">_hood::unordered_map&lt; std</text>
<text text-anchor="start" x="1273" y="-777.5" font-family="Helvetica,sans-Serif" font-size="10.00" fill="#000000">::reference_wrapper&lt; const</text>
<text text-anchor="start" x="1273" y="-766.5" font-family="Helvetica,sans-Serif" font-size="10.00" fill="#000000"> JobType &gt;, std::optional&lt;</text>
<text text-anchor="start" x="1273" y="-755.5" font-family="Helvetica,sans-Serif" font-size="10.00" fill="#000000"> TimeType &gt;, std::hash&lt; JobType</text>
<text text-anchor="start" x="1273" y="-744.5" font-family="Helvetica,sans-Serif" font-size="10.00" fill="#000000"> &gt;, std::equal_to&lt; JobType &gt; &gt;,</text>
<text text-anchor="start" x="1273" y="-733.5" font-family="Helvetica,sans-Serif" font-size="10.00" fill="#000000"> std::hash&lt; TaskType &gt;, std::equal</text>
<text text-anchor="middle" x="1349.5" y="-722.5" font-family="Helvetica,sans-Serif" font-size="10.00" fill="#000000">_to&lt; TaskType &gt; &gt;</text>
<polyline fill="none" stroke="#bfbfbf" points="1265,-715.5 1434,-715.5 "/>
<text text-anchor="middle" x="1349.5" y="-703.5" font-family="Helvetica,sans-Serif" font-size="10.00" fill="#000000"> </text>
<polyline fill="none" stroke="#bfbfbf" points="1265,-696.5 1434,-696.5 "/>
<text text-anchor="middle" x="1349.5" y="-684.5" font-family="Helvetica,sans-Serif" font-size="10.00" fill="#000000"> </text>
</a>
</g>
</g>
<!-- Node12&#45;&gt;Node1 -->
<g id="edge11" class="edge">
<title>Node12&#45;&gt;Node1</title>
<path fill="none" stroke="#404040" d="M1277.8593,-677.3702C1209.8926,-603.247 1107.256,-491.3137 1032.0847,-409.3333"/>
<polygon fill="none" stroke="#404040" points="1031.6294,-408.8368 1024.6262,-407.1178 1023.5194,-399.9922 1030.5226,-401.7111 1031.6294,-408.8368"/>
<text text-anchor="middle" x="1272" y="-640" font-family="Helvetica,sans-Serif" font-size="10.00" fill="#000000"> &#45;tails</text>
</g>
<!-- Node13 -->
<g id="node13" class="node">
<title>Node13</title>
<g id="a_node13"><a xlink:title=" ">
<polygon fill="none" stroke="#bfbfbf" points="1452,-705 1452,-806 1609,-806 1609,-705 1452,-705"/>
<text text-anchor="start" x="1460" y="-794" font-family="Helvetica,sans-Serif" font-size="10.00" fill="#000000">unordered_map&lt; std</text>
<text text-anchor="start" x="1460" y="-783" font-family="Helvetica,sans-Serif" font-size="10.00" fill="#000000">::reference_wrapper</text>
<text text-anchor="start" x="1460" y="-772" font-family="Helvetica,sans-Serif" font-size="10.00" fill="#000000">&lt; const TaskType &gt;, std</text>
<text text-anchor="start" x="1460" y="-761" font-family="Helvetica,sans-Serif" font-size="10.00" fill="#000000">::size_t, std::hash&lt; TaskType</text>
<text text-anchor="middle" x="1530.5" y="-750" font-family="Helvetica,sans-Serif" font-size="10.00" fill="#000000"> &gt;, std::equal_to&lt; TaskType &gt; &gt;</text>
<polyline fill="none" stroke="#bfbfbf" points="1452,-743 1609,-743 "/>
<text text-anchor="middle" x="1530.5" y="-731" font-family="Helvetica,sans-Serif" font-size="10.00" fill="#000000"> </text>
<polyline fill="none" stroke="#bfbfbf" points="1452,-724 1609,-724 "/>
<text text-anchor="middle" x="1530.5" y="-712" font-family="Helvetica,sans-Serif" font-size="10.00" fill="#000000"> </text>
</a>
</g>
</g>
<!-- Node13&#45;&gt;Node1 -->
<g id="edge12" class="edge">
<title>Node13&#45;&gt;Node1</title>
<path fill="none" stroke="#404040" d="M1476.0055,-704.8118C1465.3899,-695.3734 1454.2244,-685.7385 1443.5,-677 1305.4518,-564.515 1137.6123,-444.2982 1033.6554,-371.6433"/>
<polygon fill="none" stroke="#404040" points="1033.6376,-371.631 1026.4281,-371.4768 1023.7976,-364.7626 1031.0071,-364.9168 1033.6376,-371.631"/>
<text text-anchor="middle" x="1456" y="-651" font-family="Helvetica,sans-Serif" font-size="10.00" fill="#000000"> &#45;job_position</text>
<text text-anchor="middle" x="1456" y="-640" font-family="Helvetica,sans-Serif" font-size="10.00" fill="#000000">&#45;machine_position</text>
<text text-anchor="middle" x="1456" y="-629" font-family="Helvetica,sans-Serif" font-size="10.00" fill="#000000">&#45;global_position</text>
</g>
<!-- Node14 -->
<g id="node14" class="node">
<title>Node14</title>
<g id="a_node14"><a xlink:title=" ">
<polygon fill="none" stroke="#bfbfbf" points="1627,-721.5 1627,-789.5 1774,-789.5 1774,-721.5 1627,-721.5"/>
<text text-anchor="start" x="1635" y="-777.5" font-family="Helvetica,sans-Serif" font-size="10.00" fill="#000000">vector&lt; std::reference</text>
<text text-anchor="middle" x="1700.5" y="-766.5" font-family="Helvetica,sans-Serif" font-size="10.00" fill="#000000">_wrapper&lt; const JobType &gt; &gt;</text>
<polyline fill="none" stroke="#bfbfbf" points="1627,-759.5 1774,-759.5 "/>
<text text-anchor="middle" x="1700.5" y="-747.5" font-family="Helvetica,sans-Serif" font-size="10.00" fill="#000000"> </text>
<polyline fill="none" stroke="#bfbfbf" points="1627,-740.5 1774,-740.5 "/>
<text text-anchor="middle" x="1700.5" y="-728.5" font-family="Helvetica,sans-Serif" font-size="10.00" fill="#000000"> </text>
</a>
</g>
</g>
<!-- Node14&#45;&gt;Node1 -->
<g id="edge13" class="edge">
<title>Node14&#45;&gt;Node1</title>
<path fill="none" stroke="#404040" d="M1668.761,-721.3019C1654.2349,-706.6897 1636.313,-690.0349 1618.5,-677 1425.3547,-535.6634 1172.4736,-411.3267 1035.0109,-348.1387"/>
<polygon fill="none" stroke="#404040" points="1034.6051,-347.9529 1027.4844,-349.0909 1023.6952,-342.9556 1030.8159,-341.8176 1034.6051,-347.9529"/>
<text text-anchor="middle" x="1596" y="-640" font-family="Helvetica,sans-Serif" font-size="10.00" fill="#000000"> &#45;jobs</text>
</g>
<!-- Node15 -->
<g id="node15" class="node">
<title>Node15</title>
<g id="a_node15"><a xlink:title=" ">
<polygon fill="none" stroke="#bfbfbf" points="1792.5,-721.5 1792.5,-789.5 1944.5,-789.5 1944.5,-721.5 1792.5,-721.5"/>
<text text-anchor="start" x="1800.5" y="-777.5" font-family="Helvetica,sans-Serif" font-size="10.00" fill="#000000">vector&lt; std::reference</text>
<text text-anchor="middle" x="1868.5" y="-766.5" font-family="Helvetica,sans-Serif" font-size="10.00" fill="#000000">_wrapper&lt; const TaskType &gt; &gt;</text>
<polyline fill="none" stroke="#bfbfbf" points="1792.5,-759.5 1944.5,-759.5 "/>
<text text-anchor="middle" x="1868.5" y="-747.5" font-family="Helvetica,sans-Serif" font-size="10.00" fill="#000000"> </text>
<polyline fill="none" stroke="#bfbfbf" points="1792.5,-740.5 1944.5,-740.5 "/>
<text text-anchor="middle" x="1868.5" y="-728.5" font-family="Helvetica,sans-Serif" font-size="10.00" fill="#000000"> </text>
</a>
</g>
</g>
<!-- Node15&#45;&gt;Node1 -->
<g id="edge14" class="edge">
<title>Node15&#45;&gt;Node1</title>
<path fill="none" stroke="#404040" d="M1836.7353,-721.4203C1821.6051,-706.4895 1802.6543,-689.55 1783.5,-677 1533.3911,-513.1272 1199.3168,-390.5507 1035.1397,-335.7163"/>
<polygon fill="none" stroke="#404040" points="1035.0034,-335.671 1028.0479,-337.5741 1023.616,-331.8856 1030.5715,-329.9825 1035.0034,-335.671"/>
<text text-anchor="middle" x="1779.5" y="-645.5" font-family="Helvetica,sans-Serif" font-size="10.00" fill="#000000"> &#45;tasks</text>
<text text-anchor="middle" x="1779.5" y="-634.5" font-family="Helvetica,sans-Serif" font-size="10.00" fill="#000000">&#45;processing_order</text>
</g>
</g>
</svg>
