<?xml version="1.0" encoding="UTF-8" standalone="no"?>
<!DOCTYPE svg PUBLIC "-//W3C//DTD SVG 1.1//EN"
 "http://www.w3.org/Graphics/SVG/1.1/DTD/svg11.dtd">
<!-- Generated by graphviz version 2.40.1 (20161225.0304)
 -->
<!-- Title: CEI::GetNeighbors Pages: 1 -->
<svg width="412pt" height="66pt"
 viewBox="0.00 0.00 412.00 66.00" xmlns="http://www.w3.org/2000/svg" xmlns:xlink="http://www.w3.org/1999/xlink">
<g id="graph0" class="graph" transform="scale(1 1) rotate(0) translate(4 62)">
<title>CEI::GetNeighbors</title>
<!-- Node3 -->
<g id="node1" class="node">
<title>Node3</title>
<g id="a_node1"><a xlink:title="Inserts in a container the CEI neighbors of a solution.">
<polygon fill="#bfbfbf" stroke="#000000" points="0,-19.5 0,-38.5 100,-38.5 100,-19.5 0,-19.5"/>
<text text-anchor="middle" x="50" y="-26.5" font-family="Helvetica,sans-Serif" font-size="10.00" fill="#000000">CEI::GetNeighbors</text>
</a>
</g>
</g>
<!-- Node4 -->
<g id="node2" class="node">
<title>Node4</title>
<g id="a_node2"><a xlink:href="classCEI.html#aa4f494d0e4600c1a7b1ee95ce4807e7b" target="_top" xlink:title="Calculates the CEI neighbors of a solution from the given critical blocks.">
<polygon fill="none" stroke="#000000" points="136,-19.5 136,-38.5 261,-38.5 261,-19.5 136,-19.5"/>
<text text-anchor="middle" x="198.5" y="-26.5" font-family="Helvetica,sans-Serif" font-size="10.00" fill="#000000">CEI::CalculateNeighbors</text>
</a>
</g>
</g>
<!-- Node3&#45;&gt;Node4 -->
<g id="edge1" class="edge">
<title>Node3&#45;&gt;Node4</title>
<path fill="none" stroke="#191970" d="M100.2753,-29C108.5003,-29 117.1649,-29 125.8015,-29"/>
<polygon fill="#191970" stroke="#191970" points="125.8993,-32.5001 135.8992,-29 125.8992,-25.5001 125.8993,-32.5001"/>
</g>
<!-- Node5 -->
<g id="node3" class="node">
<title>Node5</title>
<g id="a_node3"><a xlink:href="classCEI.html#a21d6674d615d870ea266f8a61a8d16ce" target="_top" xlink:title="Returns the quality that results of changing the order of a group of tasks in the same machine.">
<polygon fill="none" stroke="#000000" points="307.5,-38.5 307.5,-57.5 393.5,-57.5 393.5,-38.5 307.5,-38.5"/>
<text text-anchor="middle" x="350.5" y="-45.5" font-family="Helvetica,sans-Serif" font-size="10.00" fill="#000000">CEI::GetQuality</text>
</a>
</g>
</g>
<!-- Node4&#45;&gt;Node5 -->
<g id="edge2" class="edge">
<title>Node4&#45;&gt;Node5</title>
<path fill="none" stroke="#191970" d="M261.2018,-36.8377C273.2193,-38.3399 285.6946,-39.8993 297.375,-41.3594"/>
<polygon fill="#191970" stroke="#191970" points="297.0465,-44.8455 307.4034,-42.6129 297.9148,-37.8995 297.0465,-44.8455"/>
</g>
<!-- Node6 -->
<g id="node4" class="node">
<title>Node6</title>
<g id="a_node4"><a xlink:href="classCEI.html#a7951900f000c94f7794f86cfaf8336d3" target="_top" xlink:title="Checks if the solution uses estimates.">
<polygon fill="none" stroke="#000000" points="297,-.5 297,-19.5 404,-19.5 404,-.5 297,-.5"/>
<text text-anchor="middle" x="350.5" y="-7.5" font-family="Helvetica,sans-Serif" font-size="10.00" fill="#000000">CEI::UsesEstimates</text>
</a>
</g>
</g>
<!-- Node4&#45;&gt;Node6 -->
<g id="edge3" class="edge">
<title>Node4&#45;&gt;Node6</title>
<path fill="none" stroke="#191970" d="M261.2018,-21.1623C269.5738,-20.1158 278.1679,-19.0415 286.5608,-17.9924"/>
<polygon fill="#191970" stroke="#191970" points="287.1812,-21.4422 296.6698,-16.7288 286.3129,-14.4962 287.1812,-21.4422"/>
</g>
</g>
</svg>
