<?xml version="1.0" encoding="UTF-8" standalone="no"?>
<!DOCTYPE svg PUBLIC "-//W3C//DTD SVG 1.1//EN"
 "http://www.w3.org/Graphics/SVG/1.1/DTD/svg11.dtd">
<!-- Generated by graphviz version 2.40.1 (20161225.0304)
 -->
<!-- Title: JSPRegularMeasuresMinimizationSolution::GetSuccessors Pages: 1 -->
<svg width="378pt" height="88pt"
 viewBox="0.00 0.00 378.00 88.00" xmlns="http://www.w3.org/2000/svg" xmlns:xlink="http://www.w3.org/1999/xlink">
<g id="graph0" class="graph" transform="scale(1 1) rotate(0) translate(4 84)">
<title>JSPRegularMeasuresMinimizationSolution::GetSuccessors</title>
<!-- Node202 -->
<g id="node1" class="node">
<title>Node202</title>
<g id="a_node1"><a xlink:title="Returns a pair with the tasks that are scheduled after the specified task. The first component is the...">
<polygon fill="#bfbfbf" stroke="#000000" points="0,-24.5 0,-54.5 167,-54.5 167,-24.5 0,-24.5"/>
<text text-anchor="start" x="8" y="-42.5" font-family="Helvetica,sans-Serif" font-size="10.00" fill="#000000">JSPRegularMeasuresMinimization</text>
<text text-anchor="middle" x="83.5" y="-31.5" font-family="Helvetica,sans-Serif" font-size="10.00" fill="#000000">Solution::GetSuccessors</text>
</a>
</g>
</g>
<!-- Node203 -->
<g id="node2" class="node">
<title>Node203</title>
<g id="a_node2"><a xlink:href="classJSPRegularMeasuresMinimizationSolution.html#ae612f3de108af3cef5ee97d145ce8d5b" target="_top" xlink:title="Returns the task that is scheduled after in the same job as the specified task.">
<polygon fill="none" stroke="#000000" points="203,-49.5 203,-79.5 370,-79.5 370,-49.5 203,-49.5"/>
<text text-anchor="start" x="211" y="-67.5" font-family="Helvetica,sans-Serif" font-size="10.00" fill="#000000">JSPRegularMeasuresMinimization</text>
<text text-anchor="middle" x="286.5" y="-56.5" font-family="Helvetica,sans-Serif" font-size="10.00" fill="#000000">Solution::GetJobSuccessor</text>
</a>
</g>
</g>
<!-- Node202&#45;&gt;Node203 -->
<g id="edge1" class="edge">
<title>Node202&#45;&gt;Node203</title>
<path fill="none" stroke="#191970" d="M167.2399,-49.8128C175.7178,-50.8569 184.3663,-51.922 192.9388,-52.9777"/>
<polygon fill="#191970" stroke="#191970" points="192.5997,-56.4623 202.9526,-54.2109 193.4554,-49.5148 192.5997,-56.4623"/>
</g>
<!-- Node204 -->
<g id="node3" class="node">
<title>Node204</title>
<g id="a_node3"><a xlink:href="classJSPRegularMeasuresMinimizationSolution.html#a3eb8777ca4b47476c5d1a42ea6be899f" target="_top" xlink:title="Returns the task that is scheduled after in the same machine as the specified task.">
<polygon fill="none" stroke="#000000" points="203,-.5 203,-30.5 370,-30.5 370,-.5 203,-.5"/>
<text text-anchor="start" x="211" y="-18.5" font-family="Helvetica,sans-Serif" font-size="10.00" fill="#000000">JSPRegularMeasuresMinimization</text>
<text text-anchor="middle" x="286.5" y="-7.5" font-family="Helvetica,sans-Serif" font-size="10.00" fill="#000000">Solution::GetMachineSuccessor</text>
</a>
</g>
</g>
<!-- Node202&#45;&gt;Node204 -->
<g id="edge2" class="edge">
<title>Node202&#45;&gt;Node204</title>
<path fill="none" stroke="#191970" d="M167.2399,-29.5997C175.7178,-28.5974 184.3663,-27.5749 192.9388,-26.5614"/>
<polygon fill="#191970" stroke="#191970" points="193.4327,-30.0275 202.9526,-25.3775 192.6108,-23.0759 193.4327,-30.0275"/>
</g>
</g>
</svg>
