<?xml version="1.0" encoding="UTF-8" standalone="no"?>
<!DOCTYPE svg PUBLIC "-//W3C//DTD SVG 1.1//EN"
 "http://www.w3.org/Graphics/SVG/1.1/DTD/svg11.dtd">
<!-- Generated by graphviz version 2.40.1 (20161225.0304)
 -->
<!-- Title: JSPCriticalBlock&lt; Problem &gt; Pages: 1 -->
<svg width="224pt" height="259pt"
 viewBox="0.00 0.00 223.50 259.00" xmlns="http://www.w3.org/2000/svg" xmlns:xlink="http://www.w3.org/1999/xlink">
<g id="graph0" class="graph" transform="scale(1 1) rotate(0) translate(4 255)">
<title>JSPCriticalBlock&lt; Problem &gt;</title>
<!-- Node1 -->
<g id="node1" class="node">
<title>Node1</title>
<g id="a_node1"><a xlink:title="JSP critical block.">
<polygon fill="#bfbfbf" stroke="#000000" points="8,-.5 8,-134.5 153,-134.5 153,-.5 8,-.5"/>
<text text-anchor="middle" x="80.5" y="-122.5" font-family="Helvetica,sans-Serif" font-size="10.00" fill="#000000">JSPCriticalBlock&lt; Problem &gt;</text>
<polyline fill="none" stroke="#000000" points="8,-115.5 153,-115.5 "/>
<text text-anchor="middle" x="80.5" y="-103.5" font-family="Helvetica,sans-Serif" font-size="10.00" fill="#000000"> </text>
<polyline fill="none" stroke="#000000" points="8,-96.5 153,-96.5 "/>
<text text-anchor="start" x="16" y="-84.5" font-family="Helvetica,sans-Serif" font-size="10.00" fill="#000000">+ JSPCriticalBlock()</text>
<text text-anchor="start" x="16" y="-73.5" font-family="Helvetica,sans-Serif" font-size="10.00" fill="#000000">+ InsertTask()</text>
<text text-anchor="start" x="16" y="-62.5" font-family="Helvetica,sans-Serif" font-size="10.00" fill="#000000">+ Empty()</text>
<text text-anchor="start" x="16" y="-51.5" font-family="Helvetica,sans-Serif" font-size="10.00" fill="#000000">+ GetNumberOfTasks()</text>
<text text-anchor="start" x="16" y="-40.5" font-family="Helvetica,sans-Serif" font-size="10.00" fill="#000000">+ GetWeight()</text>
<text text-anchor="start" x="16" y="-29.5" font-family="Helvetica,sans-Serif" font-size="10.00" fill="#000000">+ GetTasks()</text>
<text text-anchor="start" x="16" y="-18.5" font-family="Helvetica,sans-Serif" font-size="10.00" fill="#000000">+ operator==()</text>
<text text-anchor="start" x="16" y="-7.5" font-family="Helvetica,sans-Serif" font-size="10.00" fill="#000000">+ operator!=()</text>
</a>
</g>
</g>
<!-- Node2 -->
<g id="node2" class="node">
<title>Node2</title>
<g id="a_node2"><a xlink:title=" ">
<polygon fill="none" stroke="#bfbfbf" points="0,-188 0,-245 45,-245 45,-188 0,-188"/>
<text text-anchor="middle" x="22.5" y="-233" font-family="Helvetica,sans-Serif" font-size="10.00" fill="#000000">double</text>
<polyline fill="none" stroke="#bfbfbf" points="0,-226 45,-226 "/>
<text text-anchor="middle" x="22.5" y="-214" font-family="Helvetica,sans-Serif" font-size="10.00" fill="#000000"> </text>
<polyline fill="none" stroke="#bfbfbf" points="0,-207 45,-207 "/>
<text text-anchor="middle" x="22.5" y="-195" font-family="Helvetica,sans-Serif" font-size="10.00" fill="#000000"> </text>
</a>
</g>
</g>
<!-- Node2&#45;&gt;Node1 -->
<g id="edge1" class="edge">
<title>Node2&#45;&gt;Node1</title>
<path fill="none" stroke="#404040" d="M33.683,-187.7713C38.3785,-175.7088 44.0914,-161.0325 49.8904,-146.1351"/>
<polygon fill="none" stroke="#404040" points="49.9732,-145.9221 48.4222,-138.8797 54.3263,-134.7394 55.8773,-141.7818 49.9732,-145.9221"/>
<text text-anchor="middle" x="64" y="-156" font-family="Helvetica,sans-Serif" font-size="10.00" fill="#000000"> &#45;weight</text>
</g>
<!-- Node3 -->
<g id="node3" class="node">
<title>Node3</title>
<g id="a_node3"><a xlink:title=" ">
<polygon fill="none" stroke="#bfbfbf" points="63.5,-182.5 63.5,-250.5 215.5,-250.5 215.5,-182.5 63.5,-182.5"/>
<text text-anchor="start" x="71.5" y="-238.5" font-family="Helvetica,sans-Serif" font-size="10.00" fill="#000000">list&lt; std::reference</text>
<text text-anchor="middle" x="139.5" y="-227.5" font-family="Helvetica,sans-Serif" font-size="10.00" fill="#000000">_wrapper&lt; const TaskType &gt; &gt;</text>
<polyline fill="none" stroke="#bfbfbf" points="63.5,-220.5 215.5,-220.5 "/>
<text text-anchor="middle" x="139.5" y="-208.5" font-family="Helvetica,sans-Serif" font-size="10.00" fill="#000000"> </text>
<polyline fill="none" stroke="#bfbfbf" points="63.5,-201.5 215.5,-201.5 "/>
<text text-anchor="middle" x="139.5" y="-189.5" font-family="Helvetica,sans-Serif" font-size="10.00" fill="#000000"> </text>
</a>
</g>
</g>
<!-- Node3&#45;&gt;Node1 -->
<g id="edge2" class="edge">
<title>Node3&#45;&gt;Node1</title>
<path fill="none" stroke="#404040" d="M125.9642,-182.3164C121.6225,-171.3518 116.6207,-158.72 111.5574,-145.9332"/>
<polygon fill="none" stroke="#404040" points="111.5252,-145.8516 105.5971,-141.7457 107.1072,-134.6944 113.0352,-138.8003 111.5252,-145.8516"/>
<text text-anchor="middle" x="132" y="-156" font-family="Helvetica,sans-Serif" font-size="10.00" fill="#000000"> &#45;tasks</text>
</g>
</g>
</svg>
