<?xml version="1.0" encoding="UTF-8" standalone="no"?>
<!DOCTYPE svg PUBLIC "-//W3C//DTD SVG 1.1//EN"
 "http://www.w3.org/Graphics/SVG/1.1/DTD/svg11.dtd">
<!-- Generated by graphviz version 2.40.1 (20161225.0304)
 -->
<!-- Title: JSPRegularMeasuresMinimizationSolution::ToString Pages: 1 -->
<svg width="1228pt" height="333pt"
 viewBox="0.00 0.00 1228.00 333.00" xmlns="http://www.w3.org/2000/svg" xmlns:xlink="http://www.w3.org/1999/xlink">
<g id="graph0" class="graph" transform="scale(1 1) rotate(0) translate(4 329)">
<title>JSPRegularMeasuresMinimizationSolution::ToString</title>
<!-- Node350 -->
<g id="node1" class="node">
<title>Node350</title>
<g id="a_node1"><a xlink:title="Returns a string representing the solution.">
<polygon fill="#bfbfbf" stroke="#000000" points="0,-201.5 0,-231.5 167,-231.5 167,-201.5 0,-201.5"/>
<text text-anchor="start" x="8" y="-219.5" font-family="Helvetica,sans-Serif" font-size="10.00" fill="#000000">JSPRegularMeasuresMinimization</text>
<text text-anchor="middle" x="83.5" y="-208.5" font-family="Helvetica,sans-Serif" font-size="10.00" fill="#000000">Solution::ToString</text>
</a>
</g>
</g>
<!-- Node351 -->
<g id="node2" class="node">
<title>Node351</title>
<g id="a_node2"><a xlink:href="classJSPRegularMeasuresMinimizationSolution.html#a9c4ac2dd097f536fa54e147781a9d1c0" target="_top" xlink:title="Returns the makespan.">
<polygon fill="none" stroke="#000000" points="208.5,-201.5 208.5,-231.5 375.5,-231.5 375.5,-201.5 208.5,-201.5"/>
<text text-anchor="start" x="216.5" y="-219.5" font-family="Helvetica,sans-Serif" font-size="10.00" fill="#000000">JSPRegularMeasuresMinimization</text>
<text text-anchor="middle" x="292" y="-208.5" font-family="Helvetica,sans-Serif" font-size="10.00" fill="#000000">Solution::GetMakespan</text>
</a>
</g>
</g>
<!-- Node350&#45;&gt;Node351 -->
<g id="edge1" class="edge">
<title>Node350&#45;&gt;Node351</title>
<path fill="none" stroke="#191970" d="M167.1036,-216.5C177.3,-216.5 187.7709,-216.5 198.1048,-216.5"/>
<polygon fill="#191970" stroke="#191970" points="198.3777,-220.0001 208.3777,-216.5 198.3777,-213.0001 198.3777,-220.0001"/>
</g>
<!-- Node370 -->
<g id="node21" class="node">
<title>Node370</title>
<g id="a_node21"><a xlink:href="classJSPRegularMeasuresMinimizationSolution.html#a62b3b6901382c29f103ac757949a89d1" target="_top" xlink:title="Returns a string with the solution.">
<polygon fill="none" stroke="#000000" points="417,-281.5 417,-311.5 584,-311.5 584,-281.5 417,-281.5"/>
<text text-anchor="start" x="425" y="-299.5" font-family="Helvetica,sans-Serif" font-size="10.00" fill="#000000">JSPRegularMeasuresMinimization</text>
<text text-anchor="middle" x="500.5" y="-288.5" font-family="Helvetica,sans-Serif" font-size="10.00" fill="#000000">Solution::SolutionSequence</text>
</a>
</g>
</g>
<!-- Node350&#45;&gt;Node370 -->
<g id="edge29" class="edge">
<title>Node350&#45;&gt;Node370</title>
<path fill="none" stroke="#191970" d="M153.8998,-231.5141C170.0191,-234.8723 187.0911,-238.3658 203,-241.5 271.0802,-254.9126 348.1204,-269.1288 406.7432,-279.7474"/>
<polygon fill="#191970" stroke="#191970" points="406.2639,-283.2174 416.7272,-281.5533 407.5099,-276.3292 406.2639,-283.2174"/>
</g>
<!-- Node371 -->
<g id="node22" class="node">
<title>Node371</title>
<g id="a_node22"><a xlink:href="classJSPRegularMeasuresMinimizationSolution.html#ad06ced64f0f5c9aacb1411e3493b88c3" target="_top" xlink:title="Returns the total weighted tardiness.">
<polygon fill="none" stroke="#000000" points="203,-152.5 203,-182.5 381,-182.5 381,-152.5 203,-152.5"/>
<text text-anchor="start" x="211" y="-170.5" font-family="Helvetica,sans-Serif" font-size="10.00" fill="#000000">JSPRegularMeasuresMinimization</text>
<text text-anchor="middle" x="292" y="-159.5" font-family="Helvetica,sans-Serif" font-size="10.00" fill="#000000">Solution::GetTotalWeightedTardiness</text>
</a>
</g>
</g>
<!-- Node350&#45;&gt;Node371 -->
<g id="edge31" class="edge">
<title>Node350&#45;&gt;Node371</title>
<path fill="none" stroke="#191970" d="M147.4738,-201.4654C169.8888,-196.1976 195.2392,-190.2399 218.38,-184.8016"/>
<polygon fill="#191970" stroke="#191970" points="219.2131,-188.2012 228.1471,-182.5062 217.6116,-181.3869 219.2131,-188.2012"/>
</g>
<!-- Node352 -->
<g id="node3" class="node">
<title>Node352</title>
<g id="a_node3"><a xlink:href="classJSPRegularMeasuresMinimizationSolution.html#ae4b0b16a9433b4a30a29b05476217dcd" target="_top" xlink:title="Updates the lazy values.">
<polygon fill="none" stroke="#000000" points="417,-152.5 417,-182.5 584,-182.5 584,-152.5 417,-152.5"/>
<text text-anchor="start" x="425" y="-170.5" font-family="Helvetica,sans-Serif" font-size="10.00" fill="#000000">JSPRegularMeasuresMinimization</text>
<text text-anchor="middle" x="500.5" y="-159.5" font-family="Helvetica,sans-Serif" font-size="10.00" fill="#000000">Solution::Update</text>
</a>
</g>
</g>
<!-- Node351&#45;&gt;Node352 -->
<g id="edge2" class="edge">
<title>Node351&#45;&gt;Node352</title>
<path fill="none" stroke="#191970" d="M355.9738,-201.4654C378.3888,-196.1976 403.7392,-190.2399 426.88,-184.8016"/>
<polygon fill="#191970" stroke="#191970" points="427.7131,-188.2012 436.6471,-182.5062 426.1116,-181.3869 427.7131,-188.2012"/>
</g>
<!-- Node353 -->
<g id="node4" class="node">
<title>Node353</title>
<g id="a_node4"><a xlink:href="classJSPRegularMeasuresMinimizationSolution.html#a77f966c0ff4fc1550f56dee7f8ab7286" target="_top" xlink:title="Updates the processing order.">
<polygon fill="none" stroke="#000000" points="633.5,-250.5 633.5,-280.5 800.5,-280.5 800.5,-250.5 633.5,-250.5"/>
<text text-anchor="start" x="641.5" y="-268.5" font-family="Helvetica,sans-Serif" font-size="10.00" fill="#000000">JSPRegularMeasuresMinimization</text>
<text text-anchor="middle" x="717" y="-257.5" font-family="Helvetica,sans-Serif" font-size="10.00" fill="#000000">Solution::UpdateTopologicalOrder</text>
</a>
</g>
</g>
<!-- Node352&#45;&gt;Node353 -->
<g id="edge3" class="edge">
<title>Node352&#45;&gt;Node353</title>
<path fill="none" stroke="#191970" d="M520.5814,-182.6792C543.5034,-199.333 582.6663,-225.7815 620,-241.5 624.9965,-243.6037 630.2185,-245.5514 635.5366,-247.3498"/>
<polygon fill="#191970" stroke="#191970" points="634.5942,-250.7229 645.185,-250.4274 636.7215,-244.0539 634.5942,-250.7229"/>
</g>
<!-- Node361 -->
<g id="node12" class="node">
<title>Node361</title>
<g id="a_node12"><a xlink:href="classJSPRegularMeasuresMinimizationSolution.html#abf2cbb26e6e8f17b1b53c1e9c01bdf0c" target="_top" xlink:title="Updates the head of all the tasks that have been affected by modifications since the last call.">
<polygon fill="none" stroke="#000000" points="633.5,-201.5 633.5,-231.5 800.5,-231.5 800.5,-201.5 633.5,-201.5"/>
<text text-anchor="start" x="641.5" y="-219.5" font-family="Helvetica,sans-Serif" font-size="10.00" fill="#000000">JSPRegularMeasuresMinimization</text>
<text text-anchor="middle" x="717" y="-208.5" font-family="Helvetica,sans-Serif" font-size="10.00" fill="#000000">Solution::UpdateHeads</text>
</a>
</g>
</g>
<!-- Node352&#45;&gt;Node361 -->
<g id="edge11" class="edge">
<title>Node352&#45;&gt;Node361</title>
<path fill="none" stroke="#191970" d="M566.9285,-182.5346C590.3074,-187.8259 616.7617,-193.8133 640.8769,-199.2712"/>
<polygon fill="#191970" stroke="#191970" points="640.1712,-202.7 650.6972,-201.4938 641.7165,-195.8726 640.1712,-202.7"/>
</g>
<!-- Node362 -->
<g id="node13" class="node">
<title>Node362</title>
<g id="a_node13"><a xlink:href="namespacestd.html#aabf08e25820a0127a265bb20575664b9" target="_top" xlink:title=" ">
<polygon fill="none" stroke="#000000" points="906,-62 906,-81 961,-81 961,-62 906,-62"/>
<text text-anchor="middle" x="933.5" y="-69" font-family="Helvetica,sans-Serif" font-size="10.00" fill="#000000">std::max</text>
</a>
</g>
</g>
<!-- Node352&#45;&gt;Node362 -->
<g id="edge28" class="edge">
<title>Node352&#45;&gt;Node362</title>
<path fill="none" stroke="#191970" d="M509.2994,-152.4543C526.4547,-124.8156 567.3468,-66.7561 620,-44.5 714.8947,-4.3887 840.1107,-38.0285 899.4749,-58.5259"/>
<polygon fill="#191970" stroke="#191970" points="898.5033,-61.8947 909.098,-61.9345 900.8405,-55.2964 898.5033,-61.8947"/>
</g>
<!-- Node367 -->
<g id="node18" class="node">
<title>Node367</title>
<g id="a_node18"><a xlink:href="classJSPRegularMeasuresMinimizationSolution.html#a5828c62c0001c9ee6bda0a5329bb128b" target="_top" xlink:title="Updates the tails of all the tasks that have been affected by modifications since the last call.">
<polygon fill="none" stroke="#000000" points="633.5,-152.5 633.5,-182.5 800.5,-182.5 800.5,-152.5 633.5,-152.5"/>
<text text-anchor="start" x="641.5" y="-170.5" font-family="Helvetica,sans-Serif" font-size="10.00" fill="#000000">JSPRegularMeasuresMinimization</text>
<text text-anchor="middle" x="717" y="-159.5" font-family="Helvetica,sans-Serif" font-size="10.00" fill="#000000">Solution::UpdateTails</text>
</a>
</g>
</g>
<!-- Node352&#45;&gt;Node367 -->
<g id="edge18" class="edge">
<title>Node352&#45;&gt;Node367</title>
<path fill="none" stroke="#191970" d="M584.2046,-167.5C596.8798,-167.5 610.029,-167.5 622.9063,-167.5"/>
<polygon fill="#191970" stroke="#191970" points="623.1611,-171.0001 633.1611,-167.5 623.1611,-164.0001 623.1611,-171.0001"/>
</g>
<!-- Node368 -->
<g id="node19" class="node">
<title>Node368</title>
<g id="a_node19"><a xlink:href="classJSPRegularMeasuresMinimizationSolution.html#accdae639eff823a62df12301d901b60a" target="_top" xlink:title="Updates the makespan.">
<polygon fill="none" stroke="#000000" points="633.5,-54.5 633.5,-84.5 800.5,-84.5 800.5,-54.5 633.5,-54.5"/>
<text text-anchor="start" x="641.5" y="-72.5" font-family="Helvetica,sans-Serif" font-size="10.00" fill="#000000">JSPRegularMeasuresMinimization</text>
<text text-anchor="middle" x="717" y="-61.5" font-family="Helvetica,sans-Serif" font-size="10.00" fill="#000000">Solution::UpdateMakespan</text>
</a>
</g>
</g>
<!-- Node352&#45;&gt;Node368 -->
<g id="edge22" class="edge">
<title>Node352&#45;&gt;Node368</title>
<path fill="none" stroke="#191970" d="M520.5814,-152.3208C543.5034,-135.667 582.6663,-109.2185 620,-93.5 624.9965,-91.3963 630.2185,-89.4486 635.5366,-87.6502"/>
<polygon fill="#191970" stroke="#191970" points="636.7215,-90.9461 645.185,-84.5726 634.5942,-84.2771 636.7215,-90.9461"/>
</g>
<!-- Node369 -->
<g id="node20" class="node">
<title>Node369</title>
<g id="a_node20"><a xlink:href="classJSPRegularMeasuresMinimizationSolution.html#aacc67d30509b9d88017c78042c806dc8" target="_top" xlink:title="Updates the total weighted tardiness.">
<polygon fill="none" stroke="#000000" points="620,-103.5 620,-133.5 814,-133.5 814,-103.5 620,-103.5"/>
<text text-anchor="start" x="628" y="-121.5" font-family="Helvetica,sans-Serif" font-size="10.00" fill="#000000">JSPRegularMeasuresMinimization</text>
<text text-anchor="middle" x="717" y="-110.5" font-family="Helvetica,sans-Serif" font-size="10.00" fill="#000000">Solution::UpdateTotalWeightedTardiness</text>
</a>
</g>
</g>
<!-- Node352&#45;&gt;Node369 -->
<g id="edge25" class="edge">
<title>Node352&#45;&gt;Node369</title>
<path fill="none" stroke="#191970" d="M566.9285,-152.4654C590.3074,-147.1741 616.7617,-141.1867 640.8769,-135.7288"/>
<polygon fill="#191970" stroke="#191970" points="641.7165,-139.1274 650.6972,-133.5062 640.1712,-132.3 641.7165,-139.1274"/>
</g>
<!-- Node354 -->
<g id="node5" class="node">
<title>Node354</title>
<g id="a_node5"><a xlink:href="classJSPRegularMeasuresMinimizationSolution.html#a51f6a34786a8ae5f700c47d690f744b5" target="_top" xlink:title="Returns a pair with the tasks that are scheduled before the specified task. The first component is th...">
<polygon fill="none" stroke="#000000" points="850,-245.5 850,-275.5 1017,-275.5 1017,-245.5 850,-245.5"/>
<text text-anchor="start" x="858" y="-263.5" font-family="Helvetica,sans-Serif" font-size="10.00" fill="#000000">JSPRegularMeasuresMinimization</text>
<text text-anchor="middle" x="933.5" y="-252.5" font-family="Helvetica,sans-Serif" font-size="10.00" fill="#000000">Solution::GetPredecessors</text>
</a>
</g>
</g>
<!-- Node353&#45;&gt;Node354 -->
<g id="edge4" class="edge">
<title>Node353&#45;&gt;Node354</title>
<path fill="none" stroke="#191970" d="M800.7046,-263.5669C813.3798,-263.2741 826.529,-262.9705 839.4063,-262.6731"/>
<polygon fill="#191970" stroke="#191970" points="839.7446,-266.1663 849.6611,-262.4362 839.5829,-259.1681 839.7446,-266.1663"/>
</g>
<!-- Node357 -->
<g id="node8" class="node">
<title>Node357</title>
<g id="a_node8"><a xlink:href="classJSPRegularMeasuresMinimizationSolution.html#aec812c82dab9616ab5192fc58bd247cc" target="_top" xlink:title="Returns a pair with the tasks that are scheduled after the specified task. The first component is the...">
<polygon fill="none" stroke="#000000" points="850,-185.5 850,-215.5 1017,-215.5 1017,-185.5 850,-185.5"/>
<text text-anchor="start" x="858" y="-203.5" font-family="Helvetica,sans-Serif" font-size="10.00" fill="#000000">JSPRegularMeasuresMinimization</text>
<text text-anchor="middle" x="933.5" y="-192.5" font-family="Helvetica,sans-Serif" font-size="10.00" fill="#000000">Solution::GetSuccessors</text>
</a>
</g>
</g>
<!-- Node353&#45;&gt;Node357 -->
<g id="edge7" class="edge">
<title>Node353&#45;&gt;Node357</title>
<path fill="none" stroke="#191970" d="M781.1317,-250.4787C792.1402,-247.659 803.4331,-244.6134 814,-241.5 836.8976,-234.7535 861.9239,-226.3332 883.1307,-218.8816"/>
<polygon fill="#191970" stroke="#191970" points="884.3251,-222.1717 892.5842,-215.5355 881.9894,-215.5728 884.3251,-222.1717"/>
</g>
<!-- Node360 -->
<g id="node11" class="node">
<title>Node360</title>
<g id="a_node11"><a xlink:href="classJSPRegularMeasuresMinimizationSolution.html#a35c863463c1b01f650901bb770c4592a" target="_top" xlink:title="Returns the problem that the solution solves.">
<polygon fill="none" stroke="#000000" points="850,-294.5 850,-324.5 1017,-324.5 1017,-294.5 850,-294.5"/>
<text text-anchor="start" x="858" y="-312.5" font-family="Helvetica,sans-Serif" font-size="10.00" fill="#000000">JSPRegularMeasuresMinimization</text>
<text text-anchor="middle" x="933.5" y="-301.5" font-family="Helvetica,sans-Serif" font-size="10.00" fill="#000000">Solution::GetProblem</text>
</a>
</g>
</g>
<!-- Node353&#45;&gt;Node360 -->
<g id="edge10" class="edge">
<title>Node353&#45;&gt;Node360</title>
<path fill="none" stroke="#191970" d="M790.9015,-280.5192C809.7823,-284.3564 830.2183,-288.5097 849.5622,-292.4411"/>
<polygon fill="#191970" stroke="#191970" points="849.0675,-295.912 859.5642,-294.4738 850.4617,-289.0522 849.0675,-295.912"/>
</g>
<!-- Node355 -->
<g id="node6" class="node">
<title>Node355</title>
<g id="a_node6"><a xlink:href="classJSPRegularMeasuresMinimizationSolution.html#a1fd5430443df7d418f0212ce7a4f8209" target="_top" xlink:title="Returns the task that is scheduled before in the same job as the specified task.">
<polygon fill="none" stroke="#000000" points="1053,-294.5 1053,-324.5 1220,-324.5 1220,-294.5 1053,-294.5"/>
<text text-anchor="start" x="1061" y="-312.5" font-family="Helvetica,sans-Serif" font-size="10.00" fill="#000000">JSPRegularMeasuresMinimization</text>
<text text-anchor="middle" x="1136.5" y="-301.5" font-family="Helvetica,sans-Serif" font-size="10.00" fill="#000000">Solution::GetJobPredecessor</text>
</a>
</g>
</g>
<!-- Node354&#45;&gt;Node355 -->
<g id="edge5" class="edge">
<title>Node354&#45;&gt;Node355</title>
<path fill="none" stroke="#191970" d="M995.7863,-275.5346C1017.5125,-280.7789 1042.0714,-286.7069 1064.5201,-292.1255"/>
<polygon fill="#191970" stroke="#191970" points="1063.7894,-295.5496 1074.3315,-294.4938 1065.432,-288.745 1063.7894,-295.5496"/>
</g>
<!-- Node356 -->
<g id="node7" class="node">
<title>Node356</title>
<g id="a_node7"><a xlink:href="classJSPRegularMeasuresMinimizationSolution.html#ab14c655132dd8b26f1b0b79ea3276e46" target="_top" xlink:title="Returns the task that is scheduled before in the same machine as the specified task.">
<polygon fill="none" stroke="#000000" points="1053,-245.5 1053,-275.5 1220,-275.5 1220,-245.5 1053,-245.5"/>
<text text-anchor="start" x="1061" y="-263.5" font-family="Helvetica,sans-Serif" font-size="10.00" fill="#000000">JSPRegularMeasuresMinimization</text>
<text text-anchor="middle" x="1136.5" y="-252.5" font-family="Helvetica,sans-Serif" font-size="10.00" fill="#000000">Solution::GetMachinePredecessor</text>
</a>
</g>
</g>
<!-- Node354&#45;&gt;Node356 -->
<g id="edge6" class="edge">
<title>Node354&#45;&gt;Node356</title>
<path fill="none" stroke="#191970" d="M1017.2399,-260.5C1025.7178,-260.5 1034.3663,-260.5 1042.9388,-260.5"/>
<polygon fill="#191970" stroke="#191970" points="1042.9526,-264.0001 1052.9526,-260.5 1042.9525,-257.0001 1042.9526,-264.0001"/>
</g>
<!-- Node358 -->
<g id="node9" class="node">
<title>Node358</title>
<g id="a_node9"><a xlink:href="classJSPRegularMeasuresMinimizationSolution.html#ae612f3de108af3cef5ee97d145ce8d5b" target="_top" xlink:title="Returns the task that is scheduled after in the same job as the specified task.">
<polygon fill="none" stroke="#000000" points="1053,-147.5 1053,-177.5 1220,-177.5 1220,-147.5 1053,-147.5"/>
<text text-anchor="start" x="1061" y="-165.5" font-family="Helvetica,sans-Serif" font-size="10.00" fill="#000000">JSPRegularMeasuresMinimization</text>
<text text-anchor="middle" x="1136.5" y="-154.5" font-family="Helvetica,sans-Serif" font-size="10.00" fill="#000000">Solution::GetJobSuccessor</text>
</a>
</g>
</g>
<!-- Node357&#45;&gt;Node358 -->
<g id="edge8" class="edge">
<title>Node357&#45;&gt;Node358</title>
<path fill="none" stroke="#191970" d="M1013.731,-185.4814C1024.422,-183.4801 1035.4427,-181.4171 1046.2893,-179.3867"/>
<polygon fill="#191970" stroke="#191970" points="1047.0018,-182.8142 1056.187,-177.534 1045.7138,-175.9338 1047.0018,-182.8142"/>
</g>
<!-- Node359 -->
<g id="node10" class="node">
<title>Node359</title>
<g id="a_node10"><a xlink:href="classJSPRegularMeasuresMinimizationSolution.html#a3eb8777ca4b47476c5d1a42ea6be899f" target="_top" xlink:title="Returns the task that is scheduled after in the same machine as the specified task.">
<polygon fill="none" stroke="#000000" points="1053,-196.5 1053,-226.5 1220,-226.5 1220,-196.5 1053,-196.5"/>
<text text-anchor="start" x="1061" y="-214.5" font-family="Helvetica,sans-Serif" font-size="10.00" fill="#000000">JSPRegularMeasuresMinimization</text>
<text text-anchor="middle" x="1136.5" y="-203.5" font-family="Helvetica,sans-Serif" font-size="10.00" fill="#000000">Solution::GetMachineSuccessor</text>
</a>
</g>
</g>
<!-- Node357&#45;&gt;Node359 -->
<g id="edge9" class="edge">
<title>Node357&#45;&gt;Node359</title>
<path fill="none" stroke="#191970" d="M1017.2399,-205.0376C1025.7178,-205.497 1034.3663,-205.9657 1042.9388,-206.4302"/>
<polygon fill="#191970" stroke="#191970" points="1042.7778,-209.9265 1052.9526,-206.9728 1043.1566,-202.9368 1042.7778,-209.9265"/>
</g>
<!-- Node361&#45;&gt;Node354 -->
<g id="edge12" class="edge">
<title>Node361&#45;&gt;Node354</title>
<path fill="none" stroke="#191970" d="M790.9015,-231.5192C809.7823,-235.3564 830.2183,-239.5097 849.5622,-243.4411"/>
<polygon fill="#191970" stroke="#191970" points="849.0675,-246.912 859.5642,-245.4738 850.4617,-240.0522 849.0675,-246.912"/>
</g>
<!-- Node361&#45;&gt;Node362 -->
<g id="edge13" class="edge">
<title>Node361&#45;&gt;Node362</title>
<path fill="none" stroke="#191970" d="M799.2519,-201.455C804.5479,-198.6671 809.5366,-195.3781 814,-191.5 845.5883,-164.0538 820.1749,-133.8526 850,-104.5 862.3943,-92.3021 879.8438,-84.4685 895.5885,-79.5119"/>
<polygon fill="#191970" stroke="#191970" points="896.961,-82.7602 905.6187,-76.6532 895.0423,-76.0283 896.961,-82.7602"/>
</g>
<!-- Node366 -->
<g id="node17" class="node">
<title>Node366</title>
<g id="a_node17"><a xlink:href="classJSPRegularMeasuresMinimizationSolution.html#ac2ec396a07861020139de340dc27df27" target="_top" xlink:title="Returns the duration of a task in the current assigned machine.">
<polygon fill="none" stroke="#000000" points="850,-114.5 850,-144.5 1017,-144.5 1017,-114.5 850,-114.5"/>
<text text-anchor="start" x="858" y="-132.5" font-family="Helvetica,sans-Serif" font-size="10.00" fill="#000000">JSPRegularMeasuresMinimization</text>
<text text-anchor="middle" x="933.5" y="-121.5" font-family="Helvetica,sans-Serif" font-size="10.00" fill="#000000">Solution::GetDuration</text>
</a>
</g>
</g>
<!-- Node361&#45;&gt;Node366 -->
<g id="edge17" class="edge">
<title>Node361&#45;&gt;Node366</title>
<path fill="none" stroke="#191970" d="M783.6342,-201.4593C793.924,-198.5268 804.3358,-195.1976 814,-191.5 830.349,-185.2448 868.4778,-165.0834 897.3018,-149.4308"/>
<polygon fill="#191970" stroke="#191970" points="899.1878,-152.389 906.2938,-144.5305 895.8382,-146.2424 899.1878,-152.389"/>
</g>
<!-- Node363 -->
<g id="node14" class="node">
<title>Node363</title>
<g id="a_node14"><a xlink:href="classTriangularFuzzyNumber.html#afe61a993d8d969f858845dbb6b5eb7a0" target="_top" xlink:title="Returns the smallest possible value.">
<polygon fill="none" stroke="#000000" points="1076.5,-.5 1076.5,-30.5 1196.5,-30.5 1196.5,-.5 1076.5,-.5"/>
<text text-anchor="start" x="1084.5" y="-18.5" font-family="Helvetica,sans-Serif" font-size="10.00" fill="#000000">TriangularFuzzyNumber</text>
<text text-anchor="middle" x="1136.5" y="-7.5" font-family="Helvetica,sans-Serif" font-size="10.00" fill="#000000">::GetSmallest</text>
</a>
</g>
</g>
<!-- Node362&#45;&gt;Node363 -->
<g id="edge14" class="edge">
<title>Node362&#45;&gt;Node363</title>
<path fill="none" stroke="#191970" d="M961.3006,-63.8309C989.7093,-55.994 1034.83,-43.5469 1072.1662,-33.2473"/>
<polygon fill="#191970" stroke="#191970" points="1073.2623,-36.5757 1081.9715,-30.5424 1071.4008,-29.8277 1073.2623,-36.5757"/>
</g>
<!-- Node364 -->
<g id="node15" class="node">
<title>Node364</title>
<g id="a_node15"><a xlink:href="classTriangularFuzzyNumber.html#ac79e432898eb12448e54d085295a09f9" target="_top" xlink:title="Returns the most probable value.">
<polygon fill="none" stroke="#000000" points="1076.5,-98.5 1076.5,-128.5 1196.5,-128.5 1196.5,-98.5 1076.5,-98.5"/>
<text text-anchor="start" x="1084.5" y="-116.5" font-family="Helvetica,sans-Serif" font-size="10.00" fill="#000000">TriangularFuzzyNumber</text>
<text text-anchor="middle" x="1136.5" y="-105.5" font-family="Helvetica,sans-Serif" font-size="10.00" fill="#000000">::GetMostProbable</text>
</a>
</g>
</g>
<!-- Node362&#45;&gt;Node364 -->
<g id="edge15" class="edge">
<title>Node362&#45;&gt;Node364</title>
<path fill="none" stroke="#191970" d="M961.3006,-77.2519C988.1989,-82.817 1030.0792,-91.4819 1066.1484,-98.9445"/>
<polygon fill="#191970" stroke="#191970" points="1065.6487,-102.4152 1076.1504,-101.0139 1067.067,-95.5603 1065.6487,-102.4152"/>
</g>
<!-- Node365 -->
<g id="node16" class="node">
<title>Node365</title>
<g id="a_node16"><a xlink:href="classTriangularFuzzyNumber.html#a0133fef04fbb1a8e571d117c01c6af71" target="_top" xlink:title="Returns the largest possible value.">
<polygon fill="none" stroke="#000000" points="1076.5,-49.5 1076.5,-79.5 1196.5,-79.5 1196.5,-49.5 1076.5,-49.5"/>
<text text-anchor="start" x="1084.5" y="-67.5" font-family="Helvetica,sans-Serif" font-size="10.00" fill="#000000">TriangularFuzzyNumber</text>
<text text-anchor="middle" x="1136.5" y="-56.5" font-family="Helvetica,sans-Serif" font-size="10.00" fill="#000000">::GetLargest</text>
</a>
</g>
</g>
<!-- Node362&#45;&gt;Node365 -->
<g id="edge16" class="edge">
<title>Node362&#45;&gt;Node365</title>
<path fill="none" stroke="#191970" d="M961.3006,-70.5414C988.1989,-69.6138 1030.0792,-68.1697 1066.1484,-66.9259"/>
<polygon fill="#191970" stroke="#191970" points="1066.277,-70.4237 1076.1504,-66.581 1066.0357,-63.4278 1066.277,-70.4237"/>
</g>
<!-- Node367&#45;&gt;Node357 -->
<g id="edge20" class="edge">
<title>Node367&#45;&gt;Node357</title>
<path fill="none" stroke="#191970" d="M800.7046,-180.2587C813.3798,-182.1907 826.529,-184.195 839.4063,-186.1578"/>
<polygon fill="#191970" stroke="#191970" points="839.2479,-189.674 849.6611,-187.7209 840.3027,-182.7539 839.2479,-189.674"/>
</g>
<!-- Node367&#45;&gt;Node362 -->
<g id="edge19" class="edge">
<title>Node367&#45;&gt;Node362</title>
<path fill="none" stroke="#191970" d="M792.8242,-152.4518C800.2148,-149.6708 807.407,-146.3836 814,-142.5 834.0453,-130.6923 830.7257,-117.5283 850,-104.5 863.9836,-95.048 881.0765,-87.6879 896.1467,-82.3412"/>
<polygon fill="#191970" stroke="#191970" points="897.3483,-85.6297 905.7048,-79.1166 895.1106,-78.997 897.3483,-85.6297"/>
</g>
<!-- Node367&#45;&gt;Node366 -->
<g id="edge21" class="edge">
<title>Node367&#45;&gt;Node366</title>
<path fill="none" stroke="#191970" d="M800.7046,-152.8082C813.5053,-150.5614 826.7895,-148.2298 839.7887,-145.9482"/>
<polygon fill="#191970" stroke="#191970" points="840.4168,-149.3915 849.6611,-144.2154 839.2066,-142.4969 840.4168,-149.3915"/>
</g>
<!-- Node368&#45;&gt;Node362 -->
<g id="edge23" class="edge">
<title>Node368&#45;&gt;Node362</title>
<path fill="none" stroke="#191970" d="M800.7046,-70.2733C833.4385,-70.5756 869.3335,-70.9072 895.5426,-71.1494"/>
<polygon fill="#191970" stroke="#191970" points="895.7586,-74.6514 905.7905,-71.244 895.8233,-67.6517 895.7586,-74.6514"/>
</g>
<!-- Node368&#45;&gt;Node366 -->
<g id="edge24" class="edge">
<title>Node368&#45;&gt;Node366</title>
<path fill="none" stroke="#191970" d="M779.7348,-84.5342C791.1618,-87.4112 802.9577,-90.4727 814,-93.5 834.2895,-99.0625 856.3787,-105.5842 875.9837,-111.5373"/>
<polygon fill="#191970" stroke="#191970" points="875.1009,-114.9272 885.6871,-114.4986 877.1442,-108.2321 875.1009,-114.9272"/>
</g>
<!-- Node369&#45;&gt;Node362 -->
<g id="edge27" class="edge">
<title>Node369&#45;&gt;Node362</title>
<path fill="none" stroke="#191970" d="M786.0972,-103.4997C822.4064,-95.6173 865.5075,-86.2605 895.6924,-79.7076"/>
<polygon fill="#191970" stroke="#191970" points="896.7684,-83.0557 905.7982,-77.5138 895.2833,-76.215 896.7684,-83.0557"/>
</g>
<!-- Node369&#45;&gt;Node366 -->
<g id="edge26" class="edge">
<title>Node369&#45;&gt;Node366</title>
<path fill="none" stroke="#191970" d="M814.1674,-123.4369C822.6387,-123.8673 831.2015,-124.3024 839.6453,-124.7314"/>
<polygon fill="#191970" stroke="#191970" points="839.7069,-128.239 849.8717,-125.251 840.0622,-121.248 839.7069,-128.239"/>
</g>
<!-- Node370&#45;&gt;Node360 -->
<g id="edge30" class="edge">
<title>Node370&#45;&gt;Node360</title>
<path fill="none" stroke="#191970" d="M584.2433,-299.0142C657.4155,-301.2111 763.5405,-304.3973 839.5786,-306.6802"/>
<polygon fill="#191970" stroke="#191970" points="839.5322,-310.1803 849.6328,-306.982 839.7424,-303.1834 839.5322,-310.1803"/>
</g>
<!-- Node371&#45;&gt;Node352 -->
<g id="edge32" class="edge">
<title>Node371&#45;&gt;Node352</title>
<path fill="none" stroke="#191970" d="M381.0275,-167.5C389.4472,-167.5 398.0023,-167.5 406.4667,-167.5"/>
<polygon fill="#191970" stroke="#191970" points="406.7312,-171.0001 416.7312,-167.5 406.7311,-164.0001 406.7312,-171.0001"/>
</g>
</g>
</svg>
