<?xml version="1.0" encoding="UTF-8" standalone="no"?>
<!DOCTYPE svg PUBLIC "-//W3C//DTD SVG 1.1//EN"
 "http://www.w3.org/Graphics/SVG/1.1/DTD/svg11.dtd">
<!-- Generated by graphviz version 2.40.1 (20161225.0304)
 -->
<!-- Title: JSPRegularMeasuresMinimizationSolution::Update Pages: 1 -->
<!--zoomable 333 -->
<svg id="main" version="1.1" xmlns="http://www.w3.org/2000/svg" xmlns:xlink="http://www.w3.org/1999/xlink" xml:space="preserve" onload="init(evt)">
<style type="text/css"><![CDATA[
.edge:hover path { stroke: red; }
.edge:hover polygon { stroke: red; fill: red; }
]]></style>
<script type="text/javascript"><![CDATA[
var edges = document.getElementsByTagName('g');
if (edges && edges.length) {
  for (var i=0;i<edges.length;i++) {
    if (edges[i].id.substr(0,4)=='edge') {
      edges[i].setAttribute('class','edge');
    }
  }
}
]]></script>
        <defs>
                <circle id="rim" cx="0" cy="0" r="7"/>
                <circle id="rim2" cx="0" cy="0" r="3.5"/>
                <g id="zoomPlus">
                        <use xlink:href="#rim" fill="#404040">
                                <set attributeName="fill" to="#808080" begin="zoomplus.mouseover" end="zoomplus.mouseout"/>
                        </use>
                        <path d="M-4,0h8M0,-4v8" fill="none" stroke="white" stroke-width="1.5" pointer-events="none"/>
                </g>
                <g id="zoomMin">
                        <use xlink:href="#rim" fill="#404040">
                                <set attributeName="fill" to="#808080" begin="zoomminus.mouseover" end="zoomminus.mouseout"/>
                        </use>
                        <path d="M-4,0h8" fill="none" stroke="white" stroke-width="1.5" pointer-events="none"/>
                </g>
                <g id="dirArrow">
                        <path fill="none" stroke="white" stroke-width="1.5" d="M0,-3.0v7 M-2.5,-0.5L0,-3.0L2.5,-0.5"/>
                </g>
               <g id="resetDef">
                       <use xlink:href="#rim2" fill="#404040">
                               <set attributeName="fill" to="#808080" begin="reset.mouseover" end="reset.mouseout"/>
                       </use>
               </g>
        </defs>

<script type="text/javascript">
var viewWidth = 811;
var viewHeight = 333;
var sectionId = 'dynsection-26';
</script>
<script xlink:href="svgpan.js"/>
<svg id="graph" class="graph">
<g id="viewport">
<title>JSPRegularMeasuresMinimizationSolution::Update</title>
<!-- Node372 -->
<g id="node1" class="node">
<title>Node372</title>
<g id="a_node1"><a xlink:title="Updates the lazy values.">
<polygon fill="#bfbfbf" stroke="#000000" points="0,-146.5 0,-176.5 167,-176.5 167,-146.5 0,-146.5"/>
<text text-anchor="start" x="8" y="-164.5" font-family="Helvetica,sans-Serif" font-size="10.00" fill="#000000">JSPRegularMeasuresMinimization</text>
<text text-anchor="middle" x="83.5" y="-153.5" font-family="Helvetica,sans-Serif" font-size="10.00" fill="#000000">Solution::Update</text>
</a>
</g>
</g>
<!-- Node373 -->
<g id="node2" class="node">
<title>Node373</title>
<g id="a_node2"><a xlink:href="classJSPRegularMeasuresMinimizationSolution.html#a77f966c0ff4fc1550f56dee7f8ab7286" target="_top" xlink:title="Updates the processing order.">
<polygon fill="none" stroke="#000000" points="216.5,-269.5 216.5,-299.5 383.5,-299.5 383.5,-269.5 216.5,-269.5"/>
<text text-anchor="start" x="224.5" y="-287.5" font-family="Helvetica,sans-Serif" font-size="10.00" fill="#000000">JSPRegularMeasuresMinimization</text>
<text text-anchor="middle" x="300" y="-276.5" font-family="Helvetica,sans-Serif" font-size="10.00" fill="#000000">Solution::UpdateTopologicalOrder</text>
</a>
</g>
</g>
<!-- Node372&#45;&gt;Node373 -->
<g id="edge1" class="edge">
<title>Node372&#45;&gt;Node373</title>
<path fill="none" stroke="#191970" d="M97.3949,-176.7204C118.2133,-198.5877 159.7028,-238.6588 203,-260.5 206.8335,-262.4338 210.8324,-264.218 214.9289,-265.8635"/>
<polygon fill="#191970" stroke="#191970" points="214.0396,-269.2664 224.6327,-269.4563 216.4701,-262.7018 214.0396,-269.2664"/>
</g>
<!-- Node381 -->
<g id="node10" class="node">
<title>Node381</title>
<g id="a_node10"><a xlink:href="classJSPRegularMeasuresMinimizationSolution.html#abf2cbb26e6e8f17b1b53c1e9c01bdf0c" target="_top" xlink:title="Updates the head of all the tasks that have been affected by modifications since the last call.">
<polygon fill="none" stroke="#000000" points="216.5,-220.5 216.5,-250.5 383.5,-250.5 383.5,-220.5 216.5,-220.5"/>
<text text-anchor="start" x="224.5" y="-238.5" font-family="Helvetica,sans-Serif" font-size="10.00" fill="#000000">JSPRegularMeasuresMinimization</text>
<text text-anchor="middle" x="300" y="-227.5" font-family="Helvetica,sans-Serif" font-size="10.00" fill="#000000">Solution::UpdateHeads</text>
</a>
</g>
</g>
<!-- Node372&#45;&gt;Node381 -->
<g id="edge9" class="edge">
<title>Node372&#45;&gt;Node381</title>
<path fill="none" stroke="#191970" d="M115.7005,-176.5627C139.4646,-187.2856 172.7872,-201.5074 203,-211.5 209.5291,-213.6594 216.3619,-215.7255 223.2479,-217.6755"/>
<polygon fill="#191970" stroke="#191970" points="222.7759,-221.1753 233.3456,-220.4465 224.6284,-214.4248 222.7759,-221.1753"/>
</g>
<!-- Node382 -->
<g id="node11" class="node">
<title>Node382</title>
<g id="a_node11"><a xlink:href="namespacestd.html#aabf08e25820a0127a265bb20575664b9" target="_top" xlink:title=" ">
<polygon fill="none" stroke="#000000" points="489,-81 489,-100 544,-100 544,-81 489,-81"/>
<text text-anchor="middle" x="516.5" y="-88" font-family="Helvetica,sans-Serif" font-size="10.00" fill="#000000">std::max</text>
</a>
</g>
</g>
<!-- Node372&#45;&gt;Node382 -->
<g id="edge26" class="edge">
<title>Node372&#45;&gt;Node382</title>
<path fill="none" stroke="#191970" d="M95.8672,-146.3243C115.6524,-123.3917 156.9148,-80.8498 203,-64.5 298.3656,-30.6667 419.9065,-59.4268 479.7792,-77.8983"/>
<polygon fill="#191970" stroke="#191970" points="478.9441,-81.3051 489.5341,-80.9867 481.0569,-74.6316 478.9441,-81.3051"/>
</g>
<!-- Node387 -->
<g id="node16" class="node">
<title>Node387</title>
<g id="a_node16"><a xlink:href="classJSPRegularMeasuresMinimizationSolution.html#a5828c62c0001c9ee6bda0a5329bb128b" target="_top" xlink:title="Updates the tails of all the tasks that have been affected by modifications since the last call.">
<polygon fill="none" stroke="#000000" points="216.5,-171.5 216.5,-201.5 383.5,-201.5 383.5,-171.5 216.5,-171.5"/>
<text text-anchor="start" x="224.5" y="-189.5" font-family="Helvetica,sans-Serif" font-size="10.00" fill="#000000">JSPRegularMeasuresMinimization</text>
<text text-anchor="middle" x="300" y="-178.5" font-family="Helvetica,sans-Serif" font-size="10.00" fill="#000000">Solution::UpdateTails</text>
</a>
</g>
</g>
<!-- Node372&#45;&gt;Node387 -->
<g id="edge16" class="edge">
<title>Node372&#45;&gt;Node387</title>
<path fill="none" stroke="#191970" d="M167.2046,-171.1657C179.8798,-172.6293 193.029,-174.1477 205.9063,-175.6347"/>
<polygon fill="#191970" stroke="#191970" points="205.8256,-179.1485 216.1611,-176.8188 206.6286,-172.1947 205.8256,-179.1485"/>
</g>
<!-- Node388 -->
<g id="node17" class="node">
<title>Node388</title>
<g id="a_node17"><a xlink:href="classJSPRegularMeasuresMinimizationSolution.html#accdae639eff823a62df12301d901b60a" target="_top" xlink:title="Updates the makespan.">
<polygon fill="none" stroke="#000000" points="216.5,-122.5 216.5,-152.5 383.5,-152.5 383.5,-122.5 216.5,-122.5"/>
<text text-anchor="start" x="224.5" y="-140.5" font-family="Helvetica,sans-Serif" font-size="10.00" fill="#000000">JSPRegularMeasuresMinimization</text>
<text text-anchor="middle" x="300" y="-129.5" font-family="Helvetica,sans-Serif" font-size="10.00" fill="#000000">Solution::UpdateMakespan</text>
</a>
</g>
</g>
<!-- Node372&#45;&gt;Node388 -->
<g id="edge20" class="edge">
<title>Node372&#45;&gt;Node388</title>
<path fill="none" stroke="#191970" d="M167.2046,-152.221C179.8798,-150.8159 193.029,-149.3582 205.9063,-147.9307"/>
<polygon fill="#191970" stroke="#191970" points="206.6077,-151.3745 216.1611,-146.7939 205.8363,-144.4171 206.6077,-151.3745"/>
</g>
<!-- Node389 -->
<g id="node18" class="node">
<title>Node389</title>
<g id="a_node18"><a xlink:href="classJSPRegularMeasuresMinimizationSolution.html#aacc67d30509b9d88017c78042c806dc8" target="_top" xlink:title="Updates the total weighted tardiness.">
<polygon fill="none" stroke="#000000" points="203,-73.5 203,-103.5 397,-103.5 397,-73.5 203,-73.5"/>
<text text-anchor="start" x="211" y="-91.5" font-family="Helvetica,sans-Serif" font-size="10.00" fill="#000000">JSPRegularMeasuresMinimization</text>
<text text-anchor="middle" x="300" y="-80.5" font-family="Helvetica,sans-Serif" font-size="10.00" fill="#000000">Solution::UpdateTotalWeightedTardiness</text>
</a>
</g>
</g>
<!-- Node372&#45;&gt;Node389 -->
<g id="edge23" class="edge">
<title>Node372&#45;&gt;Node389</title>
<path fill="none" stroke="#191970" d="M117.577,-146.4387C141.2496,-136.317 173.6847,-123.1204 203,-113.5 210.6944,-110.9749 218.7991,-108.5413 226.9103,-106.2494"/>
<polygon fill="#191970" stroke="#191970" points="228.0705,-109.5601 236.7801,-103.5274 226.2094,-102.812 228.0705,-109.5601"/>
</g>
<!-- Node374 -->
<g id="node3" class="node">
<title>Node374</title>
<g id="a_node3"><a xlink:href="classJSPRegularMeasuresMinimizationSolution.html#a51f6a34786a8ae5f700c47d690f744b5" target="_top" xlink:title="Returns a pair with the tasks that are scheduled before the specified task. The first component is th...">
<polygon fill="none" stroke="#000000" points="433,-245.5 433,-275.5 600,-275.5 600,-245.5 433,-245.5"/>
<text text-anchor="start" x="441" y="-263.5" font-family="Helvetica,sans-Serif" font-size="10.00" fill="#000000">JSPRegularMeasuresMinimization</text>
<text text-anchor="middle" x="516.5" y="-252.5" font-family="Helvetica,sans-Serif" font-size="10.00" fill="#000000">Solution::GetPredecessors</text>
</a>
</g>
</g>
<!-- Node373&#45;&gt;Node374 -->
<g id="edge2" class="edge">
<title>Node373&#45;&gt;Node374</title>
<path fill="none" stroke="#191970" d="M383.7046,-275.221C396.3798,-273.8159 409.529,-272.3582 422.4063,-270.9307"/>
<polygon fill="#191970" stroke="#191970" points="423.1077,-274.3745 432.6611,-269.7939 422.3363,-267.4171 423.1077,-274.3745"/>
</g>
<!-- Node377 -->
<g id="node6" class="node">
<title>Node377</title>
<g id="a_node6"><a xlink:href="classJSPRegularMeasuresMinimizationSolution.html#aec812c82dab9616ab5192fc58bd247cc" target="_top" xlink:title="Returns a pair with the tasks that are scheduled after the specified task. The first component is the...">
<polygon fill="none" stroke="#000000" points="433,-183.5 433,-213.5 600,-213.5 600,-183.5 433,-183.5"/>
<text text-anchor="start" x="441" y="-201.5" font-family="Helvetica,sans-Serif" font-size="10.00" fill="#000000">JSPRegularMeasuresMinimization</text>
<text text-anchor="middle" x="516.5" y="-190.5" font-family="Helvetica,sans-Serif" font-size="10.00" fill="#000000">Solution::GetSuccessors</text>
</a>
</g>
</g>
<!-- Node373&#45;&gt;Node377 -->
<g id="edge5" class="edge">
<title>Node373&#45;&gt;Node377</title>
<path fill="none" stroke="#191970" d="M372.7007,-269.4483C381.0381,-266.8642 389.3013,-263.8945 397,-260.5 414.5952,-252.7419 416.1944,-245.8462 433,-236.5 444.9794,-229.8379 458.3413,-223.3604 470.8022,-217.6964"/>
<polygon fill="#191970" stroke="#191970" points="472.4155,-220.8091 480.1178,-213.5341 469.5599,-214.4181 472.4155,-220.8091"/>
</g>
<!-- Node380 -->
<g id="node9" class="node">
<title>Node380</title>
<g id="a_node9"><a xlink:href="classJSPRegularMeasuresMinimizationSolution.html#a35c863463c1b01f650901bb770c4592a" target="_top" xlink:title="Returns the problem that the solution solves.">
<polygon fill="none" stroke="#000000" points="433,-294.5 433,-324.5 600,-324.5 600,-294.5 433,-294.5"/>
<text text-anchor="start" x="441" y="-312.5" font-family="Helvetica,sans-Serif" font-size="10.00" fill="#000000">JSPRegularMeasuresMinimization</text>
<text text-anchor="middle" x="516.5" y="-301.5" font-family="Helvetica,sans-Serif" font-size="10.00" fill="#000000">Solution::GetProblem</text>
</a>
</g>
</g>
<!-- Node373&#45;&gt;Node380 -->
<g id="edge8" class="edge">
<title>Node373&#45;&gt;Node380</title>
<path fill="none" stroke="#191970" d="M383.7046,-294.1657C396.3798,-295.6293 409.529,-297.1477 422.4063,-298.6347"/>
<polygon fill="#191970" stroke="#191970" points="422.3256,-302.1485 432.6611,-299.8188 423.1286,-295.1947 422.3256,-302.1485"/>
</g>
<!-- Node375 -->
<g id="node4" class="node">
<title>Node375</title>
<g id="a_node4"><a xlink:href="classJSPRegularMeasuresMinimizationSolution.html#a1fd5430443df7d418f0212ce7a4f8209" target="_top" xlink:title="Returns the task that is scheduled before in the same job as the specified task.">
<polygon fill="none" stroke="#000000" points="636,-245.5 636,-275.5 803,-275.5 803,-245.5 636,-245.5"/>
<text text-anchor="start" x="644" y="-263.5" font-family="Helvetica,sans-Serif" font-size="10.00" fill="#000000">JSPRegularMeasuresMinimization</text>
<text text-anchor="middle" x="719.5" y="-252.5" font-family="Helvetica,sans-Serif" font-size="10.00" fill="#000000">Solution::GetJobPredecessor</text>
</a>
</g>
</g>
<!-- Node374&#45;&gt;Node375 -->
<g id="edge3" class="edge">
<title>Node374&#45;&gt;Node375</title>
<path fill="none" stroke="#191970" d="M600.2399,-260.5C608.7178,-260.5 617.3663,-260.5 625.9388,-260.5"/>
<polygon fill="#191970" stroke="#191970" points="625.9526,-264.0001 635.9526,-260.5 625.9525,-257.0001 625.9526,-264.0001"/>
</g>
<!-- Node376 -->
<g id="node5" class="node">
<title>Node376</title>
<g id="a_node5"><a xlink:href="classJSPRegularMeasuresMinimizationSolution.html#ab14c655132dd8b26f1b0b79ea3276e46" target="_top" xlink:title="Returns the task that is scheduled before in the same machine as the specified task.">
<polygon fill="none" stroke="#000000" points="636,-294.5 636,-324.5 803,-324.5 803,-294.5 636,-294.5"/>
<text text-anchor="start" x="644" y="-312.5" font-family="Helvetica,sans-Serif" font-size="10.00" fill="#000000">JSPRegularMeasuresMinimization</text>
<text text-anchor="middle" x="719.5" y="-301.5" font-family="Helvetica,sans-Serif" font-size="10.00" fill="#000000">Solution::GetMachinePredecessor</text>
</a>
</g>
</g>
<!-- Node374&#45;&gt;Node376 -->
<g id="edge4" class="edge">
<title>Node374&#45;&gt;Node376</title>
<path fill="none" stroke="#191970" d="M578.7863,-275.5346C600.5125,-280.7789 625.0714,-286.7069 647.5201,-292.1255"/>
<polygon fill="#191970" stroke="#191970" points="646.7894,-295.5496 657.3315,-294.4938 648.432,-288.745 646.7894,-295.5496"/>
</g>
<!-- Node378 -->
<g id="node7" class="node">
<title>Node378</title>
<g id="a_node7"><a xlink:href="classJSPRegularMeasuresMinimizationSolution.html#ae612f3de108af3cef5ee97d145ce8d5b" target="_top" xlink:title="Returns the task that is scheduled after in the same job as the specified task.">
<polygon fill="none" stroke="#000000" points="636,-147.5 636,-177.5 803,-177.5 803,-147.5 636,-147.5"/>
<text text-anchor="start" x="644" y="-165.5" font-family="Helvetica,sans-Serif" font-size="10.00" fill="#000000">JSPRegularMeasuresMinimization</text>
<text text-anchor="middle" x="719.5" y="-154.5" font-family="Helvetica,sans-Serif" font-size="10.00" fill="#000000">Solution::GetJobSuccessor</text>
</a>
</g>
</g>
<!-- Node377&#45;&gt;Node378 -->
<g id="edge6" class="edge">
<title>Node377&#45;&gt;Node378</title>
<path fill="none" stroke="#191970" d="M600.2399,-183.6496C608.7178,-182.1461 617.3663,-180.6124 625.9388,-179.0921"/>
<polygon fill="#191970" stroke="#191970" points="626.7174,-182.5088 635.9526,-177.3163 625.495,-175.6163 626.7174,-182.5088"/>
</g>
<!-- Node379 -->
<g id="node8" class="node">
<title>Node379</title>
<g id="a_node8"><a xlink:href="classJSPRegularMeasuresMinimizationSolution.html#a3eb8777ca4b47476c5d1a42ea6be899f" target="_top" xlink:title="Returns the task that is scheduled after in the same machine as the specified task.">
<polygon fill="none" stroke="#000000" points="636,-196.5 636,-226.5 803,-226.5 803,-196.5 636,-196.5"/>
<text text-anchor="start" x="644" y="-214.5" font-family="Helvetica,sans-Serif" font-size="10.00" fill="#000000">JSPRegularMeasuresMinimization</text>
<text text-anchor="middle" x="719.5" y="-203.5" font-family="Helvetica,sans-Serif" font-size="10.00" fill="#000000">Solution::GetMachineSuccessor</text>
</a>
</g>
</g>
<!-- Node377&#45;&gt;Node379 -->
<g id="edge7" class="edge">
<title>Node377&#45;&gt;Node379</title>
<path fill="none" stroke="#191970" d="M600.2399,-203.8627C608.7178,-204.4056 617.3663,-204.9594 625.9388,-205.5084"/>
<polygon fill="#191970" stroke="#191970" points="625.7493,-209.0033 635.9526,-206.1497 626.1967,-202.0176 625.7493,-209.0033"/>
</g>
<!-- Node381&#45;&gt;Node374 -->
<g id="edge10" class="edge">
<title>Node381&#45;&gt;Node374</title>
<path fill="none" stroke="#191970" d="M383.7046,-245.1657C396.3798,-246.6293 409.529,-248.1477 422.4063,-249.6347"/>
<polygon fill="#191970" stroke="#191970" points="422.3256,-253.1485 432.6611,-250.8188 423.1286,-246.1947 422.3256,-253.1485"/>
</g>
<!-- Node381&#45;&gt;Node382 -->
<g id="edge11" class="edge">
<title>Node381&#45;&gt;Node382</title>
<path fill="none" stroke="#191970" d="M383.7091,-220.6901C388.4717,-218.0866 392.9575,-215.0468 397,-211.5 430.005,-182.5419 401.3573,-149.9408 433,-119.5 445.4287,-107.5434 463.0369,-100.4958 478.882,-96.3514"/>
<polygon fill="#191970" stroke="#191970" points="480.0103,-99.6831 488.9676,-94.0247 478.4368,-92.8622 480.0103,-99.6831"/>
</g>
<!-- Node386 -->
<g id="node15" class="node">
<title>Node386</title>
<g id="a_node15"><a xlink:href="classJSPRegularMeasuresMinimizationSolution.html#ac2ec396a07861020139de340dc27df27" target="_top" xlink:title="Returns the duration of a task in the current assigned machine.">
<polygon fill="none" stroke="#000000" points="433,-128.5 433,-158.5 600,-158.5 600,-128.5 433,-128.5"/>
<text text-anchor="start" x="441" y="-146.5" font-family="Helvetica,sans-Serif" font-size="10.00" fill="#000000">JSPRegularMeasuresMinimization</text>
<text text-anchor="middle" x="516.5" y="-135.5" font-family="Helvetica,sans-Serif" font-size="10.00" fill="#000000">Solution::GetDuration</text>
</a>
</g>
</g>
<!-- Node381&#45;&gt;Node386 -->
<g id="edge15" class="edge">
<title>Node381&#45;&gt;Node386</title>
<path fill="none" stroke="#191970" d="M377.7802,-220.4493C384.4745,-217.9128 390.9808,-214.9529 397,-211.5 416.9017,-200.0833 413.7743,-187.0217 433,-174.5 439.9849,-169.9507 447.7305,-165.9428 455.6068,-162.45"/>
<polygon fill="#191970" stroke="#191970" points="456.9929,-165.6642 464.8752,-158.5847 454.2985,-159.2035 456.9929,-165.6642"/>
</g>
<!-- Node383 -->
<g id="node12" class="node">
<title>Node383</title>
<g id="a_node12"><a xlink:href="classTriangularFuzzyNumber.html#afe61a993d8d969f858845dbb6b5eb7a0" target="_top" xlink:title="Returns the smallest possible value.">
<polygon fill="none" stroke="#000000" points="659.5,-49.5 659.5,-79.5 779.5,-79.5 779.5,-49.5 659.5,-49.5"/>
<text text-anchor="start" x="667.5" y="-67.5" font-family="Helvetica,sans-Serif" font-size="10.00" fill="#000000">TriangularFuzzyNumber</text>
<text text-anchor="middle" x="719.5" y="-56.5" font-family="Helvetica,sans-Serif" font-size="10.00" fill="#000000">::GetSmallest</text>
</a>
</g>
</g>
<!-- Node382&#45;&gt;Node383 -->
<g id="edge12" class="edge">
<title>Node382&#45;&gt;Node383</title>
<path fill="none" stroke="#191970" d="M544.3006,-86.9393C571.1989,-83.4942 613.0792,-78.1303 649.1484,-73.5105"/>
<polygon fill="#191970" stroke="#191970" points="649.6761,-76.9716 659.1504,-72.2295 648.7868,-70.0284 649.6761,-76.9716"/>
</g>
<!-- Node384 -->
<g id="node13" class="node">
<title>Node384</title>
<g id="a_node13"><a xlink:href="classTriangularFuzzyNumber.html#ac79e432898eb12448e54d085295a09f9" target="_top" xlink:title="Returns the most probable value.">
<polygon fill="none" stroke="#000000" points="659.5,-.5 659.5,-30.5 779.5,-30.5 779.5,-.5 659.5,-.5"/>
<text text-anchor="start" x="667.5" y="-18.5" font-family="Helvetica,sans-Serif" font-size="10.00" fill="#000000">TriangularFuzzyNumber</text>
<text text-anchor="middle" x="719.5" y="-7.5" font-family="Helvetica,sans-Serif" font-size="10.00" fill="#000000">::GetMostProbable</text>
</a>
</g>
</g>
<!-- Node382&#45;&gt;Node384 -->
<g id="edge13" class="edge">
<title>Node382&#45;&gt;Node384</title>
<path fill="none" stroke="#191970" d="M537.3909,-80.9688C561.0387,-70.3662 600.8497,-53.0762 636,-40.5 642.5095,-38.171 649.355,-35.8771 656.2093,-33.6798"/>
<polygon fill="#191970" stroke="#191970" points="657.7274,-36.8717 666.2199,-30.537 655.6306,-30.1931 657.7274,-36.8717"/>
</g>
<!-- Node385 -->
<g id="node14" class="node">
<title>Node385</title>
<g id="a_node14"><a xlink:href="classTriangularFuzzyNumber.html#a0133fef04fbb1a8e571d117c01c6af71" target="_top" xlink:title="Returns the largest possible value.">
<polygon fill="none" stroke="#000000" points="659.5,-98.5 659.5,-128.5 779.5,-128.5 779.5,-98.5 659.5,-98.5"/>
<text text-anchor="start" x="667.5" y="-116.5" font-family="Helvetica,sans-Serif" font-size="10.00" fill="#000000">TriangularFuzzyNumber</text>
<text text-anchor="middle" x="719.5" y="-105.5" font-family="Helvetica,sans-Serif" font-size="10.00" fill="#000000">::GetLargest</text>
</a>
</g>
</g>
<!-- Node382&#45;&gt;Node385 -->
<g id="edge14" class="edge">
<title>Node382&#45;&gt;Node385</title>
<path fill="none" stroke="#191970" d="M544.3006,-93.6498C571.1989,-96.6974 613.0792,-101.4425 649.1484,-105.5291"/>
<polygon fill="#191970" stroke="#191970" points="648.8199,-109.0142 659.1504,-106.6624 649.6081,-102.0587 648.8199,-109.0142"/>
</g>
<!-- Node387&#45;&gt;Node377 -->
<g id="edge18" class="edge">
<title>Node387&#45;&gt;Node377</title>
<path fill="none" stroke="#191970" d="M383.7046,-191.1395C396.3798,-191.8421 409.529,-192.5709 422.4063,-193.2846"/>
<polygon fill="#191970" stroke="#191970" points="422.4827,-196.7942 432.6611,-193.853 422.8702,-189.8049 422.4827,-196.7942"/>
</g>
<!-- Node387&#45;&gt;Node382 -->
<g id="edge17" class="edge">
<title>Node387&#45;&gt;Node382</title>
<path fill="none" stroke="#191970" d="M379.5534,-171.3228C385.6584,-168.8178 391.5554,-165.8996 397,-162.5 418.1418,-149.2992 412.4857,-133.6561 433,-119.5 446.7802,-109.9909 463.9806,-103.3197 479.1832,-98.7947"/>
<polygon fill="#191970" stroke="#191970" points="480.1262,-102.1653 488.829,-96.1227 478.2575,-95.4193 480.1262,-102.1653"/>
</g>
<!-- Node387&#45;&gt;Node386 -->
<g id="edge19" class="edge">
<title>Node387&#45;&gt;Node386</title>
<path fill="none" stroke="#191970" d="M375.7212,-171.4607C393.5204,-167.9255 412.613,-164.1334 430.8149,-160.5183"/>
<polygon fill="#191970" stroke="#191970" points="431.695,-163.9119 440.8216,-158.5308 430.3313,-157.046 431.695,-163.9119"/>
</g>
<!-- Node388&#45;&gt;Node382 -->
<g id="edge21" class="edge">
<title>Node388&#45;&gt;Node382</title>
<path fill="none" stroke="#191970" d="M369.0972,-122.4997C405.4064,-114.6173 448.5075,-105.2605 478.6924,-98.7076"/>
<polygon fill="#191970" stroke="#191970" points="479.7684,-102.0557 488.7982,-96.5138 478.2833,-95.215 479.7684,-102.0557"/>
</g>
<!-- Node388&#45;&gt;Node386 -->
<g id="edge22" class="edge">
<title>Node388&#45;&gt;Node386</title>
<path fill="none" stroke="#191970" d="M383.7046,-139.8198C396.3798,-140.171 409.529,-140.5354 422.4063,-140.8923"/>
<polygon fill="#191970" stroke="#191970" points="422.568,-144.3981 432.6611,-141.1765 422.7619,-137.4007 422.568,-144.3981"/>
</g>
<!-- Node389&#45;&gt;Node382 -->
<g id="edge25" class="edge">
<title>Node389&#45;&gt;Node382</title>
<path fill="none" stroke="#191970" d="M397.1674,-89.3976C426.0862,-89.6648 456.0711,-89.9418 478.7499,-90.1513"/>
<polygon fill="#191970" stroke="#191970" points="478.91,-93.6528 488.9419,-90.2454 478.9747,-86.6531 478.91,-93.6528"/>
</g>
<!-- Node389&#45;&gt;Node386 -->
<g id="edge24" class="edge">
<title>Node389&#45;&gt;Node386</title>
<path fill="none" stroke="#191970" d="M359.1596,-103.529C386.4861,-110.4711 419.1078,-118.7583 447.5439,-125.9823"/>
<polygon fill="#191970" stroke="#191970" points="446.858,-129.4191 457.412,-128.4892 448.5816,-122.6347 446.858,-129.4191"/>
</g>
</g>
</svg>
        <g id="navigator" transform="translate(0 0)" fill="#404254">
                <rect fill="#f2f5e9" fill-opacity="0.5" stroke="#606060" stroke-width=".5" x="0" y="0" width="60" height="60"/>
                <use id="zoomplus" xlink:href="#zoomPlus" x="17" y="9" onmousedown="handleZoom(evt,'in')"/>
                <use id="zoomminus" xlink:href="#zoomMin" x="42" y="9" onmousedown="handleZoom(evt,'out')"/>
                <use id="reset" xlink:href="#resetDef" x="30" y="36" onmousedown="handleReset()"/>
                <g id="arrowUp" xlink:href="#dirArrow" transform="translate(30 24)" onmousedown="handlePan(0,-1)">
                  <use xlink:href="#rim" fill="#404040">
                        <set attributeName="fill" to="#808080" begin="arrowUp.mouseover" end="arrowUp.mouseout"/>
                  </use>
                  <path fill="none" stroke="white" stroke-width="1.5" d="M0,-3.0v7 M-2.5,-0.5L0,-3.0L2.5,-0.5"/>
                </g>
                <g id="arrowRight" xlink:href="#dirArrow" transform="rotate(90) translate(36 -43)" onmousedown="handlePan(1,0)">
                  <use xlink:href="#rim" fill="#404040">
                        <set attributeName="fill" to="#808080" begin="arrowRight.mouseover" end="arrowRight.mouseout"/>
                  </use>
                  <path fill="none" stroke="white" stroke-width="1.5" d="M0,-3.0v7 M-2.5,-0.5L0,-3.0L2.5,-0.5"/>
                </g>
                <g id="arrowDown" xlink:href="#dirArrow" transform="rotate(180) translate(-30 -48)" onmousedown="handlePan(0,1)">
                  <use xlink:href="#rim" fill="#404040">
                        <set attributeName="fill" to="#808080" begin="arrowDown.mouseover" end="arrowDown.mouseout"/>
                  </use>
                  <path fill="none" stroke="white" stroke-width="1.5" d="M0,-3.0v7 M-2.5,-0.5L0,-3.0L2.5,-0.5"/>
                </g>
                <g id="arrowLeft" xlink:href="#dirArrow" transform="rotate(270) translate(-36 17)" onmousedown="handlePan(-1,0)">
                  <use xlink:href="#rim" fill="#404040">
                        <set attributeName="fill" to="#808080" begin="arrowLeft.mouseover" end="arrowLeft.mouseout"/>
                  </use>
                  <path fill="none" stroke="white" stroke-width="1.5" d="M0,-3.0v7 M-2.5,-0.5L0,-3.0L2.5,-0.5"/>
                </g>
        </g>
        <svg viewBox="0 0 15 15" width="100%" height="30px" preserveAspectRatio="xMaxYMin meet">
         <g id="arrow_out" transform="scale(0.3 0.3)">
          <a xlink:href="classJSPRegularMeasuresMinimizationSolution_ae4b0b16a9433b4a30a29b05476217dcd_cgraph_org.svg" target="_base">
           <rect id="button" ry="5" rx="5" y="6" x="6" height="38" width="38"
                fill="#f2f5e9" fill-opacity="0.5" stroke="#606060" stroke-width="1.0"/>
           <path id="arrow"
             d="M 11.500037,31.436501 C 11.940474,20.09759 22.043105,11.32322 32.158766,21.979434 L 37.068811,17.246167 C 37.068811,17.246167 37.088388,32 37.088388,32 L 22.160133,31.978069 C 22.160133,31.978069 26.997745,27.140456 26.997745,27.140456 C 18.528582,18.264221 13.291696,25.230495 11.500037,31.436501 z"
             style="fill:#404040;"/>
          </a>
         </g>
        </svg>
</svg>
