<?xml version="1.0" encoding="UTF-8" standalone="no"?>
<!DOCTYPE svg PUBLIC "-//W3C//DTD SVG 1.1//EN"
 "http://www.w3.org/Graphics/SVG/1.1/DTD/svg11.dtd">
<!-- Generated by graphviz version 2.40.1 (20161225.0304)
 -->
<!-- Title: TabuSearchFixedLength::FindSolution Pages: 1 -->
<svg width="411pt" height="154pt"
 viewBox="0.00 0.00 411.00 153.50" xmlns="http://www.w3.org/2000/svg" xmlns:xlink="http://www.w3.org/1999/xlink">
<g id="graph0" class="graph" transform="scale(1 1) rotate(0) translate(4 149.5)">
<title>TabuSearchFixedLength::FindSolution</title>
<!-- Node0 -->
<g id="node1" class="node">
<title>Node0</title>
<g id="a_node1"><a xlink:title="Finds a solution to a problem using a tabu search metaheuristic with a fixed length tabu list.">
<polygon fill="#bfbfbf" stroke="#000000" points="0,-52 0,-82 122,-82 122,-52 0,-52"/>
<text text-anchor="start" x="8" y="-70" font-family="Helvetica,sans-Serif" font-size="10.00" fill="#000000">TabuSearchFixedLength</text>
<text text-anchor="middle" x="61" y="-59" font-family="Helvetica,sans-Serif" font-size="10.00" fill="#000000">::FindSolution</text>
</a>
</g>
</g>
<!-- Node1 -->
<g id="node2" class="node">
<title>Node1</title>
<g id="a_node2"><a xlink:href="classLocalSearchLogger.html#af2d7f29ea4ac5f18bce8c78035ae0aa3" target="_top" xlink:title="Adds a log.">
<polygon fill="none" stroke="#000000" points="171,-115 171,-145 277,-145 277,-115 171,-115"/>
<text text-anchor="start" x="179" y="-133" font-family="Helvetica,sans-Serif" font-size="10.00" fill="#000000">LocalSearchLogger::</text>
<text text-anchor="middle" x="224" y="-122" font-family="Helvetica,sans-Serif" font-size="10.00" fill="#000000">AddLog</text>
</a>
</g>
</g>
<!-- Node0&#45;&gt;Node1 -->
<g id="edge1" class="edge">
<title>Node0&#45;&gt;Node1</title>
<path fill="none" stroke="#191970" d="M99.1997,-82.0796C117.0456,-89.0949 138.5912,-97.5226 158,-105 163.2166,-107.0097 168.6702,-109.0972 174.1105,-111.1708"/>
<polygon fill="#191970" stroke="#191970" points="173.2437,-114.5857 183.8348,-114.8687 175.7318,-108.0428 173.2437,-114.5857"/>
</g>
<!-- Node2 -->
<g id="node3" class="node">
<title>Node2</title>
<g id="a_node3"><a xlink:href="classTabuList.html#a676b3872d4fd499fab11750bf71c5232" target="_top" xlink:title="Pushes the element to the end of the tabu list removing the element at the front if the tabu list is ...">
<polygon fill="none" stroke="#000000" points="170.5,-76.5 170.5,-95.5 277.5,-95.5 277.5,-76.5 170.5,-76.5"/>
<text text-anchor="middle" x="224" y="-83.5" font-family="Helvetica,sans-Serif" font-size="10.00" fill="#000000">TabuList::ForcePush</text>
</a>
</g>
</g>
<!-- Node0&#45;&gt;Node2 -->
<g id="edge2" class="edge">
<title>Node0&#45;&gt;Node2</title>
<path fill="none" stroke="#191970" d="M122.1589,-74.129C134.5095,-75.5686 147.5259,-77.0858 159.9719,-78.5366"/>
<polygon fill="#191970" stroke="#191970" points="159.9271,-82.055 170.2651,-79.7364 160.7377,-75.1021 159.9271,-82.055"/>
</g>
<!-- Node4 -->
<g id="node5" class="node">
<title>Node4</title>
<g id="a_node5"><a xlink:href="classTabuList.html#a8f65dd6528a10ca1037455f64d3ed9b2" target="_top" xlink:title="Checks if the element is in the tabu list.">
<polygon fill="none" stroke="#000000" points="175,-38.5 175,-57.5 273,-57.5 273,-38.5 175,-38.5"/>
<text text-anchor="middle" x="224" y="-45.5" font-family="Helvetica,sans-Serif" font-size="10.00" fill="#000000">TabuList::Contains</text>
</a>
</g>
</g>
<!-- Node0&#45;&gt;Node4 -->
<g id="edge4" class="edge">
<title>Node0&#45;&gt;Node4</title>
<path fill="none" stroke="#191970" d="M122.1589,-59.871C136.1885,-58.2357 151.0772,-56.5002 165.0129,-54.8758"/>
<polygon fill="#191970" stroke="#191970" points="165.4385,-58.35 174.966,-53.7156 164.628,-51.3971 165.4385,-58.35"/>
</g>
<!-- Node5 -->
<g id="node6" class="node">
<title>Node5</title>
<g id="a_node6"><a xlink:href="classTabuList.html#a1dd0b884519a00d2d4f673f653edd202" target="_top" xlink:title="Changes the capacity of the tabu list. If the current size is greater than the new one,...">
<polygon fill="none" stroke="#000000" points="158,-.5 158,-19.5 290,-19.5 290,-.5 158,-.5"/>
<text text-anchor="middle" x="224" y="-7.5" font-family="Helvetica,sans-Serif" font-size="10.00" fill="#000000">TabuList::ChangeCapacity</text>
</a>
</g>
</g>
<!-- Node0&#45;&gt;Node5 -->
<g id="edge5" class="edge">
<title>Node0&#45;&gt;Node5</title>
<path fill="none" stroke="#191970" d="M97.0938,-51.9362C115.2236,-44.6068 137.6165,-35.9099 158,-29 164.6008,-26.7624 171.6282,-24.556 178.5433,-22.4833"/>
<polygon fill="#191970" stroke="#191970" points="179.9206,-25.7268 188.5315,-19.5541 177.9506,-19.0097 179.9206,-25.7268"/>
</g>
<!-- Node3 -->
<g id="node4" class="node">
<title>Node3</title>
<g id="a_node4"><a xlink:href="classTabuList.html#a5cda682bba8562695d6e8859f879f6be" target="_top" xlink:title="Removes the element at the front of the tabu list.">
<polygon fill="none" stroke="#000000" points="326,-76.5 326,-95.5 403,-95.5 403,-76.5 326,-76.5"/>
<text text-anchor="middle" x="364.5" y="-83.5" font-family="Helvetica,sans-Serif" font-size="10.00" fill="#000000">TabuList::Pop</text>
</a>
</g>
</g>
<!-- Node2&#45;&gt;Node3 -->
<g id="edge3" class="edge">
<title>Node2&#45;&gt;Node3</title>
<path fill="none" stroke="#191970" d="M277.5178,-86C290.1196,-86 303.4841,-86 315.8577,-86"/>
<polygon fill="#191970" stroke="#191970" points="315.9801,-89.5001 325.98,-86 315.98,-82.5001 315.9801,-89.5001"/>
</g>
</g>
</svg>
