<?xml version="1.0" encoding="UTF-8" standalone="no"?>
<!DOCTYPE svg PUBLIC "-//W3C//DTD SVG 1.1//EN"
 "http://www.w3.org/Graphics/SVG/1.1/DTD/svg11.dtd">
<!-- Generated by graphviz version 2.40.1 (20161225.0304)
 -->
<!-- Title: metaheuristics/tabu_search Pages: 1 -->
<svg width="110pt" height="151pt"
 viewBox="0.00 0.00 110.00 151.00" xmlns="http://www.w3.org/2000/svg" xmlns:xlink="http://www.w3.org/1999/xlink">
<g id="graph0" class="graph" transform="scale(1 1) rotate(0) translate(4 147)">
<title>metaheuristics/tabu_search</title>
<g id="clust1" class="cluster">
<title>clusterdir_8c938339f0aca1b4563c2df71f4fff06</title>
<g id="a_clust1"><a xlink:href="dir_8c938339f0aca1b4563c2df71f4fff06.html" target="_top" xlink:title="metaheuristics">
<polygon fill="#ddddee" stroke="#000000" points="8,-64 8,-135 94,-135 94,-64 8,-64"/>
<text text-anchor="middle" x="51" y="-123" font-family="Helvetica,sans-Serif" font-size="10.00" fill="#000000">metaheuristics</text>
</a>
</g>
</g>
<!-- dir_174a75144e76fc3bb75b173eb2fa36e4 -->
<g id="node1" class="node">
<title>dir_174a75144e76fc3bb75b173eb2fa36e4</title>
<g id="a_node1"><a xlink:href="dir_174a75144e76fc3bb75b173eb2fa36e4.html" target="_top" xlink:title="tabu_search">
<polygon fill="#eeeeff" stroke="#000000" points="86,-108 16,-108 16,-72 86,-72 86,-108"/>
<text text-anchor="middle" x="51" y="-87.5" font-family="Helvetica,sans-Serif" font-size="10.00" fill="#000000">tabu_search</text>
</a>
</g>
</g>
<!-- dir_86f9aba1ec5658688618415fd76d8efb -->
<g id="node2" class="node">
<title>dir_86f9aba1ec5658688618415fd76d8efb</title>
<g id="a_node2"><a xlink:href="dir_86f9aba1ec5658688618415fd76d8efb.html" target="_top" xlink:title="utils">
<polygon fill="none" stroke="#000000" points="78,-36 24,-36 24,0 78,0 78,-36"/>
<text text-anchor="middle" x="51" y="-15.5" font-family="Helvetica,sans-Serif" font-size="10.00" fill="#000000">utils</text>
</a>
</g>
</g>
<!-- dir_174a75144e76fc3bb75b173eb2fa36e4&#45;&gt;dir_86f9aba1ec5658688618415fd76d8efb -->
<g id="edge1" class="edge">
<title>dir_174a75144e76fc3bb75b173eb2fa36e4&#45;&gt;dir_86f9aba1ec5658688618415fd76d8efb</title>
<path fill="none" stroke="#000000" d="M51,-71.8314C51,-64.131 51,-54.9743 51,-46.4166"/>
<polygon fill="#000000" stroke="#000000" points="54.5001,-46.4132 51,-36.4133 47.5001,-46.4133 54.5001,-46.4132"/>
<g id="a_edge1&#45;headlabel"><a xlink:href="dir_000002_000003.html" target="_top" xlink:title="4">
<text text-anchor="middle" x="57.3393" y="-47.5079" font-family="Helvetica,sans-Serif" font-size="10.00" fill="#000000">4</text>
</a>
</g>
</g>
</g>
</svg>
