<?xml version="1.0" encoding="UTF-8" standalone="no"?>
<!DOCTYPE svg PUBLIC "-//W3C//DTD SVG 1.1//EN"
 "http://www.w3.org/Graphics/SVG/1.1/DTD/svg11.dtd">
<!-- Generated by graphviz version 2.40.1 (20161225.0304)
 -->
<!-- Title: problems/jsp/jsp_schedule_generation_schemes.hpp Pages: 1 -->
<svg width="387pt" height="95pt"
 viewBox="0.00 0.00 387.00 95.00" xmlns="http://www.w3.org/2000/svg" xmlns:xlink="http://www.w3.org/1999/xlink">
<g id="graph0" class="graph" transform="scale(1 1) rotate(0) translate(4 91)">
<title>problems/jsp/jsp_schedule_generation_schemes.hpp</title>
<!-- Node0 -->
<g id="node1" class="node">
<title>Node0</title>
<g id="a_node1"><a xlink:title="JSP Schedule Generation Schemes.">
<polygon fill="#bfbfbf" stroke="#000000" points="98,-56.5 98,-86.5 230,-86.5 230,-56.5 98,-56.5"/>
<text text-anchor="start" x="106" y="-74.5" font-family="Helvetica,sans-Serif" font-size="10.00" fill="#000000">problems/jsp/jsp_schedule</text>
<text text-anchor="middle" x="164" y="-63.5" font-family="Helvetica,sans-Serif" font-size="10.00" fill="#000000">_generation_schemes.hpp</text>
</a>
</g>
</g>
<!-- Node1 -->
<g id="node2" class="node">
<title>Node1</title>
<g id="a_node2"><a xlink:title=" ">
<polygon fill="none" stroke="#bfbfbf" points="0,-.5 0,-19.5 56,-19.5 56,-.5 0,-.5"/>
<text text-anchor="middle" x="28" y="-7.5" font-family="Helvetica,sans-Serif" font-size="10.00" fill="#000000">algorithm</text>
</a>
</g>
</g>
<!-- Node0&#45;&gt;Node1 -->
<g id="edge1" class="edge">
<title>Node0&#45;&gt;Node1</title>
<path fill="none" stroke="#191970" d="M130.7307,-56.4554C108.6359,-46.464 79.854,-33.4487 58.3781,-23.7372"/>
<polygon fill="#191970" stroke="#191970" points="59.629,-20.4616 49.0752,-19.5303 56.7447,-26.8398 59.629,-20.4616"/>
</g>
<!-- Node2 -->
<g id="node3" class="node">
<title>Node2</title>
<g id="a_node3"><a xlink:title=" ">
<polygon fill="none" stroke="#bfbfbf" points="74.5,-.5 74.5,-19.5 121.5,-19.5 121.5,-.5 74.5,-.5"/>
<text text-anchor="middle" x="98" y="-7.5" font-family="Helvetica,sans-Serif" font-size="10.00" fill="#000000">iterator</text>
</a>
</g>
</g>
<!-- Node0&#45;&gt;Node2 -->
<g id="edge2" class="edge">
<title>Node0&#45;&gt;Node2</title>
<path fill="none" stroke="#191970" d="M147.6854,-56.2977C138.0467,-47.3163 125.8309,-35.9334 115.9241,-26.702"/>
<polygon fill="#191970" stroke="#191970" points="118.2696,-24.1036 108.5674,-19.8469 113.4975,-29.2249 118.2696,-24.1036"/>
</g>
<!-- Node3 -->
<g id="node4" class="node">
<title>Node3</title>
<g id="a_node4"><a xlink:title=" ">
<polygon fill="none" stroke="#bfbfbf" points="139.5,-.5 139.5,-19.5 188.5,-19.5 188.5,-.5 139.5,-.5"/>
<text text-anchor="middle" x="164" y="-7.5" font-family="Helvetica,sans-Serif" font-size="10.00" fill="#000000">random</text>
</a>
</g>
</g>
<!-- Node0&#45;&gt;Node3 -->
<g id="edge3" class="edge">
<title>Node0&#45;&gt;Node3</title>
<path fill="none" stroke="#191970" d="M164,-56.2977C164,-48.3834 164,-38.6043 164,-30.0759"/>
<polygon fill="#191970" stroke="#191970" points="167.5001,-29.8469 164,-19.8469 160.5001,-29.847 167.5001,-29.8469"/>
</g>
<!-- Node4 -->
<g id="node5" class="node">
<title>Node4</title>
<g id="a_node5"><a xlink:title=" ">
<polygon fill="none" stroke="#bfbfbf" points="207,-.5 207,-19.5 251,-19.5 251,-.5 207,-.5"/>
<text text-anchor="middle" x="229" y="-7.5" font-family="Helvetica,sans-Serif" font-size="10.00" fill="#000000">vector</text>
</a>
</g>
</g>
<!-- Node0&#45;&gt;Node4 -->
<g id="edge4" class="edge">
<title>Node0&#45;&gt;Node4</title>
<path fill="none" stroke="#191970" d="M180.0674,-56.2977C189.466,-47.4052 201.3527,-36.1586 211.057,-26.9769"/>
<polygon fill="#191970" stroke="#191970" points="213.7342,-29.2621 218.5927,-19.8469 208.9232,-24.1774 213.7342,-29.2621"/>
</g>
<!-- Node5 -->
<g id="node6" class="node">
<title>Node5</title>
<g id="a_node6"><a xlink:title=" ">
<polygon fill="none" stroke="#bfbfbf" points="269,-.5 269,-19.5 379,-19.5 379,-.5 269,-.5"/>
<text text-anchor="middle" x="324" y="-7.5" font-family="Helvetica,sans-Serif" font-size="10.00" fill="#000000">external/robin_hood.h</text>
</a>
</g>
</g>
<!-- Node0&#45;&gt;Node5 -->
<g id="edge5" class="edge">
<title>Node0&#45;&gt;Node5</title>
<path fill="none" stroke="#191970" d="M203.1404,-56.4554C229.6026,-46.284 264.2181,-32.9787 289.6183,-23.2155"/>
<polygon fill="#191970" stroke="#191970" points="291.1272,-26.3852 299.2057,-19.5303 288.6157,-19.8512 291.1272,-26.3852"/>
</g>
</g>
</svg>
