<?xml version="1.0" encoding="UTF-8" standalone="no"?>
<!DOCTYPE svg PUBLIC "-//W3C//DTD SVG 1.1//EN"
 "http://www.w3.org/Graphics/SVG/1.1/DTD/svg11.dtd">
<!-- Generated by graphviz version 2.40.1 (20161225.0304)
 -->
<!-- Title: utils/template_utils.hpp Pages: 1 -->
<svg width="336pt" height="240pt"
 viewBox="0.00 0.00 335.50 240.00" xmlns="http://www.w3.org/2000/svg" xmlns:xlink="http://www.w3.org/1999/xlink">
<g id="graph0" class="graph" transform="scale(1 1) rotate(0) translate(4 236)">
<title>utils/template_utils.hpp</title>
<!-- Node1 -->
<g id="node1" class="node">
<title>Node1</title>
<g id="a_node1"><a xlink:title="Template utils.">
<polygon fill="#bfbfbf" stroke="#000000" points="94.5,-212.5 94.5,-231.5 211.5,-231.5 211.5,-212.5 94.5,-212.5"/>
<text text-anchor="middle" x="153" y="-219.5" font-family="Helvetica,sans-Serif" font-size="10.00" fill="#000000">utils/template_utils.hpp</text>
</a>
</g>
</g>
<!-- Node2 -->
<g id="node2" class="node">
<title>Node2</title>
<g id="a_node2"><a xlink:href="jsp__regular__measures__minimization__solution_8hpp.html" target="_top" xlink:title="JSP Regular Measures Minimization.">
<polygon fill="none" stroke="#000000" points="90.5,-134.5 90.5,-175.5 215.5,-175.5 215.5,-134.5 90.5,-134.5"/>
<text text-anchor="start" x="98.5" y="-163.5" font-family="Helvetica,sans-Serif" font-size="10.00" fill="#000000">problems/jsp/jsp_regular</text>
<text text-anchor="start" x="98.5" y="-152.5" font-family="Helvetica,sans-Serif" font-size="10.00" fill="#000000">_measures_minimization</text>
<text text-anchor="middle" x="153" y="-141.5" font-family="Helvetica,sans-Serif" font-size="10.00" fill="#000000">_solution.hpp</text>
</a>
</g>
</g>
<!-- Node1&#45;&gt;Node2 -->
<g id="edge1" class="edge">
<title>Node1&#45;&gt;Node2</title>
<path fill="none" stroke="#191970" d="M153,-202.3919C153,-193.9817 153,-184.1519 153,-175.6318"/>
<polygon fill="#191970" stroke="#191970" points="149.5001,-202.4005 153,-212.4005 156.5001,-202.4006 149.5001,-202.4005"/>
</g>
<!-- Node3 -->
<g id="node3" class="node">
<title>Node3</title>
<g id="a_node3"><a xlink:href="jsp__genetic__encoders_8hpp.html" target="_top" xlink:title="JSP Genetic Encoders.">
<polygon fill="none" stroke="#000000" points="6.5,-67.5 6.5,-97.5 131.5,-97.5 131.5,-67.5 6.5,-67.5"/>
<text text-anchor="start" x="14.5" y="-85.5" font-family="Helvetica,sans-Serif" font-size="10.00" fill="#000000">problems/jsp/jsp_genetic</text>
<text text-anchor="middle" x="69" y="-74.5" font-family="Helvetica,sans-Serif" font-size="10.00" fill="#000000">_encoders.hpp</text>
</a>
</g>
</g>
<!-- Node1&#45;&gt;Node3 -->
<g id="edge5" class="edge">
<title>Node1&#45;&gt;Node3</title>
<path fill="none" stroke="#191970" d="M119.0124,-207.7429C105.3498,-200.285 90.7814,-189.7902 82,-176 66.683,-151.9463 66.1818,-117.396 67.4323,-97.73"/>
<polygon fill="#191970" stroke="#191970" points="117.7423,-211.0231 128.2441,-212.4241 120.9081,-204.7799 117.7423,-211.0231"/>
</g>
<!-- Node5 -->
<g id="node5" class="node">
<title>Node5</title>
<g id="a_node5"><a xlink:href="jsp__neighborhoods_8hpp.html" target="_top" xlink:title="JSP Neighborhoods.">
<polygon fill="none" stroke="#000000" points="152.5,-73 152.5,-92 327.5,-92 327.5,-73 152.5,-73"/>
<text text-anchor="middle" x="240" y="-80" font-family="Helvetica,sans-Serif" font-size="10.00" fill="#000000">problems/jsp/jsp_neighborhoods.hpp</text>
</a>
</g>
</g>
<!-- Node1&#45;&gt;Node5 -->
<g id="edge6" class="edge">
<title>Node1&#45;&gt;Node5</title>
<path fill="none" stroke="#191970" d="M187.3199,-207.7571C201.1486,-200.3018 215.9421,-189.8051 225,-176 242.3162,-149.6085 242.0956,-110.2105 240.903,-92.161"/>
<polygon fill="#191970" stroke="#191970" points="185.3551,-204.8268 177.9827,-212.4359 188.4911,-211.0851 185.3551,-204.8268"/>
</g>
<!-- Node2&#45;&gt;Node3 -->
<g id="edge2" class="edge">
<title>Node2&#45;&gt;Node3</title>
<path fill="none" stroke="#191970" d="M121.5723,-127.8749C109.7055,-117.6327 96.6343,-106.351 86.4941,-97.5991"/>
<polygon fill="#191970" stroke="#191970" points="119.2965,-130.534 129.1537,-134.4183 123.8702,-125.2349 119.2965,-130.534"/>
</g>
<!-- Node2&#45;&gt;Node5 -->
<g id="edge4" class="edge">
<title>Node2&#45;&gt;Node5</title>
<path fill="none" stroke="#191970" d="M185.3847,-128.0128C200.4991,-115.4174 217.5326,-101.2229 228.4976,-92.0853"/>
<polygon fill="#191970" stroke="#191970" points="183.1396,-125.3277 177.698,-134.4183 187.6209,-130.7052 183.1396,-125.3277"/>
</g>
<!-- Node4 -->
<g id="node4" class="node">
<title>Node4</title>
<g id="a_node4"><a xlink:href="jsp__generation__operators_8hpp.html" target="_top" xlink:title="JSP Generation Operators.">
<polygon fill="none" stroke="#000000" points="0,-.5 0,-30.5 138,-30.5 138,-.5 0,-.5"/>
<text text-anchor="start" x="8" y="-18.5" font-family="Helvetica,sans-Serif" font-size="10.00" fill="#000000">problems/jsp/jsp_generation</text>
<text text-anchor="middle" x="69" y="-7.5" font-family="Helvetica,sans-Serif" font-size="10.00" fill="#000000">_operators.hpp</text>
</a>
</g>
</g>
<!-- Node3&#45;&gt;Node4 -->
<g id="edge3" class="edge">
<title>Node3&#45;&gt;Node4</title>
<path fill="none" stroke="#191970" d="M69,-57.0249C69,-48.128 69,-38.4287 69,-30.6432"/>
<polygon fill="#191970" stroke="#191970" points="65.5001,-57.2966 69,-67.2967 72.5001,-57.2967 65.5001,-57.2966"/>
</g>
</g>
</svg>
