10 10
4 29.1 4
(5,8,11) (4,7,9) (10,13,17) (4,6,8) (6,9,11) (5,7,10) (6,9,12) (4,6,9) (8,10,13) (5,8,11)
(6,9,12) (4,7,10) (3,6,9) (3,5,8) (6,7,9) (5,6,8) (9,13,16) (7,10,12) (4,7,10) (5,7,10)
(9,11,14) (3,5,7) (5,7,10) (3,5,7) (4,7,9) (5,8,10) (5,7,10) (11,15,18) (8,10,13) (6,8,10)
(5,8,11) (9,12,15) (8,11,15) (6,9,11) (7,10,13) (13,15,18) (15,19,22) (7,9,13) (9,13,17) (7,9,13)
4 34.2 4
(10,14,17) (4,7,10) (4,8,11) (5,6,9) (6,9,11) (5,8,11) (5,8,10) (7,10,12) (7,9,11) (5,8,10)
(9,11,15) (5,8,9) (6,9,10) (7,10,12) (5,7,9) (5,8,11) (7,9,12) (5,7,9) (8,11,13) (9,12,15)
(5,8,9) (4,7,9) (6,8,11) (7,8,10) (7,9,11) (4,8,10) (5,7,10) (6,8,12) (7,8,10) (8,9,10)
(7,8,10) (9,11,14) (8,10,13) (11,14,17) (13,17,20) (7,10,12) (8,11,12) (6,9,11) (5,8,12) (6,10,13)
4 25.2 2
(3,4,5) (4,5,6) (2,3,6) (6,7,9) (7,8,10) (7,9,10) (4,5,7) (4,5,6) (5,7,8) (6,8,9)
(3,5,6) (7,9,12) (6,9,11) (7,8,11) (8,10,13) (5,6,8) (7,10,13) (7,9,12) (6,9,11) (5,9,12)
(10,14,17) (5,7,10) (10,13,17) (9,13,17) (8,11,15) (6,9,12) (5,8,11) (6,9,12) (10,12,14) (7,9,13)
(4,7,10) (3,5,9) (5,9,12) (6,8,12) (9,11,14) (5,9,12) (6,10,13) (19,24,28) (5,8,10) (7,10,12)
4 24.0 2
(3,5,6) (4,7,10) (5,8,10) (5,7,10) (6,9,11) (7,9,11) (4,7,10) (3,5,8) (4,7,9) (10,11,13)
(3,4,5) (4,7,8) (7,9,12) (5,8,10) (6,8,11) (3,5,8) (4,7,8) (5,8,9) (11,13,16) (5,7,9)
(2,4,6) (7,9,12) (4,5,7) (5,8,10) (3,5,8) (4,5,7) (9,12,15) (7,9,13) (6,8,11) (8,11,15)
(5,8,11) (9,12,14) (8,11,13) (6,9,12) (5,8,11) (7,10,13) (6,9,11) (5,8,11) (7,9,12) (5,7,10)
4 26.4 2
(3,6,8) (4,5,7) (8,9,11) (7,10,14) (4,6,9) (3,6,8) (5,8,10) (9,12,14) (5,6,8) (7,9,13)
(1,3,4) (5,6,8) (7,9,10) (3,5,8) (5,8,10) (5,7,9) (7,9,12) (8,10,13) (4,6,9) (5,6,8)
(8,11,14) (7,10,12) (6,7,8) (5,8,12) (4,7,10) (6,9,11) (8,11,15) (6,9,13) (6,8,9) (5,8,12)
(8,10,13) (7,9,12) (8,10,12) (6,9,12) (11,14,18) (5,8,10) (4,7,10) (6,8,11) (8,10,13) (5,8,9)
4 20.7 2
(8,9,10) (5,9,12) (2,3,5) (7,9,10) (8,11,15) (4,6,9) (3,5,8) (7,8,10) (8,9,10) (4,5,7)
(6,9,12) (7,10,12) (8,11,13) (5,7,10) (8,11,13) (9,12,14) (6,8,10) (5,7,9) (5,7,9) (5,8,9)
(2,3,4) (4,7,8) (5,8,10) (3,5,6) (4,7,8) (6,9,11) (7,10,12) (5,8,10) (6,8,11) (4,5,7)
(3,4,5) (10,13,17) (6,8,11) (7,10,13) (4,7,8) (5,8,10) (3,6,8) (3,4,5) (10,14,17) (3,5,7)
4 27.9 2
(2,4,6) (3,5,8) (4,6,8) (8,10,13) (4,6,9) (3,5,8) (7,8,10) (6,8,11) (1,2,4) (5,6,7)
(9,11,14) (6,8,9) (7,9,10) (8,12,15) (9,13,17) (5,9,13) (6,8,12) (5,8,11) (7,9,10) (7,10,12)
(5,8,10) (4,7,8) (10,12,15) (6,9,11) (6,9,11) (5,7,11) (6,9,12) (7,10,13) (6,8,10) (15,19,23)
(4,7,10) (5,8,10) (6,9,12) (4,7,9) (5,8,11) (4,7,9) (9,12,16) (8,11,15) (5,7,10) (4,7,10)
4 26.4 2
(9,12,15) (6,8,11) (4,7,10) (5,8,11) (10,13,15) (9,13,16) (8,11,15) (5,8,10) (6,8,11) (4,7,10)
(5,6,8) (2,3,5) (3,5,8) (6,8,11) (7,10,13) (4,7,8) (8,11,14) (6,9,13) (3,5,8) (15,19,24)
(5,8,10) (9,13,16) (7,10,14) (6,10,13) (7,10,12) (8,11,14) (8,11,14) (7,9,13) (10,13,15) (7,9,12)
(3,4,5) (8,11,13) (5,7,10) (7,9,11) (8,9,11) (5,7,10) (10,12,15) (3,5,6) (5,6,8) (5,8,10)
4 27.3 1
(7,9,11) (10,14,17) (9,12,16) (8,10,12) (7,9,11) (8,11,14) (10,13,16) (8,11,15) (7,10,14) (5,7,9)
(4,6,7) (5,8,9) (7,8,10) (4,7,9) (35,39,44) (4,7,9) (7,10,13) (8,11,14) (7,9,13) (10,12,14)
(8,10,13) (7,8,9) (6,8,11) (9,12,14) (5,6,8) (7,9,12) (8,11,15) (6,8,11) (6,8,9) (7,10,12)
(2,4,5) (7,10,13) (8,10,12) (6,9,12) (3,5,8) (6,8,11) (6,7,9) (13,17,20) (6,7,9) (2,4,5)
4 27.9 1
(3,4,6) (5,7,9) (5,7,9) (8,12,15) (7,10,12) (7,9,12) (6,9,12) (7,8,10) (19,23,26) (4,5,8)
(9,12,17) (6,8,10) (5,8,11) (4,7,9) (5,8,11) (6,9,12) (7,10,13) (6,7,9) (4,5,6) (10,13,17)
(6,8,9) (7,8,10) (8,10,11) (9,11,12) (10,13,15) (6,8,9) (11,15,18) (10,15,19) (7,8,10) (9,12,14)
(10,14,17) (5,8,10) (9,12,13) (6,8,9) (7,9,10) (5,6,8) (8,11,13) (5,6,8) (7,8,11) (9,10,12)
