10 10
4 44.5 4
(7,10,14) (6,9,11) (10,13,17) (7,9,12) (8,11,15) (5,8,11) (8,11,15) (9,12,16) (9,12,16) (8,12,16)
(16,20,25) (14,19,23) (13,17,21) (12,15,19) (16,19,23) (15,16,19) (9,15,19) (10,15,19) (14,18,22) (14,18,22)
(10,16,17) (8,10,13) (10,12,16) (8,11,13) (9,12,14) (10,13,15) (9,12,14) (15,20,23) (13,15,18) (10,13,15)
(8,12,15) (13,16,19) (12,15,19) (10,13,14) (11,14,17) (16,19,23) (18,22,26) (10,13,14) (12,17,21) (11,13,17)
4 31.25 4
(11,15,18) (5,8,10) (5,9,13) (6,7,10) (7,10,12) (6,9,12) (6,9,12) (8,11,13) (8,10,12) (6,9,11)
(10,12,14) (5,8,9) (5,9,10) (7,10,13) (5,7,9) (6,8,11) (7,10,13) (5,7,9) (8,11,14) (8,12,14)
(8,9,10) (10,13,14) (10,12,15) (11,13,16) (10,11,13) (8,12,15) (8,11,13) (6,9,12) (6,8,12) (8,9,10)
(6,9,11) (9,11,14) (8,10,13) (11,14,17) (7,10,12) (8,11,12) (13,17,20) (5,8,12) (6,10,13) (7,8,10)
4 29.75 2
(6,7,9) (4,5,6) (6,9,12) (7,8,10) (6,7,9) (8,10,13) (5,7,10) (9,11,13) (9,12,14) (4,5,6)
(9,12,15) (6,8,12) (8,10,13) (7,8,11) (8,10,13) (5,6,8) (7,10,13) (5,9,12) (6,9,11) (5,9,12)
(5,6,8) (8,10,13) (10,14,19) (7,11,14) (6,8,11) (6,9,13) (9,13,17) (8,10,13) (7,11,14) (6,9,12)
(10,14,18) (11,15,20) (14,19,24) (13,17,20) (9,15,21) (9,14,18) (10,14,18) (15,19,26) (23,28,33) (8,12,17)
4 41.0 2
(9,12,16) (9,13,17) (11,15,20) (8,13,19) (12,17,24) (10,15,19) (10,15,19) (13,16,20) (10,16,21) (12,16,23)
(11,15,20) (10,13,17) (13,18,23) (11,17,23) (11,16,23) (13,18,24) (11,15,20) (10,12,16) (11,17,24) (14, 19,23)
(15,21,26) (10,11,17) (9,13,17) (12,18,23) (10,11,17) (11,16,20) (13,17,21) (11,15,20) (13,19,24) (10,15,19)
(3,4,5) (6,7,10) (8,9,11) (9,11,14) (5,8,11) (8,11,16) (7,10,15) (8,12,16) (6,7,10) (9,12,16)
4 28.75 2
(8,11,15) (7,10,12) (7,9,11) (6,9,12) (10,13,17) (7,10,12) (9,11,15) (7,9,12) (11,14,18) (5,8,11)
(6,8,9) (12,15,19) (7,10,13) (6,10,12) (7,9,12) (10,13,18) (7,11,15) (6,10,12) (8,11,15) (8,12,17)
(5,6,8) (6,9,11) (9,10,13) (7,9,10) (5,8,11) (11,14,18) (8,10,13) (9,12,16) (7,8,10) (7,8,10)
(4,7,9) (9,10,13) (5,8,12) (7,10,14) (6,8,11) (7,9,12) (6,8,11) (9,10,12) (5,9,12) (6,8,11)
4 33.5 2
(10,13,17) (6,8,9) (7,9,11) (8,10,13) (8,10,13) (8,11,15) (6,10,13) (7,9,12) (9,11,13) (7,9,11)
(10,14,19) (11,15,20) (12,16,22) (9,13,17) (8,13,17) (10,13,18) (11,15,21) (12,19,25) (8,13,17) (10,14,17)
(7,10,12) (12,17,23) (12,19,25) (10,15,20) (9,16,27) (11,15,19) (13,18,24) (11,16,23) (10,15,20) (10,15,19)
(3,4,5) (2,3,5) (7,8,10) (5,8,10) (3,5,8) (6,8,10) (7,10,11) (6,8,10) (4,7,9) (11,14,18)
4 32.75 2
(8,11,13) (7,9,11) (9,13,17) (10,13,17) (10,14,19) (7,10,13) (9,13,17) (8,12,16) (9,11,15) (8,10,14)
(6,9,11) (10,13,18) (7,8,10) (8,9,11) (8,9,11) (11,14,18) (10,13,16) (7,10,13) (10,12,14) (7,9,12)
(5,6,8) (4,5,7) (6,8,11) (8,10,13) (7,10,12) (5,8,10) (8,10,12) (9,11,15) (5,8,10) (11,15,20)
(11,14,18) (10,13,17) (8,12,17) (7,10,14) (9,14,20) (8,12,17) (10,15,21) (9,14,19) (10,14,19) (8,10,13)
4 33.0 2
(7,10,12) (8,11,15) (9,14,18) (10,15,19) (11,14,18) (9,15,21) (8,12,17) (7,10,12) (9,13,18) (8,12,17)
(10,14,19) (9,12,15) (12,17,21) (13,18,23) (10,13,18) (11,15,20) (11,16,19) (11,16,19) (10,13,18) (12,16,21)
(4,6,8) (8,11,15) (7,11,14) (8,10,13) (6,8,10) (12,17,23) (7,10,12) (10,13,17) (9,14,18) (6,8,10)
(7,8,10) (4,5,7) (3,5,8) (7,9,11) (6,8,10) (5,7,9) (6,8,11) (7,10,12) (7,10,12) (8,10,13)
4 27.0 1
(5,8,10) (10,13,18) (4,7,9) (8,10,13) (6,9,12) (5,7,10) (9,12,16) (7,9,13) (6,8,12) (5,7,10)
(2,3,5) (4,6,7) (8,10,11) (7,9,10) (5,6,8) (6,7,9) (9,12,14) (8,11,13) (4,6,7) (5,7,10)
(10,14,17) (6,9,11) (7,11,14) (5,9,12) (5,8,11) (8,10,14) (12,16,20) (6,8,11) (7,10,13) (10,13,15)
(9,11,15) (8,11,14) (7,10,12) (10,13,17) (8,10,13) (11,16,21) (7,9,11) (13,17,22) (10,14,17) (8,9,12)
4 29.75 1
(5,8,11) (7,9,13) (6,9,11) (10,13,17) (7,10,13) (8,11,15) (9,12,16) (9,14,17) (10,14,18) (7,11,14)
(13,17,22) (7,10,12) (8,10,13) (6,10,13) (6,9,11) (9,13,16) (7,9,10) (8,11,15) (7,10,12) (9,13,17)
(5,8,10) (11,15,19) (7,9,11) (6,8,11) (8,10,13) (9,11,15) (7,9,11) (12,17,21) (5,9,12) (10,13,17)
(3,5,8) (4,5,7) (9,10,13) (5,8,10) (6,8,12) (7,9,12) (8,11,14) (10,15,19) (4,7,9) (11,16,20)
