SOLUTION
Makespan (24,33,47)
5-0 7-1 2-2 7-3 9-4 
3-0 9-1 4-2 5-2 4-5 
9-0 6-1 3-2 5-3 5-4 
2-0 3-1 1-2 8-3 2-5 
8-0 4-1 9-2 6-3 6-4 
10-0 10-1 6-2 10-2 8-4 
7-0 5-1 8-2 9-3 7-4 
4-0 8-1 7-2 2-4 3-3 
1-0 2-1 2-3 1-3 10-4 
6-0 1-1 4-3 4-4 10-3 

