SOLUTION
Makespan (34,50,69)
9-0 2-0 5-1 3-1 8-2 12-3 2-3 6-3 14-3 11-5 
11-0 10-0 10-1 9-1 12-2 6-2 11-3 1-3 15-4 
13-0 15-1 14-1 7-2 7-3 7-4 4-5 6-4 
6-0 3-0 13-2 5-2 15-3 10-3 2-5 
5-0 4-1 7-1 1-2 8-3 5-4 13-4 11-4 9-4 
1-0 15-0 13-1 4-2 4-3 14-2 2-4 10-4 
12-0 11-1 2-2 10-2 12-4 12-5 1-4 
14-0 2-1 15-2 4-4 3-3 13-5 
4-0 7-0 8-1 11-2 9-2 9-3 3-4 
8-0 12-1 6-1 1-1 3-2 5-3 13-3 8-4 14-4 

